<?xml version="1.0" standalone="no"?>
 <!DOCTYPE svg PUBLIC "-//W3C//DTD SVG 1.1//EN" 
 "http://www.w3.org/Graphics/SVG/1.1/DTD/svg11.dtd"> 
<svg xmlns="http://www.w3.org/2000/svg" version="1.1" 
    width="13.2004cm" height="14.8006cm" viewBox="0 0 51970 58270 ">
<title>SVG Picture created as motor_drive-B_Cu.svg date 2021/01/08 18:26:27 </title>
  <desc>Picture generated by PCBNEW </desc>
<g style="fill:#000000; fill-opacity:1;stroke:#000000; stroke-opacity:1;
stroke-linecap:round; stroke-linejoin:round; "
 transform="translate(0 0) scale(1 1)">
</g>
<g style="fill:#000000; fill-opacity:0.0; 
stroke:#000000; stroke-width:-0.000393701; stroke-opacity:1; 
stroke-linecap:round; stroke-linejoin:round;">
</g>
<g style="fill:#000000; fill-opacity:0.0; 
stroke:#000000; stroke-width:39.3701; stroke-opacity:1; 
stroke-linecap:round; stroke-linejoin:round;">
</g>
<g style="fill:#000000; fill-opacity:0.0; 
stroke:#000000; stroke-width:59.0551; stroke-opacity:1; 
stroke-linecap:round; stroke-linejoin:round;">
<rect x="4725.91" y="40947.2" width="42519.7" height="12598.4" rx="0" />
</g>
<g style="fill:#000000; fill-opacity:0.0; 
stroke:#000000; stroke-width:39.3701; stroke-opacity:1; 
stroke-linecap:round; stroke-linejoin:round;">
</g>
<g style="fill:#000000; fill-opacity:0.0; 
stroke:#000000; stroke-width:59.0551; stroke-opacity:1; 
stroke-linecap:round; stroke-linejoin:round;">
<rect x="3937.01" y="3937.01" width="44096" height="50396" rx="0" />
</g>
<g style="fill:#000000; fill-opacity:0.0; 
stroke:#000000; stroke-width:39.3701; stroke-opacity:1; 
stroke-linecap:round; stroke-linejoin:round;">
</g>
<g style="fill:#000000; fill-opacity:0.0; 
stroke:#000000; stroke-width:59.0551; stroke-opacity:1; 
stroke-linecap:round; stroke-linejoin:round;">
<rect x="4724.41" y="4724.41" width="42521.2" height="48821.2" rx="0" />
</g>
<g style="fill:#000000; fill-opacity:0.0; 
stroke:#000000; stroke-width:39.3701; stroke-opacity:1; 
stroke-linecap:round; stroke-linejoin:round;">
</g>
<g style="fill:#000000; fill-opacity:0.0; 
stroke:#000000; stroke-width:59.0551; stroke-opacity:1; 
stroke-linecap:round; stroke-linejoin:round;">
<path d="M23622 4724
L23622 3937
" />
</g>
<g style="fill:#000000; fill-opacity:0.0; 
stroke:#000000; stroke-width:39.3701; stroke-opacity:1; 
stroke-linecap:round; stroke-linejoin:round;">
</g>
<g style="fill:#000000; fill-opacity:0.0; 
stroke:#000000; stroke-width:59.0551; stroke-opacity:1; 
stroke-linecap:round; stroke-linejoin:round;">
<path d="M43307 4724
L43307 3937
" />
</g>
<g style="fill:#000000; fill-opacity:0.0; 
stroke:#000000; stroke-width:39.3701; stroke-opacity:1; 
stroke-linecap:round; stroke-linejoin:round;">
</g>
<g style="fill:#000000; fill-opacity:0.0; 
stroke:#000000; stroke-width:59.0551; stroke-opacity:1; 
stroke-linecap:round; stroke-linejoin:round;">
<text x="13779.5" y="4586.61"
textLength="546.494" font-size="682.415" lengthAdjust="spacingAndGlyphs"
text-anchor="start" opacity="0">1</text>
<path d="M14199 4562
L13906 4562
" />
<path d="M14052 4562
L14052 4050
L14004 4123
L13955 4172
L13906 4196
" />
</g>
<g style="fill:#000000; fill-opacity:0.0; 
stroke:#000000; stroke-width:39.3701; stroke-opacity:1; 
stroke-linecap:round; stroke-linejoin:round;">
</g>
<g style="fill:#000000; fill-opacity:0.0; 
stroke:#000000; stroke-width:59.0551; stroke-opacity:1; 
stroke-linecap:round; stroke-linejoin:round;">
<text x="33464.6" y="4586.61"
textLength="546.494" font-size="682.415" lengthAdjust="spacingAndGlyphs"
text-anchor="start" opacity="0">2</text>
<path d="M33591 4099
L33615 4074
L33664 4050
L33786 4050
L33835 4074
L33859 4099
L33884 4147
L33884 4196
L33859 4269
L33567 4562
L33884 4562
" />
</g>
<g style="fill:#000000; fill-opacity:0.0; 
stroke:#000000; stroke-width:39.3701; stroke-opacity:1; 
stroke-linecap:round; stroke-linejoin:round;">
</g>
<g style="fill:#000000; fill-opacity:0.0; 
stroke:#000000; stroke-width:59.0551; stroke-opacity:1; 
stroke-linecap:round; stroke-linejoin:round;">
<path d="M23622 53545
L23622 54332
" />
</g>
<g style="fill:#000000; fill-opacity:0.0; 
stroke:#000000; stroke-width:39.3701; stroke-opacity:1; 
stroke-linecap:round; stroke-linejoin:round;">
</g>
<g style="fill:#000000; fill-opacity:0.0; 
stroke:#000000; stroke-width:59.0551; stroke-opacity:1; 
stroke-linecap:round; stroke-linejoin:round;">
<path d="M43307 53545
L43307 54332
" />
</g>
<g style="fill:#000000; fill-opacity:0.0; 
stroke:#000000; stroke-width:39.3701; stroke-opacity:1; 
stroke-linecap:round; stroke-linejoin:round;">
</g>
<g style="fill:#000000; fill-opacity:0.0; 
stroke:#000000; stroke-width:59.0551; stroke-opacity:1; 
stroke-linecap:round; stroke-linejoin:round;">
<text x="13779.5" y="54195.2"
textLength="546.494" font-size="682.415" lengthAdjust="spacingAndGlyphs"
text-anchor="start" opacity="0">1</text>
<path d="M14199 54170
L13906 54170
" />
<path d="M14052 54170
L14052 53659
L14004 53732
L13955 53780
L13906 53805
" />
</g>
<g style="fill:#000000; fill-opacity:0.0; 
stroke:#000000; stroke-width:39.3701; stroke-opacity:1; 
stroke-linecap:round; stroke-linejoin:round;">
</g>
<g style="fill:#000000; fill-opacity:0.0; 
stroke:#000000; stroke-width:59.0551; stroke-opacity:1; 
stroke-linecap:round; stroke-linejoin:round;">
<text x="33464.6" y="54195.2"
textLength="546.494" font-size="682.415" lengthAdjust="spacingAndGlyphs"
text-anchor="start" opacity="0">2</text>
<path d="M33591 53707
L33615 53683
L33664 53659
L33786 53659
L33835 53683
L33859 53707
L33884 53756
L33884 53805
L33859 53878
L33567 54170
L33884 54170
" />
</g>
<g style="fill:#000000; fill-opacity:0.0; 
stroke:#000000; stroke-width:39.3701; stroke-opacity:1; 
stroke-linecap:round; stroke-linejoin:round;">
</g>
<g style="fill:#000000; fill-opacity:0.0; 
stroke:#000000; stroke-width:59.0551; stroke-opacity:1; 
stroke-linecap:round; stroke-linejoin:round;">
<path d="M3937 23622
L4724 23622
" />
</g>
<g style="fill:#000000; fill-opacity:0.0; 
stroke:#000000; stroke-width:39.3701; stroke-opacity:1; 
stroke-linecap:round; stroke-linejoin:round;">
</g>
<g style="fill:#000000; fill-opacity:0.0; 
stroke:#000000; stroke-width:59.0551; stroke-opacity:1; 
stroke-linecap:round; stroke-linejoin:round;">
<path d="M3937 43307
L4724 43307
" />
</g>
<g style="fill:#000000; fill-opacity:0.0; 
stroke:#000000; stroke-width:39.3701; stroke-opacity:1; 
stroke-linecap:round; stroke-linejoin:round;">
</g>
<g style="fill:#000000; fill-opacity:0.0; 
stroke:#000000; stroke-width:59.0551; stroke-opacity:1; 
stroke-linecap:round; stroke-linejoin:round;">
<text x="4330.71" y="14035.4"
textLength="497.75" font-size="682.415" lengthAdjust="spacingAndGlyphs"
text-anchor="middle" opacity="0">A</text>
<path d="M4208 13864
L4452 13864
" />
<path d="M4160 14011
L4330 13499
L4501 14011
" />
</g>
<g style="fill:#000000; fill-opacity:0.0; 
stroke:#000000; stroke-width:39.3701; stroke-opacity:1; 
stroke-linecap:round; stroke-linejoin:round;">
</g>
<g style="fill:#000000; fill-opacity:0.0; 
stroke:#000000; stroke-width:59.0551; stroke-opacity:1; 
stroke-linecap:round; stroke-linejoin:round;">
<text x="4330.71" y="33720.5"
textLength="570.866" font-size="682.415" lengthAdjust="spacingAndGlyphs"
text-anchor="middle" opacity="0">B</text>
<path d="M4367 33428
L4440 33452
L4464 33476
L4489 33525
L4489 33598
L4464 33647
L4440 33671
L4391 33696
L4196 33696
L4196 33184
L4367 33184
L4416 33208
L4440 33233
L4464 33281
L4464 33330
L4440 33379
L4416 33403
L4367 33428
L4196 33428
" />
</g>
<g style="fill:#000000; fill-opacity:0.0; 
stroke:#000000; stroke-width:39.3701; stroke-opacity:1; 
stroke-linecap:round; stroke-linejoin:round;">
</g>
<g style="fill:#000000; fill-opacity:0.0; 
stroke:#000000; stroke-width:59.0551; stroke-opacity:1; 
stroke-linecap:round; stroke-linejoin:round;">
<text x="4330.71" y="53405.5"
textLength="570.866" font-size="682.415" lengthAdjust="spacingAndGlyphs"
text-anchor="middle" opacity="0">C</text>
<path d="M4489 53332
L4464 53356
L4391 53381
L4342 53381
L4269 53356
L4221 53308
L4196 53259
L4172 53161
L4172 53088
L4196 52991
L4221 52942
L4269 52893
L4342 52869
L4391 52869
L4464 52893
L4489 52918
" />
</g>
<g style="fill:#000000; fill-opacity:0.0; 
stroke:#000000; stroke-width:39.3701; stroke-opacity:1; 
stroke-linecap:round; stroke-linejoin:round;">
</g>
<g style="fill:#000000; fill-opacity:0.0; 
stroke:#000000; stroke-width:59.0551; stroke-opacity:1; 
stroke-linecap:round; stroke-linejoin:round;">
<path d="M48032 23622
L47245 23622
" />
</g>
<g style="fill:#000000; fill-opacity:0.0; 
stroke:#000000; stroke-width:39.3701; stroke-opacity:1; 
stroke-linecap:round; stroke-linejoin:round;">
</g>
<g style="fill:#000000; fill-opacity:0.0; 
stroke:#000000; stroke-width:59.0551; stroke-opacity:1; 
stroke-linecap:round; stroke-linejoin:round;">
<path d="M48032 43307
L47245 43307
" />
</g>
<g style="fill:#000000; fill-opacity:0.0; 
stroke:#000000; stroke-width:39.3701; stroke-opacity:1; 
stroke-linecap:round; stroke-linejoin:round;">
</g>
<g style="fill:#000000; fill-opacity:0.0; 
stroke:#000000; stroke-width:59.0551; stroke-opacity:1; 
stroke-linecap:round; stroke-linejoin:round;">
<text x="47639.3" y="14035.4"
textLength="497.75" font-size="682.415" lengthAdjust="spacingAndGlyphs"
text-anchor="middle" opacity="0">A</text>
<path d="M47517 13864
L47761 13864
" />
<path d="M47468 14011
L47639 13499
L47809 14011
" />
</g>
<g style="fill:#000000; fill-opacity:0.0; 
stroke:#000000; stroke-width:39.3701; stroke-opacity:1; 
stroke-linecap:round; stroke-linejoin:round;">
</g>
<g style="fill:#000000; fill-opacity:0.0; 
stroke:#000000; stroke-width:59.0551; stroke-opacity:1; 
stroke-linecap:round; stroke-linejoin:round;">
<text x="47639.3" y="33720.5"
textLength="570.866" font-size="682.415" lengthAdjust="spacingAndGlyphs"
text-anchor="middle" opacity="0">B</text>
<path d="M47675 33428
L47748 33452
L47773 33476
L47797 33525
L47797 33598
L47773 33647
L47748 33671
L47700 33696
L47505 33696
L47505 33184
L47675 33184
L47724 33208
L47748 33233
L47773 33281
L47773 33330
L47748 33379
L47724 33403
L47675 33428
L47505 33428
" />
</g>
<g style="fill:#000000; fill-opacity:0.0; 
stroke:#000000; stroke-width:39.3701; stroke-opacity:1; 
stroke-linecap:round; stroke-linejoin:round;">
</g>
<g style="fill:#000000; fill-opacity:0.0; 
stroke:#000000; stroke-width:59.0551; stroke-opacity:1; 
stroke-linecap:round; stroke-linejoin:round;">
<text x="47639.3" y="53405.5"
textLength="570.866" font-size="682.415" lengthAdjust="spacingAndGlyphs"
text-anchor="middle" opacity="0">C</text>
<path d="M47797 53332
L47773 53356
L47700 53381
L47651 53381
L47578 53356
L47529 53308
L47505 53259
L47480 53161
L47480 53088
L47505 52991
L47529 52942
L47578 52893
L47651 52869
L47700 52869
L47773 52893
L47797 52918
" />
</g>
<g style="fill:#000000; fill-opacity:0.0; 
stroke:#000000; stroke-width:39.3701; stroke-opacity:1; 
stroke-linecap:round; stroke-linejoin:round;">
</g>
<g style="fill:#000000; fill-opacity:0.0; 
stroke:#000000; stroke-width:59.0551; stroke-opacity:1; 
stroke-linecap:round; stroke-linejoin:round;">
<text x="13781" y="51911.7"
textLength="8720.47" font-size="787.402" lengthAdjust="spacingAndGlyphs"
text-anchor="start" opacity="0">Date: 2020-12-27</text>
<path d="M13951 51883
L13951 51293
L14091 51293
L14176 51321
L14232 51377
L14260 51433
L14288 51546
L14288 51630
L14260 51743
L14232 51799
L14176 51855
L14091 51883
L13951 51883
" />
<path d="M14794 51883
L14794 51574
L14766 51518
L14710 51489
L14597 51489
L14541 51518
" />
<path d="M14794 51855
L14738 51883
L14597 51883
L14541 51855
L14513 51799
L14513 51743
L14541 51686
L14597 51658
L14738 51658
L14794 51630
" />
<path d="M14991 51489
L15216 51489
" />
<path d="M15076 51293
L15076 51799
L15104 51855
L15160 51883
L15216 51883
" />
<path d="M15638 51855
L15582 51883
L15469 51883
L15413 51855
L15385 51799
L15385 51574
L15413 51518
L15469 51489
L15582 51489
L15638 51518
L15666 51574
L15666 51630
L15385 51686
" />
<path d="M15919 51827
L15947 51855
L15919 51883
L15891 51855
L15919 51827
L15919 51883
" />
<path d="M15919 51518
L15947 51546
L15919 51574
L15891 51546
L15919 51518
L15919 51574
" />
<path d="M16622 51349
L16650 51321
L16707 51293
L16847 51293
L16903 51321
L16932 51349
L16960 51405
L16960 51461
L16932 51546
L16594 51883
L16960 51883
" />
<path d="M17325 51293
L17381 51293
L17438 51321
L17466 51349
L17494 51405
L17522 51518
L17522 51658
L17494 51771
L17466 51827
L17438 51855
L17381 51883
L17325 51883
L17269 51855
L17241 51827
L17213 51771
L17185 51658
L17185 51518
L17213 51405
L17241 51349
L17269 51321
L17325 51293
" />
<path d="M17747 51349
L17775 51321
L17831 51293
L17972 51293
L18028 51321
L18056 51349
L18085 51405
L18085 51461
L18056 51546
L17719 51883
L18085 51883
" />
<path d="M18450 51293
L18506 51293
L18563 51321
L18591 51349
L18619 51405
L18647 51518
L18647 51658
L18619 51771
L18591 51827
L18563 51855
L18506 51883
L18450 51883
L18394 51855
L18366 51827
L18338 51771
L18309 51658
L18309 51518
L18338 51405
L18366 51349
L18394 51321
L18450 51293
" />
<path d="M18900 51658
L19350 51658
" />
<path d="M19941 51883
L19603 51883
" />
<path d="M19772 51883
L19772 51293
L19716 51377
L19659 51433
L19603 51461
" />
<path d="M20166 51349
L20194 51321
L20250 51293
L20390 51293
L20447 51321
L20475 51349
L20503 51405
L20503 51461
L20475 51546
L20137 51883
L20503 51883
" />
<path d="M20756 51658
L21206 51658
" />
<path d="M21459 51349
L21487 51321
L21543 51293
L21684 51293
L21740 51321
L21768 51349
L21797 51405
L21797 51461
L21768 51546
L21431 51883
L21797 51883
" />
<path d="M21993 51293
L22387 51293
L22134 51883
" />
</g>
<g style="fill:#000000; fill-opacity:0.0; 
stroke:#000000; stroke-width:39.3701; stroke-opacity:1; 
stroke-linecap:round; stroke-linejoin:round;">
</g>
<g style="fill:#000000; fill-opacity:0.0; 
stroke:#000000; stroke-width:59.0551; stroke-opacity:1; 
stroke-linecap:round; stroke-linejoin:round;">
<path d="M4725 52167
L47245 52167
" />
</g>
<g style="fill:#000000; fill-opacity:0.0; 
stroke:#000000; stroke-width:39.3701; stroke-opacity:1; 
stroke-linecap:round; stroke-linejoin:round;">
</g>
<g style="fill:#000000; fill-opacity:0.0; 
stroke:#000000; stroke-width:59.0551; stroke-opacity:1; 
stroke-linecap:round; stroke-linejoin:round;">
<text x="5119.61" y="53014.1"
textLength="18675.5" font-size="787.402" lengthAdjust="spacingAndGlyphs"
text-anchor="start" opacity="0">KiCad E.D.A.  kicad 5.1.5+dfsg1-2build2</text>
<path d="M5289 52985
L5289 52395
" />
<path d="M5627 52985
L5374 52648
" />
<path d="M5627 52395
L5289 52732
" />
<path d="M5880 52985
L5880 52592
" />
<path d="M5880 52395
L5852 52423
L5880 52451
L5908 52423
L5880 52395
L5880 52451
" />
<path d="M6498 52929
L6470 52957
L6386 52985
L6330 52985
L6245 52957
L6189 52901
L6161 52845
L6133 52732
L6133 52648
L6161 52536
L6189 52479
L6245 52423
L6330 52395
L6386 52395
L6470 52423
L6498 52451
" />
<path d="M7005 52985
L7005 52676
L6977 52620
L6920 52592
L6808 52592
L6752 52620
" />
<path d="M7005 52957
L6948 52985
L6808 52985
L6752 52957
L6723 52901
L6723 52845
L6752 52789
L6808 52761
L6948 52761
L7005 52732
" />
<path d="M7539 52985
L7539 52395
" />
<path d="M7539 52957
L7483 52985
L7370 52985
L7314 52957
L7286 52929
L7258 52873
L7258 52704
L7286 52648
L7314 52620
L7370 52592
L7483 52592
L7539 52620
" />
<path d="M8270 52676
L8467 52676
" />
<path d="M8551 52985
L8270 52985
L8270 52395
L8551 52395
" />
<path d="M8804 52929
L8833 52957
L8804 52985
L8776 52957
L8804 52929
L8804 52985
" />
<path d="M9086 52985
L9086 52395
L9226 52395
L9311 52423
L9367 52479
L9395 52536
L9423 52648
L9423 52732
L9395 52845
L9367 52901
L9311 52957
L9226 52985
L9086 52985
" />
<path d="M9676 52929
L9704 52957
L9676 52985
L9648 52957
L9676 52929
L9676 52985
" />
<path d="M9929 52817
L10211 52817
" />
<path d="M9873 52985
L10070 52395
L10267 52985
" />
<path d="M10464 52929
L10492 52957
L10464 52985
L10435 52957
L10464 52929
L10464 52985
" />
<path d="M11645 52985
L11645 52395
" />
<path d="M11701 52761
L11870 52985
" />
<path d="M11870 52592
L11645 52817
" />
<path d="M12123 52985
L12123 52592
" />
<path d="M12123 52395
L12095 52423
L12123 52451
L12151 52423
L12123 52395
L12123 52451
" />
<path d="M12657 52957
L12601 52985
L12488 52985
L12432 52957
L12404 52929
L12376 52873
L12376 52704
L12404 52648
L12432 52620
L12488 52592
L12601 52592
L12657 52620
" />
<path d="M13163 52985
L13163 52676
L13135 52620
L13079 52592
L12966 52592
L12910 52620
" />
<path d="M13163 52957
L13107 52985
L12966 52985
L12910 52957
L12882 52901
L12882 52845
L12910 52789
L12966 52761
L13107 52761
L13163 52732
" />
<path d="M13698 52985
L13698 52395
" />
<path d="M13698 52957
L13641 52985
L13529 52985
L13473 52957
L13444 52929
L13416 52873
L13416 52704
L13444 52648
L13473 52620
L13529 52592
L13641 52592
L13698 52620
" />
<path d="M14710 52395
L14429 52395
L14401 52676
L14429 52648
L14485 52620
L14626 52620
L14682 52648
L14710 52676
L14738 52732
L14738 52873
L14710 52929
L14682 52957
L14626 52985
L14485 52985
L14429 52957
L14401 52929
" />
<path d="M14991 52929
L15019 52957
L14991 52985
L14963 52957
L14991 52929
L14991 52985
" />
<path d="M15582 52985
L15244 52985
" />
<path d="M15413 52985
L15413 52395
L15357 52479
L15300 52536
L15244 52564
" />
<path d="M15835 52929
L15863 52957
L15835 52985
L15807 52957
L15835 52929
L15835 52985
" />
<path d="M16397 52395
L16116 52395
L16088 52676
L16116 52648
L16172 52620
L16313 52620
L16369 52648
L16397 52676
L16425 52732
L16425 52873
L16397 52929
L16369 52957
L16313 52985
L16172 52985
L16116 52957
L16088 52929
" />
<path d="M16678 52761
L17128 52761
" />
<path d="M16903 52985
L16903 52536
" />
<path d="M17663 52985
L17663 52395
" />
<path d="M17663 52957
L17606 52985
L17494 52985
L17438 52957
L17410 52929
L17381 52873
L17381 52704
L17410 52648
L17438 52620
L17494 52592
L17606 52592
L17663 52620
" />
<path d="M17860 52592
L18085 52592
" />
<path d="M17944 52985
L17944 52479
L17972 52423
L18028 52395
L18085 52395
" />
<path d="M18253 52957
L18309 52985
L18422 52985
L18478 52957
L18506 52901
L18506 52873
L18478 52817
L18422 52789
L18338 52789
L18281 52761
L18253 52704
L18253 52676
L18281 52620
L18338 52592
L18422 52592
L18478 52620
" />
<path d="M19013 52592
L19013 53070
L18984 53126
L18956 53154
L18900 53182
L18816 53182
L18759 53154
" />
<path d="M19013 52957
L18956 52985
L18844 52985
L18788 52957
L18759 52929
L18731 52873
L18731 52704
L18759 52648
L18788 52620
L18844 52592
L18956 52592
L19013 52620
" />
<path d="M19603 52985
L19266 52985
" />
<path d="M19434 52985
L19434 52395
L19378 52479
L19322 52536
L19266 52564
" />
<path d="M19856 52761
L20306 52761
" />
<path d="M20559 52451
L20587 52423
L20644 52395
L20784 52395
L20840 52423
L20869 52451
L20897 52507
L20897 52564
L20869 52648
L20531 52985
L20897 52985
" />
<path d="M21150 52985
L21150 52395
" />
<path d="M21150 52620
L21206 52592
L21318 52592
L21375 52620
L21403 52648
L21431 52704
L21431 52873
L21403 52929
L21375 52957
L21318 52985
L21206 52985
L21150 52957
" />
<path d="M21937 52592
L21937 52985
" />
<path d="M21684 52592
L21684 52901
L21712 52957
L21768 52985
L21853 52985
L21909 52957
L21937 52929
" />
<path d="M22218 52985
L22218 52592
" />
<path d="M22218 52395
L22190 52423
L22218 52451
L22246 52423
L22218 52395
L22218 52451
" />
<path d="M22584 52985
L22528 52957
L22500 52901
L22500 52395
" />
<path d="M23062 52985
L23062 52395
" />
<path d="M23062 52957
L23006 52985
L22893 52985
L22837 52957
L22809 52929
L22781 52873
L22781 52704
L22809 52648
L22837 52620
L22893 52592
L23006 52592
L23062 52620
" />
<path d="M23315 52451
L23343 52423
L23399 52395
L23540 52395
L23596 52423
L23624 52451
L23653 52507
L23653 52564
L23624 52648
L23287 52985
L23653 52985
" />
</g>
<g style="fill:#000000; fill-opacity:0.0; 
stroke:#000000; stroke-width:39.3701; stroke-opacity:1; 
stroke-linecap:round; stroke-linejoin:round;">
</g>
<g style="fill:#000000; fill-opacity:0.0; 
stroke:#000000; stroke-width:59.0551; stroke-opacity:1; 
stroke-linecap:round; stroke-linejoin:round;">
<path d="M4725 50986
L47245 50986
" />
</g>
<g style="fill:#000000; fill-opacity:0.0; 
stroke:#000000; stroke-width:39.3701; stroke-opacity:1; 
stroke-linecap:round; stroke-linejoin:round;">
</g>
<g style="fill:#000000; fill-opacity:0.0; 
stroke:#000000; stroke-width:118.11; stroke-opacity:1; 
stroke-linecap:round; stroke-linejoin:round;">
<text x="38584.2" y="51911.7"
textLength="3742.97" font-size="787.402" lengthAdjust="spacingAndGlyphs"
text-anchor="start" opacity="0">Rev: 1.0</text>
<path d="M39139 51883
L38942 51602
" />
<path d="M38801 51883
L38801 51293
L39026 51293
L39082 51321
L39110 51349
L39139 51405
L39139 51489
L39110 51546
L39082 51574
L39026 51602
L38801 51602
" />
<path d="M39617 51855
L39560 51883
L39448 51883
L39392 51855
L39363 51799
L39363 51574
L39392 51518
L39448 51489
L39560 51489
L39617 51518
L39645 51574
L39645 51630
L39363 51686
" />
<path d="M39842 51489
L39982 51883
L40123 51489
" />
<path d="M40348 51827
L40376 51855
L40348 51883
L40320 51855
L40348 51827
L40348 51883
" />
<path d="M40348 51518
L40376 51546
L40348 51574
L40320 51546
L40348 51518
L40348 51574
" />
<path d="M41388 51883
L41051 51883
" />
<path d="M41220 51883
L41220 51293
L41163 51377
L41107 51433
L41051 51461
" />
<path d="M41641 51827
L41669 51855
L41641 51883
L41613 51855
L41641 51827
L41641 51883
" />
<path d="M42035 51293
L42091 51293
L42148 51321
L42176 51349
L42204 51405
L42232 51518
L42232 51658
L42204 51771
L42176 51827
L42148 51855
L42091 51883
L42035 51883
L41979 51855
L41951 51827
L41923 51771
L41894 51658
L41894 51518
L41923 51405
L41951 51349
L41979 51321
L42035 51293
" />
</g>
<g style="fill:#000000; fill-opacity:0.0; 
stroke:#000000; stroke-width:39.3701; stroke-opacity:1; 
stroke-linecap:round; stroke-linejoin:round;">
</g>
<g style="fill:#000000; fill-opacity:0.0; 
stroke:#000000; stroke-width:59.0551; stroke-opacity:1; 
stroke-linecap:round; stroke-linejoin:round;">
<text x="5119.61" y="51911.7"
textLength="4681.1" font-size="787.402" lengthAdjust="spacingAndGlyphs"
text-anchor="start" opacity="0">Size: User</text>
<path d="M5261 51855
L5345 51883
L5486 51883
L5542 51855
L5570 51827
L5599 51771
L5599 51714
L5570 51658
L5542 51630
L5486 51602
L5374 51574
L5317 51546
L5289 51518
L5261 51461
L5261 51405
L5289 51349
L5317 51321
L5374 51293
L5514 51293
L5599 51321
" />
<path d="M5852 51883
L5852 51489
" />
<path d="M5852 51293
L5824 51321
L5852 51349
L5880 51321
L5852 51293
L5852 51349
" />
<path d="M6077 51489
L6386 51489
L6077 51883
L6386 51883
" />
<path d="M6836 51855
L6780 51883
L6667 51883
L6611 51855
L6583 51799
L6583 51574
L6611 51518
L6667 51489
L6780 51489
L6836 51518
L6864 51574
L6864 51630
L6583 51686
" />
<path d="M7117 51827
L7145 51855
L7117 51883
L7089 51855
L7117 51827
L7117 51883
" />
<path d="M7117 51518
L7145 51546
L7117 51574
L7089 51546
L7117 51518
L7117 51574
" />
<path d="M7848 51293
L7848 51771
L7876 51827
L7905 51855
L7961 51883
L8073 51883
L8130 51855
L8158 51827
L8186 51771
L8186 51293
" />
<path d="M8439 51855
L8495 51883
L8608 51883
L8664 51855
L8692 51799
L8692 51771
L8664 51714
L8608 51686
L8523 51686
L8467 51658
L8439 51602
L8439 51574
L8467 51518
L8523 51489
L8608 51489
L8664 51518
" />
<path d="M9170 51855
L9114 51883
L9001 51883
L8945 51855
L8917 51799
L8917 51574
L8945 51518
L9001 51489
L9114 51489
L9170 51518
L9198 51574
L9198 51630
L8917 51686
" />
<path d="M9451 51883
L9451 51489
" />
<path d="M9451 51602
L9479 51546
L9507 51518
L9564 51489
L9620 51489
" />
</g>
<g style="fill:#000000; fill-opacity:0.0; 
stroke:#000000; stroke-width:39.3701; stroke-opacity:1; 
stroke-linecap:round; stroke-linejoin:round;">
</g>
<g style="fill:#000000; fill-opacity:0.0; 
stroke:#000000; stroke-width:59.0551; stroke-opacity:1; 
stroke-linecap:round; stroke-linejoin:round;">
<text x="38584.2" y="53014.1"
textLength="3349.27" font-size="787.402" lengthAdjust="spacingAndGlyphs"
text-anchor="start" opacity="0">Id: 1/1</text>
<path d="M38754 52985
L38754 52395
" />
<path d="M39288 52985
L39288 52395
" />
<path d="M39288 52957
L39232 52985
L39119 52985
L39063 52957
L39035 52929
L39007 52873
L39007 52704
L39035 52648
L39063 52620
L39119 52592
L39232 52592
L39288 52620
" />
<path d="M39569 52929
L39597 52957
L39569 52985
L39541 52957
L39569 52929
L39569 52985
" />
<path d="M39569 52620
L39597 52648
L39569 52676
L39541 52648
L39569 52620
L39569 52676
" />
<path d="M40610 52985
L40272 52985
" />
<path d="M40441 52985
L40441 52395
L40385 52479
L40329 52536
L40272 52564
" />
<path d="M41285 52367
L40779 53126
" />
<path d="M41791 52985
L41453 52985
" />
<path d="M41622 52985
L41622 52395
L41566 52479
L41510 52536
L41453 52564
" />
</g>
<g style="fill:#000000; fill-opacity:0.0; 
stroke:#000000; stroke-width:39.3701; stroke-opacity:1; 
stroke-linecap:round; stroke-linejoin:round;">
</g>
<g style="fill:#000000; fill-opacity:0.0; 
stroke:#000000; stroke-width:59.0551; stroke-opacity:1; 
stroke-linecap:round; stroke-linejoin:round;">
<path d="M4725 49411
L47245 49411
" />
</g>
<g style="fill:#000000; fill-opacity:0.0; 
stroke:#000000; stroke-width:39.3701; stroke-opacity:1; 
stroke-linecap:round; stroke-linejoin:round;">
</g>
<g style="fill:#000000; fill-opacity:0.0; 
stroke:#000000; stroke-width:157.48; stroke-opacity:1; 
stroke-linecap:round; stroke-linejoin:round;">
<text x="5119.61" y="50514.1"
textLength="25635.9" font-size="1049.87" lengthAdjust="spacingAndGlyphs"
text-anchor="start" opacity="0">Title: Engraver stepper motor driver board</text>
<path d="M5400 49689
L5850 49689
" />
<path d="M5526 50476
L5625 49689
" />
<path d="M6014 50476
L6079 49951
" />
<path d="M6112 49689
L6070 49726
L6103 49764
L6145 49726
L6112 49689
L6103 49764
" />
<path d="M6342 49951
L6642 49951
" />
<path d="M6487 49689
L6403 50364
L6431 50439
L6501 50476
L6576 50476
" />
<path d="M6951 50476
L6881 50439
L6853 50364
L6937 49689
" />
<path d="M7556 50439
L7476 50476
L7326 50476
L7256 50439
L7227 50364
L7265 50064
L7312 49989
L7392 49951
L7541 49951
L7612 49989
L7640 50064
L7631 50139
L7246 50214
" />
<path d="M7935 50401
L7968 50439
L7926 50476
L7893 50439
L7935 50401
L7926 50476
" />
<path d="M7987 49989
L8020 50026
L7977 50064
L7945 50026
L7987 49989
L7977 50064
" />
<path d="M8952 50064
L9215 50064
" />
<path d="M9276 50476
L8901 50476
L8999 49689
L9374 49689
" />
<path d="M9679 49951
L9613 50476
" />
<path d="M9669 50026
L9712 49989
L9791 49951
L9904 49951
L9974 49989
L10002 50064
L9951 50476
" />
<path d="M10729 49951
L10649 50589
L10602 50664
L10560 50701
L10480 50739
L10368 50739
L10297 50701
" />
<path d="M10668 50439
L10588 50476
L10438 50476
L10368 50439
L10335 50401
L10307 50326
L10335 50101
L10382 50026
L10424 49989
L10504 49951
L10654 49951
L10724 49989
" />
<path d="M11038 50476
L11104 49951
" />
<path d="M11085 50101
L11132 50026
L11174 49989
L11254 49951
L11329 49951
" />
<path d="M11863 50476
L11914 50064
L11886 49989
L11816 49951
L11666 49951
L11586 49989
" />
<path d="M11868 50439
L11788 50476
L11600 50476
L11530 50439
L11502 50364
L11511 50289
L11558 50214
L11638 50176
L11825 50176
L11905 50139
" />
<path d="M12228 49951
L12350 50476
L12603 49951
" />
<path d="M13142 50439
L13063 50476
L12913 50476
L12842 50439
L12814 50364
L12852 50064
L12899 49989
L12978 49951
L13128 49951
L13199 49989
L13227 50064
L13217 50139
L12833 50214
" />
<path d="M13513 50476
L13578 49951
" />
<path d="M13559 50101
L13606 50026
L13649 49989
L13728 49951
L13803 49951
" />
<path d="M14567 50439
L14637 50476
L14787 50476
L14867 50439
L14914 50364
L14919 50326
L14891 50251
L14820 50214
L14708 50214
L14637 50176
L14609 50101
L14614 50064
L14661 49989
L14741 49951
L14853 49951
L14923 49989
" />
<path d="M15191 49951
L15490 49951
" />
<path d="M15336 49689
L15251 50364
L15280 50439
L15350 50476
L15425 50476
" />
<path d="M15992 50439
L15912 50476
L15762 50476
L15692 50439
L15664 50364
L15701 50064
L15748 49989
L15828 49951
L15978 49951
L16048 49989
L16076 50064
L16067 50139
L15683 50214
" />
<path d="M16428 49951
L16329 50739
" />
<path d="M16423 49989
L16503 49951
L16653 49951
L16723 49989
L16756 50026
L16784 50101
L16756 50326
L16709 50401
L16667 50439
L16587 50476
L16437 50476
L16367 50439
" />
<path d="M17140 49951
L17042 50739
" />
<path d="M17136 49989
L17215 49951
L17365 49951
L17436 49989
L17468 50026
L17496 50101
L17468 50326
L17422 50401
L17379 50439
L17300 50476
L17150 50476
L17079 50439
" />
<path d="M18092 50439
L18012 50476
L17862 50476
L17792 50439
L17764 50364
L17801 50064
L17848 49989
L17928 49951
L18078 49951
L18148 49989
L18176 50064
L18167 50139
L17782 50214
" />
<path d="M18462 50476
L18528 49951
" />
<path d="M18509 50101
L18556 50026
L18598 49989
L18678 49951
L18753 49951
" />
<path d="M19549 50476
L19615 49951
" />
<path d="M19606 50026
L19648 49989
L19727 49951
L19840 49951
L19910 49989
L19938 50064
L19887 50476
" />
<path d="M19938 50064
L19985 49989
L20065 49951
L20177 49951
L20248 49989
L20276 50064
L20224 50476
" />
<path d="M20712 50476
L20641 50439
L20609 50401
L20580 50326
L20609 50101
L20655 50026
L20698 49989
L20777 49951
L20890 49951
L20960 49989
L20993 50026
L21021 50101
L20993 50326
L20946 50401
L20904 50439
L20824 50476
L20712 50476
" />
<path d="M21265 49951
L21565 49951
" />
<path d="M21410 49689
L21326 50364
L21354 50439
L21424 50476
L21499 50476
" />
<path d="M21874 50476
L21804 50439
L21771 50401
L21743 50326
L21771 50101
L21818 50026
L21860 49989
L21940 49951
L22052 49951
L22122 49989
L22155 50026
L22183 50101
L22155 50326
L22108 50401
L22066 50439
L21987 50476
L21874 50476
" />
<path d="M22474 50476
L22540 49951
" />
<path d="M22521 50101
L22568 50026
L22610 49989
L22690 49951
L22765 49951
" />
<path d="M23899 50476
L23997 49689
" />
<path d="M23904 50439
L23824 50476
L23674 50476
L23604 50439
L23571 50401
L23543 50326
L23571 50101
L23618 50026
L23660 49989
L23739 49951
L23889 49951
L23960 49989
" />
<path d="M24274 50476
L24339 49951
" />
<path d="M24321 50101
L24368 50026
L24410 49989
L24489 49951
L24564 49951
" />
<path d="M24761 50476
L24827 49951
" />
<path d="M24860 49689
L24817 49726
L24850 49764
L24892 49726
L24860 49689
L24850 49764
" />
<path d="M25127 49951
L25249 50476
L25502 49951
" />
<path d="M26041 50439
L25961 50476
L25811 50476
L25741 50439
L25713 50364
L25750 50064
L25797 49989
L25877 49951
L26027 49951
L26097 49989
L26125 50064
L26116 50139
L25731 50214
" />
<path d="M26411 50476
L26477 49951
" />
<path d="M26458 50101
L26505 50026
L26547 49989
L26627 49951
L26702 49951
" />
<path d="M27498 50476
L27597 49689
" />
<path d="M27559 49989
L27639 49951
L27789 49951
L27859 49989
L27892 50026
L27920 50101
L27892 50326
L27845 50401
L27803 50439
L27723 50476
L27573 50476
L27503 50439
" />
<path d="M28323 50476
L28253 50439
L28220 50401
L28192 50326
L28220 50101
L28267 50026
L28309 49989
L28389 49951
L28501 49951
L28572 49989
L28604 50026
L28633 50101
L28604 50326
L28558 50401
L28515 50439
L28436 50476
L28323 50476
" />
<path d="M29261 50476
L29312 50064
L29284 49989
L29214 49951
L29064 49951
L28984 49989
" />
<path d="M29265 50439
L29186 50476
L28998 50476
L28928 50439
L28900 50364
L28909 50289
L28956 50214
L29036 50176
L29223 50176
L29303 50139
" />
<path d="M29636 50476
L29701 49951
" />
<path d="M29682 50101
L29729 50026
L29772 49989
L29851 49951
L29926 49951
" />
<path d="M30461 50476
L30559 49689
" />
<path d="M30465 50439
L30386 50476
L30236 50476
L30165 50439
L30132 50401
L30104 50326
L30132 50101
L30179 50026
L30221 49989
L30301 49951
L30451 49951
L30521 49989
" />
</g>
<g style="fill:#000000; fill-opacity:0.0; 
stroke:#000000; stroke-width:39.3701; stroke-opacity:1; 
stroke-linecap:round; stroke-linejoin:round;">
</g>
<g style="fill:#000000; fill-opacity:0.0; 
stroke:#000000; stroke-width:59.0551; stroke-opacity:1; 
stroke-linecap:round; stroke-linejoin:round;">
<text x="5119.61" y="48998.3"
textLength="12325.1" font-size="787.402" lengthAdjust="spacingAndGlyphs"
text-anchor="start" opacity="0">File: motor_drive.kicad_pcb</text>
<path d="M5486 48660
L5289 48660
" />
<path d="M5289 48970
L5289 48379
L5570 48379
" />
<path d="M5795 48970
L5795 48576
" />
<path d="M5795 48379
L5767 48407
L5795 48435
L5824 48407
L5795 48379
L5795 48435
" />
<path d="M6161 48970
L6105 48942
L6077 48885
L6077 48379
" />
<path d="M6611 48942
L6555 48970
L6442 48970
L6386 48942
L6358 48885
L6358 48660
L6386 48604
L6442 48576
L6555 48576
L6611 48604
L6639 48660
L6639 48717
L6358 48773
" />
<path d="M6892 48913
L6920 48942
L6892 48970
L6864 48942
L6892 48913
L6892 48970
" />
<path d="M6892 48604
L6920 48632
L6892 48660
L6864 48632
L6892 48604
L6892 48660
" />
<path d="M7623 48970
L7623 48576
" />
<path d="M7623 48632
L7651 48604
L7708 48576
L7792 48576
L7848 48604
L7876 48660
L7876 48970
" />
<path d="M7876 48660
L7905 48604
L7961 48576
L8045 48576
L8101 48604
L8130 48660
L8130 48970
" />
<path d="M8495 48970
L8439 48942
L8411 48913
L8383 48857
L8383 48689
L8411 48632
L8439 48604
L8495 48576
L8579 48576
L8636 48604
L8664 48632
L8692 48689
L8692 48857
L8664 48913
L8636 48942
L8579 48970
L8495 48970
" />
<path d="M8861 48576
L9086 48576
" />
<path d="M8945 48379
L8945 48885
L8973 48942
L9029 48970
L9086 48970
" />
<path d="M9367 48970
L9311 48942
L9282 48913
L9254 48857
L9254 48689
L9282 48632
L9311 48604
L9367 48576
L9451 48576
L9507 48604
L9536 48632
L9564 48689
L9564 48857
L9536 48913
L9507 48942
L9451 48970
L9367 48970
" />
<path d="M9817 48970
L9817 48576
" />
<path d="M9817 48689
L9845 48632
L9873 48604
L9929 48576
L9986 48576
" />
<path d="M10042 49026
L10492 49026
" />
<path d="M10885 48970
L10885 48379
" />
<path d="M10885 48942
L10829 48970
L10717 48970
L10660 48942
L10632 48913
L10604 48857
L10604 48689
L10632 48632
L10660 48604
L10717 48576
L10829 48576
L10885 48604
" />
<path d="M11167 48970
L11167 48576
" />
<path d="M11167 48689
L11195 48632
L11223 48604
L11279 48576
L11335 48576
" />
<path d="M11532 48970
L11532 48576
" />
<path d="M11532 48379
L11504 48407
L11532 48435
L11560 48407
L11532 48379
L11532 48435
" />
<path d="M11757 48576
L11898 48970
L12038 48576
" />
<path d="M12488 48942
L12432 48970
L12320 48970
L12263 48942
L12235 48885
L12235 48660
L12263 48604
L12320 48576
L12432 48576
L12488 48604
L12516 48660
L12516 48717
L12235 48773
" />
<path d="M12770 48913
L12798 48942
L12770 48970
L12741 48942
L12770 48913
L12770 48970
" />
<path d="M13051 48970
L13051 48379
" />
<path d="M13107 48745
L13276 48970
" />
<path d="M13276 48576
L13051 48801
" />
<path d="M13529 48970
L13529 48576
" />
<path d="M13529 48379
L13501 48407
L13529 48435
L13557 48407
L13529 48379
L13529 48435
" />
<path d="M14063 48942
L14007 48970
L13894 48970
L13838 48942
L13810 48913
L13782 48857
L13782 48689
L13810 48632
L13838 48604
L13894 48576
L14007 48576
L14063 48604
" />
<path d="M14569 48970
L14569 48660
L14541 48604
L14485 48576
L14372 48576
L14316 48604
" />
<path d="M14569 48942
L14513 48970
L14372 48970
L14316 48942
L14288 48885
L14288 48829
L14316 48773
L14372 48745
L14513 48745
L14569 48717
" />
<path d="M15104 48970
L15104 48379
" />
<path d="M15104 48942
L15047 48970
L14935 48970
L14879 48942
L14851 48913
L14822 48857
L14822 48689
L14851 48632
L14879 48604
L14935 48576
L15047 48576
L15104 48604
" />
<path d="M15244 49026
L15694 49026
" />
<path d="M15835 48576
L15835 49167
" />
<path d="M15835 48604
L15891 48576
L16004 48576
L16060 48604
L16088 48632
L16116 48689
L16116 48857
L16088 48913
L16060 48942
L16004 48970
L15891 48970
L15835 48942
" />
<path d="M16622 48942
L16566 48970
L16453 48970
L16397 48942
L16369 48913
L16341 48857
L16341 48689
L16369 48632
L16397 48604
L16453 48576
L16566 48576
L16622 48604
" />
<path d="M16875 48970
L16875 48379
" />
<path d="M16875 48604
L16932 48576
L17044 48576
L17100 48604
L17128 48632
L17157 48689
L17157 48857
L17128 48913
L17100 48942
L17044 48970
L16932 48970
L16875 48942
" />
</g>
<g style="fill:#000000; fill-opacity:0.0; 
stroke:#000000; stroke-width:39.3701; stroke-opacity:1; 
stroke-linecap:round; stroke-linejoin:round;">
</g>
<g style="fill:#000000; fill-opacity:0.0; 
stroke:#000000; stroke-width:59.0551; stroke-opacity:1; 
stroke-linecap:round; stroke-linejoin:round;">
<path d="M4725 47049
L47245 47049
" />
</g>
<g style="fill:#000000; fill-opacity:0.0; 
stroke:#000000; stroke-width:39.3701; stroke-opacity:1; 
stroke-linecap:round; stroke-linejoin:round;">
</g>
<g style="fill:#000000; fill-opacity:0.0; 
stroke:#000000; stroke-width:59.0551; stroke-opacity:1; 
stroke-linecap:round; stroke-linejoin:round;">
<text x="5119.61" y="47935.4"
textLength="3236.78" font-size="787.402" lengthAdjust="spacingAndGlyphs"
text-anchor="start" opacity="0">Sheet: </text>
<path d="M5261 47879
L5345 47907
L5486 47907
L5542 47879
L5570 47850
L5599 47794
L5599 47738
L5570 47682
L5542 47654
L5486 47626
L5374 47597
L5317 47569
L5289 47541
L5261 47485
L5261 47429
L5289 47372
L5317 47344
L5374 47316
L5514 47316
L5599 47344
" />
<path d="M5852 47907
L5852 47316
" />
<path d="M6105 47907
L6105 47597
L6077 47541
L6020 47513
L5936 47513
L5880 47541
L5852 47569
" />
<path d="M6611 47879
L6555 47907
L6442 47907
L6386 47879
L6358 47822
L6358 47597
L6386 47541
L6442 47513
L6555 47513
L6611 47541
L6639 47597
L6639 47654
L6358 47710
" />
<path d="M7117 47879
L7061 47907
L6948 47907
L6892 47879
L6864 47822
L6864 47597
L6892 47541
L6948 47513
L7061 47513
L7117 47541
L7145 47597
L7145 47654
L6864 47710
" />
<path d="M7314 47513
L7539 47513
" />
<path d="M7398 47316
L7398 47822
L7426 47879
L7483 47907
L7539 47907
" />
<path d="M7736 47850
L7764 47879
L7736 47907
L7708 47879
L7736 47850
L7736 47907
" />
<path d="M7736 47541
L7764 47569
L7736 47597
L7708 47569
L7736 47541
L7736 47597
" />
</g>
<g style="fill:#000000; fill-opacity:0.0; 
stroke:#000000; stroke-width:39.3701; stroke-opacity:1; 
stroke-linecap:round; stroke-linejoin:round;">
</g>
<g style="fill:#000000; fill-opacity:0.0; 
stroke:#000000; stroke-width:59.0551; stroke-opacity:1; 
stroke-linecap:round; stroke-linejoin:round;">
<path d="M12599 50986
L12599 52167
" />
</g>
<g style="fill:#000000; fill-opacity:0.0; 
stroke:#000000; stroke-width:39.3701; stroke-opacity:1; 
stroke-linecap:round; stroke-linejoin:round;">
</g>
<g style="fill:#000000; fill-opacity:0.0; 
stroke:#000000; stroke-width:59.0551; stroke-opacity:1; 
stroke-linecap:round; stroke-linejoin:round;">
<path d="M37796 50986
L37796 53545
" />
<g >
</g>
<g >
</g>
<g >
</g>
<g style="fill:#848400; fill-opacity:0.0; 
stroke:#848400; stroke-width:59.0551; stroke-opacity:1; 
stroke-linecap:round; stroke-linejoin:round;">
</g>
<g style="fill:#848400; fill-opacity:1.0; 
stroke:#848400; stroke-width:0; stroke-opacity:1; 
stroke-linecap:round; stroke-linejoin:round;">
<circle cx="30012.9" cy="27671.4" r="295.276" /> 
</g>
<g style="fill:#848400; fill-opacity:1.0; 
stroke:#848400; stroke-width:39.3701; stroke-opacity:1; 
stroke-linecap:round; stroke-linejoin:round;">
</g>
<g style="fill:#848400; fill-opacity:1.0; 
stroke:#848400; stroke-width:0; stroke-opacity:1; 
stroke-linecap:round; stroke-linejoin:round;">
<path style="fill:#848400; fill-opacity:1.0; 
stroke:#848400; stroke-width:0; stroke-opacity:1; 
stroke-linecap:round; stroke-linejoin:round;fill-rule:evenodd;"
d="M 31400.5,27376.6
31410.1,27378
31419.5,27380.4
31428.6,27383.6
31437.3,27387.7
31445.6,27392.7
31453.3,27398.5
31460.5,27405
31467,27412.1
31472.7,27419.9
31477.7,27428.2
31481.8,27436.9
31485.1,27446
31487.4,27455.3
31488.8,27464.9
31489.3,27474.6
31489.3,27868.3
31488.8,27877.9
31487.4,27887.5
31485.1,27896.8
31481.8,27905.9
31477.7,27914.6
31472.7,27922.9
31467,27930.7
31460.5,27937.8
31453.3,27944.3
31445.6,27950.1
31437.3,27955.1
31428.6,27959.2
31419.5,27962.4
31410.1,27964.8
31400.5,27966.2
31390.9,27966.7
30997.2,27966.7
30987.5,27966.2
30978,27964.8
30968.6,27962.4
30959.5,27959.2
30950.8,27955.1
30942.5,27950.1
30934.8,27944.3
30927.6,27937.8
30921.1,27930.7
30915.4,27922.9
30910.4,27914.6
30906.3,27905.9
30903,27896.8
30900.7,27887.5
30899.2,27877.9
30898.8,27868.3
30898.8,27474.6
30899.2,27464.9
30900.7,27455.3
30903,27446
30906.3,27436.9
30910.4,27428.2
30915.4,27419.9
30921.1,27412.1
30927.6,27405
30934.8,27398.5
30942.5,27392.7
30950.8,27387.7
30959.5,27383.6
30968.6,27380.4
30978,27378
30987.5,27376.6
30997.2,27376.1
31390.9,27376.1
Z" /> 
</g>
<g >
</g>
<g >
</g>
<g >
</g>
<g style="fill:#848400; fill-opacity:1.0; 
stroke:#848400; stroke-width:0; stroke-opacity:1; 
stroke-linecap:round; stroke-linejoin:round;">
</g>
<g style="fill:#848400; fill-opacity:1.0; 
stroke:#848400; stroke-width:669.291; stroke-opacity:1; 
stroke-linecap:round; stroke-linejoin:round;">
</g>
<g style="fill:#848400; fill-opacity:0.0; 
stroke:#848400; stroke-width:669.291; stroke-opacity:1; 
stroke-linecap:round; stroke-linejoin:round;">
<path d="M20030 24492
L19932 24492
" />
<path d="M20030 23508
L19932 23508
" />
<path d="M20030 22523
L19932 22523
" />
</g>
<g style="fill:#848400; fill-opacity:0.0; 
stroke:#848400; stroke-width:0; stroke-opacity:1; 
stroke-linecap:round; stroke-linejoin:round;">
</g>
<g style="fill:#848400; fill-opacity:1.0; 
stroke:#848400; stroke-width:0; stroke-opacity:1; 
stroke-linecap:round; stroke-linejoin:round;">
<path style="fill:#848400; fill-opacity:1.0; 
stroke:#848400; stroke-width:0; stroke-opacity:1; 
stroke-linecap:round; stroke-linejoin:round;fill-rule:evenodd;"
d="M 20276.5,21205.3
20286.1,21206.8
20295.5,21209.1
20304.5,21212.4
20313.3,21216.5
20321.6,21221.5
20329.3,21227.2
20336.5,21233.7
20343,21240.9
20348.7,21248.6
20353.7,21256.9
20357.8,21265.6
20361.1,21274.7
20363.4,21284.1
20364.8,21293.6
20365.3,21303.3
20365.3,21775.7
20364.8,21785.4
20363.4,21794.9
20361.1,21804.3
20357.8,21813.4
20353.7,21822.1
20348.7,21830.4
20343,21838.2
20336.5,21845.3
20329.3,21851.8
20321.6,21857.6
20313.3,21862.5
20304.5,21866.7
20295.5,21869.9
20286.1,21872.3
20276.5,21873.7
20266.9,21874.2
19696,21874.2
19686.4,21873.7
19676.8,21872.3
19667.4,21869.9
19658.3,21866.7
19649.6,21862.5
19641.3,21857.6
19633.6,21851.8
19626.4,21845.3
19619.9,21838.2
19614.2,21830.4
19609.2,21822.1
19605.1,21813.4
19601.8,21804.3
19599.5,21794.9
19598.1,21785.4
19597.6,21775.7
19597.6,21303.3
19598.1,21293.6
19599.5,21284.1
19601.8,21274.7
19605.1,21265.6
19609.2,21256.9
19614.2,21248.6
19619.9,21240.9
19626.4,21233.7
19633.6,21227.2
19641.3,21221.5
19649.6,21216.5
19658.3,21212.4
19667.4,21209.1
19676.8,21206.8
19686.4,21205.3
19696,21204.9
20266.9,21204.9
Z" /> 
</g>
<g >
</g>
<g >
</g>
<g >
</g>
<g >
</g>
<g style="fill:#848400; fill-opacity:1.0; 
stroke:#848400; stroke-width:0; stroke-opacity:1; 
stroke-linecap:round; stroke-linejoin:round;">
</g>
<g style="fill:#848400; fill-opacity:1.0; 
stroke:#848400; stroke-width:669.291; stroke-opacity:1; 
stroke-linecap:round; stroke-linejoin:round;">
</g>
<g style="fill:#848400; fill-opacity:0.0; 
stroke:#848400; stroke-width:669.291; stroke-opacity:1; 
stroke-linecap:round; stroke-linejoin:round;">
<path d="M23073 27218
L23073 27218
" />
<path d="M22073 27218
L22073 27218
" />
</g>
<g style="fill:#848400; fill-opacity:0.0; 
stroke:#848400; stroke-width:0; stroke-opacity:1; 
stroke-linecap:round; stroke-linejoin:round;">
</g>
<g style="fill:#848400; fill-opacity:1.0; 
stroke:#848400; stroke-width:0; stroke-opacity:1; 
stroke-linecap:round; stroke-linejoin:round;">
<path style="fill:#848400; fill-opacity:1.0; 
stroke:#848400; stroke-width:0; stroke-opacity:1; 
stroke-linecap:round; stroke-linejoin:round;fill-rule:evenodd;"
d="M 21408.6,27553.3
20739.3,27553.3
20739.3,26884
21408.6,26884
Z" /> 
</g>
<g style="fill:#848400; fill-opacity:1.0; 
stroke:#848400; stroke-width:669.291; stroke-opacity:1; 
stroke-linecap:round; stroke-linejoin:round;">
</g>
<g style="fill:#848400; fill-opacity:0.0; 
stroke:#848400; stroke-width:669.291; stroke-opacity:1; 
stroke-linecap:round; stroke-linejoin:round;">
<path d="M22073 28218
L22073 28218
" />
</g>
<g >
</g>
<g style="fill:#848400; fill-opacity:0.0; 
stroke:#848400; stroke-width:669.291; stroke-opacity:1; 
stroke-linecap:round; stroke-linejoin:round;">
</g>
<g style="fill:#848400; fill-opacity:0.0; 
stroke:#848400; stroke-width:0; stroke-opacity:1; 
stroke-linecap:round; stroke-linejoin:round;">
</g>
<g style="fill:#848400; fill-opacity:1.0; 
stroke:#848400; stroke-width:0; stroke-opacity:1; 
stroke-linecap:round; stroke-linejoin:round;">
<path style="fill:#848400; fill-opacity:1.0; 
stroke:#848400; stroke-width:0; stroke-opacity:1; 
stroke-linecap:round; stroke-linejoin:round;fill-rule:evenodd;"
d="M 22075.9,30781.6
21406.6,30781.6
21406.6,30112.3
22075.9,30112.3
Z" /> 
</g>
<g style="fill:#848400; fill-opacity:1.0; 
stroke:#848400; stroke-width:669.291; stroke-opacity:1; 
stroke-linecap:round; stroke-linejoin:round;">
</g>
<g style="fill:#848400; fill-opacity:0.0; 
stroke:#848400; stroke-width:669.291; stroke-opacity:1; 
stroke-linecap:round; stroke-linejoin:round;">
<path d="M22741 30446
L22741 30446
" />
<path d="M23741 30446
L23741 30446
" />
</g>
<g >
</g>
<g >
</g>
<g >
</g>
<g >
</g>
<g >
</g>
<g >
</g>
<g >
</g>
<g >
</g>
<g >
</g>
<g style="fill:#848400; fill-opacity:0.0; 
stroke:#848400; stroke-width:669.291; stroke-opacity:1; 
stroke-linecap:round; stroke-linejoin:round;">
<path d="M26542 31446
L26542 31446
" />
</g>
<g style="fill:#848400; fill-opacity:0.0; 
stroke:#848400; stroke-width:0; stroke-opacity:1; 
stroke-linecap:round; stroke-linejoin:round;">
</g>
<g style="fill:#848400; fill-opacity:1.0; 
stroke:#848400; stroke-width:0; stroke-opacity:1; 
stroke-linecap:round; stroke-linejoin:round;">
<path style="fill:#848400; fill-opacity:1.0; 
stroke:#848400; stroke-width:0; stroke-opacity:1; 
stroke-linecap:round; stroke-linejoin:round;fill-rule:evenodd;"
d="M 25877.1,30781.6
25207.8,30781.6
25207.8,30112.3
25877.1,30112.3
Z" /> 
</g>
<g style="fill:#848400; fill-opacity:1.0; 
stroke:#848400; stroke-width:669.291; stroke-opacity:1; 
stroke-linecap:round; stroke-linejoin:round;">
</g>
<g style="fill:#848400; fill-opacity:0.0; 
stroke:#848400; stroke-width:669.291; stroke-opacity:1; 
stroke-linecap:round; stroke-linejoin:round;">
<path d="M26542 30446
L26542 30446
" />
<path d="M27542 30446
L27542 30446
" />
</g>
<g >
</g>
<g style="fill:#848400; fill-opacity:0.0; 
stroke:#848400; stroke-width:669.291; stroke-opacity:1; 
stroke-linecap:round; stroke-linejoin:round;">
</g>
<g style="fill:#848400; fill-opacity:0.0; 
stroke:#848400; stroke-width:0; stroke-opacity:1; 
stroke-linecap:round; stroke-linejoin:round;">
</g>
<g style="fill:#848400; fill-opacity:1.0; 
stroke:#848400; stroke-width:0; stroke-opacity:1; 
stroke-linecap:round; stroke-linejoin:round;">
<path style="fill:#848400; fill-opacity:1.0; 
stroke:#848400; stroke-width:0; stroke-opacity:1; 
stroke-linecap:round; stroke-linejoin:round;fill-rule:evenodd;"
d="M 24951.9,27553.3
24282.6,27553.3
24282.6,26884
24951.9,26884
Z" /> 
</g>
<g style="fill:#848400; fill-opacity:1.0; 
stroke:#848400; stroke-width:669.291; stroke-opacity:1; 
stroke-linecap:round; stroke-linejoin:round;">
</g>
<g style="fill:#848400; fill-opacity:0.0; 
stroke:#848400; stroke-width:669.291; stroke-opacity:1; 
stroke-linecap:round; stroke-linejoin:round;">
<path d="M25617 27218
L25617 27218
" />
<path d="M26617 27218
L26617 27218
" />
</g>
<g >
</g>
<g >
</g>
<g >
</g>
<g >
</g>
<g >
</g>
<g style="fill:#848400; fill-opacity:0.0; 
stroke:#848400; stroke-width:669.291; stroke-opacity:1; 
stroke-linecap:round; stroke-linejoin:round;">
</g>
<g style="fill:#848400; fill-opacity:0.0; 
stroke:#848400; stroke-width:0; stroke-opacity:1; 
stroke-linecap:round; stroke-linejoin:round;">
</g>
<g style="fill:#848400; fill-opacity:1.0; 
stroke:#848400; stroke-width:0; stroke-opacity:1; 
stroke-linecap:round; stroke-linejoin:round;">
<path style="fill:#848400; fill-opacity:1.0; 
stroke:#848400; stroke-width:0; stroke-opacity:1; 
stroke-linecap:round; stroke-linejoin:round;fill-rule:evenodd;"
d="M 17875.1,27553.3
17205.9,27553.3
17205.9,26884
17875.1,26884
Z" /> 
</g>
<g style="fill:#848400; fill-opacity:1.0; 
stroke:#848400; stroke-width:669.291; stroke-opacity:1; 
stroke-linecap:round; stroke-linejoin:round;">
</g>
<g style="fill:#848400; fill-opacity:0.0; 
stroke:#848400; stroke-width:669.291; stroke-opacity:1; 
stroke-linecap:round; stroke-linejoin:round;">
<path d="M18540 27218
L18540 27218
" />
<path d="M19540 27218
L19540 27218
" />
</g>
<g >
</g>
<g style="fill:#C2C2C2; fill-opacity:0.0; 
stroke:#C2C2C2; stroke-width:669.291; stroke-opacity:1; 
stroke-linecap:round; stroke-linejoin:round;">
</g>
<g style="fill:#C2C2C2; fill-opacity:1.0; 
stroke:#C2C2C2; stroke-width:0; stroke-opacity:1; 
stroke-linecap:round; stroke-linejoin:round;">
<circle cx="25276.7" cy="25840.7" r="78.7402" /> 
</g>
<g style="fill:#C2C2C2; fill-opacity:1.0; 
stroke:#C2C2C2; stroke-width:39.3701; stroke-opacity:1; 
stroke-linecap:round; stroke-linejoin:round;">
</g>
<g style="fill:#C2C2C2; fill-opacity:1.0; 
stroke:#C2C2C2; stroke-width:0; stroke-opacity:1; 
stroke-linecap:round; stroke-linejoin:round;">
<circle cx="26310.2" cy="25840.7" r="78.7402" /> 
</g>
<g style="fill:#C2C2C2; fill-opacity:1.0; 
stroke:#C2C2C2; stroke-width:39.3701; stroke-opacity:1; 
stroke-linecap:round; stroke-linejoin:round;">
</g>
<g style="fill:#C2C2C2; fill-opacity:1.0; 
stroke:#C2C2C2; stroke-width:0; stroke-opacity:1; 
stroke-linecap:round; stroke-linejoin:round;">
<circle cx="24932.2" cy="25840.7" r="78.7402" /> 
</g>
<g style="fill:#C2C2C2; fill-opacity:1.0; 
stroke:#C2C2C2; stroke-width:39.3701; stroke-opacity:1; 
stroke-linecap:round; stroke-linejoin:round;">
</g>
<g style="fill:#C2C2C2; fill-opacity:1.0; 
stroke:#C2C2C2; stroke-width:0; stroke-opacity:1; 
stroke-linecap:round; stroke-linejoin:round;">
<circle cx="25621.2" cy="25840.7" r="78.7402" /> 
</g>
<g style="fill:#C2C2C2; fill-opacity:1.0; 
stroke:#C2C2C2; stroke-width:39.3701; stroke-opacity:1; 
stroke-linecap:round; stroke-linejoin:round;">
</g>
<g style="fill:#C2C2C2; fill-opacity:1.0; 
stroke:#C2C2C2; stroke-width:0; stroke-opacity:1; 
stroke-linecap:round; stroke-linejoin:round;">
<circle cx="23444" cy="24279" r="157.48" /> 
</g>
<g style="fill:#C2C2C2; fill-opacity:1.0; 
stroke:#C2C2C2; stroke-width:39.3701; stroke-opacity:1; 
stroke-linecap:round; stroke-linejoin:round;">
</g>
<g style="fill:#C2C2C2; fill-opacity:1.0; 
stroke:#C2C2C2; stroke-width:0; stroke-opacity:1; 
stroke-linecap:round; stroke-linejoin:round;">
<circle cx="26537" cy="23368" r="157.48" /> 
</g>
<g style="fill:#C2C2C2; fill-opacity:1.0; 
stroke:#C2C2C2; stroke-width:39.3701; stroke-opacity:1; 
stroke-linecap:round; stroke-linejoin:round;">
</g>
<g style="fill:#C2C2C2; fill-opacity:1.0; 
stroke:#C2C2C2; stroke-width:0; stroke-opacity:1; 
stroke-linecap:round; stroke-linejoin:round;">
<circle cx="25965.7" cy="25840.7" r="78.7402" /> 
</g>
<g style="fill:#C2C2C2; fill-opacity:1.0; 
stroke:#C2C2C2; stroke-width:39.3701; stroke-opacity:1; 
stroke-linecap:round; stroke-linejoin:round;">
</g>
<g style="fill:#C2C2C2; fill-opacity:1.0; 
stroke:#C2C2C2; stroke-width:0; stroke-opacity:1; 
stroke-linecap:round; stroke-linejoin:round;">
<circle cx="21546.4" cy="20023.8" r="157.48" /> 
</g>
<g style="fill:#C2C2C2; fill-opacity:1.0; 
stroke:#C2C2C2; stroke-width:39.3701; stroke-opacity:1; 
stroke-linecap:round; stroke-linejoin:round;">
</g>
<g style="fill:#C2C2C2; fill-opacity:1.0; 
stroke:#C2C2C2; stroke-width:0; stroke-opacity:1; 
stroke-linecap:round; stroke-linejoin:round;">
<circle cx="27706" cy="19094" r="157.48" /> 
</g>
<g style="fill:#C2C2C2; fill-opacity:1.0; 
stroke:#C2C2C2; stroke-width:39.3701; stroke-opacity:1; 
stroke-linecap:round; stroke-linejoin:round;">
</g>
<g style="fill:#C2C2C2; fill-opacity:1.0; 
stroke:#C2C2C2; stroke-width:0; stroke-opacity:1; 
stroke-linecap:round; stroke-linejoin:round;">
<circle cx="23607" cy="24768" r="157.48" /> 
</g>
<g style="fill:#C2C2C2; fill-opacity:1.0; 
stroke:#C2C2C2; stroke-width:39.3701; stroke-opacity:1; 
stroke-linecap:round; stroke-linejoin:round;">
</g>
<g >
</g>
<g style="fill:#008400; fill-opacity:1.0; 
stroke:#008400; stroke-width:39.3701; stroke-opacity:1; 
stroke-linecap:round; stroke-linejoin:round;">
</g>
<g style="fill:#008400; fill-opacity:1.0; 
stroke:#008400; stroke-width:98.4252; stroke-opacity:1; 
stroke-linecap:round; stroke-linejoin:round;">
</g>
<g style="fill:#008400; fill-opacity:0.0; 
stroke:#008400; stroke-width:98.4252; stroke-opacity:1; 
stroke-linecap:round; stroke-linejoin:round;">
<path d="M25601 27202
L25617 27218
" />
<path d="M25690 27145
L25617 27218
" />
</g>
<g style="fill:#008400; fill-opacity:0.0; 
stroke:#008400; stroke-width:196.85; stroke-opacity:1; 
stroke-linecap:round; stroke-linejoin:round;">
<path d="M21546 22685
L21547 22686
" />
<path d="M21546 20023
L21546 22685
" />
<path d="M21547 22686
L21547 22697
" />
<path d="M21547 22697
L21714 22864
" />
<path d="M23342 22864
L23345 22867
" />
<path d="M21714 22864
L23342 22864
" />
</g>
<g style="fill:#008400; fill-opacity:0.0; 
stroke:#008400; stroke-width:98.4252; stroke-opacity:1; 
stroke-linecap:round; stroke-linejoin:round;">
<path d="M23357 22872
L23345 22867
" />
</g>
<g style="fill:#008400; fill-opacity:0.0; 
stroke:#008400; stroke-width:196.85; stroke-opacity:1; 
stroke-linecap:round; stroke-linejoin:round;">
<path d="M23357 22876
L23447 22966
" />
<path d="M23357 22872
L23357 22876
" />
</g>
<g style="fill:#008400; fill-opacity:0.0; 
stroke:#008400; stroke-width:98.4252; stroke-opacity:1; 
stroke-linecap:round; stroke-linejoin:round;">
<path d="M23444 22959
L23447 22966
" />
</g>
<g style="fill:#008400; fill-opacity:0.0; 
stroke:#008400; stroke-width:196.85; stroke-opacity:1; 
stroke-linecap:round; stroke-linejoin:round;">
<path d="M23444 22959
L23444 24279
" />
<path d="M23146 25176
L23229 25259
" />
<path d="M23146 24354
L23146 25176
" />
<path d="M23221 24279
L23146 24354
" />
<path d="M23444 24279
L23221 24279
" />
<path d="M23229 25259
L29906 25259
" />
<path d="M29906 25259
L30012 25365
" />
<path d="M30012 25365
L30012 27671
" />
<path d="M25396 24279
L25479 24196
" />
<path d="M23444 24279
L25396 24279
" />
<path d="M25479 24196
L25479 23427
" />
<path d="M25538 23368
L26537 23368
" />
<path d="M25479 23427
L25538 23368
" />
<path d="M26537 23368
L27613 23368
" />
<path d="M27706 23275
L27706 23074
" />
<path d="M27613 23368
L27706 23275
" />
</g>
<g style="fill:#008400; fill-opacity:0.0; 
stroke:#008400; stroke-width:393.701; stroke-opacity:1; 
stroke-linecap:round; stroke-linejoin:round;">
<path d="M25562 30427
L25542 30446
" />
<path d="M25530 30435
L25542 30446
" />
<path d="M25553 30457
L25542 30446
" />
<path d="M21745 30443
L21741 30446
" />
<path d="M21737 30451
L21741 30446
" />
<path d="M21074 27218
L21073 27218
" />
<path d="M21068 27213
L21073 27218
" />
<path d="M21078 27222
L21073 27218
" />
<path d="M17550 27228
L17540 27218
" />
<path d="M17527 27205
L17540 27218
" />
</g>
<g style="fill:#008400; fill-opacity:0.0; 
stroke:#008400; stroke-width:33.8583; stroke-opacity:1; 
stroke-linecap:round; stroke-linejoin:round;">
<path d="M22113 26678
L22073 26717
" />
<path d="M22073 26717
L22073 27218
" />
<path d="M25243 26678
L22113 26678
" />
<path d="M25276 26644
L25243 26678
" />
<path d="M25276 25840
L25276 26644
" />
<path d="M18540 26600
L18540 27218
" />
<path d="M18576 26565
L18540 26600
" />
<path d="M24894 26565
L18576 26565
" />
<path d="M24932 26526
L24894 26565
" />
<path d="M24932 25840
L24932 26526
" />
<path d="M25621 27214
L25617 27218
" />
<path d="M25621 25840
L25621 27214
" />
<path d="M22741 29191
L22741 30446
" />
<path d="M22800 29133
L22741 29191
" />
<path d="M27306 29081
L27254 29133
" />
<path d="M27306 26736
L27306 29081
" />
<path d="M25990 26680
L27250 26680
" />
<path d="M27254 29133
L22800 29133
" />
<path d="M25965 26655
L25990 26680
" />
<path d="M27250 26680
L27306 26736
" />
<path d="M25965 25840
L25965 26655
" />
<path d="M26584 29358
L26542 29399
" />
<path d="M27606 29358
L26584 29358
" />
<path d="M26542 29399
L26542 30446
" />
<path d="M27644 29320
L27606 29358
" />
<path d="M27644 26587
L27644 29320
" />
<path d="M27625 26568
L27644 26587
" />
<path d="M26354 26568
L27625 26568
" />
</g>
<g style="fill:#008400; fill-opacity:0.0; 
stroke:#008400; stroke-width:393.701; stroke-opacity:1; 
stroke-linecap:round; stroke-linejoin:round;">
<path d="M21735 30441
L21741 30446
" />
</g>
<g style="fill:#008400; fill-opacity:0.0; 
stroke:#008400; stroke-width:33.8583; stroke-opacity:1; 
stroke-linecap:round; stroke-linejoin:round;">
<path d="M26310 26523
L26354 26567
" />
<path d="M26310 25840
L26310 26523
" />
<path d="M26354 26567
L26354 26568
" />
</g>
<g style="fill:#008400; fill-opacity:0.0; 
stroke:#008400; stroke-width:196.85; stroke-opacity:1; 
stroke-linecap:round; stroke-linejoin:round;">
<path d="M27706 23074
L27706 19094
" />
<path d="M17540 26455
L17540 27218
" />
<path d="M17570 26425
L17540 26455
" />
<path d="M17540 28105
L17540 27218
" />
<path d="M17527 28118
L17540 28105
" />
<path d="M21073 27859
L21073 27218
" />
<path d="M21011 27921
L21073 27859
" />
<path d="M20474 27218
L21073 27218
" />
<path d="M20456 27200
L20474 27218
" />
<path d="M24617 27937
L24617 27218
" />
<path d="M24606 27948
L24617 27937
" />
<path d="M23946 27218
L24617 27218
" />
<path d="M23881 27283
L23946 27218
" />
<path d="M24927 30446
L25542 30446
" />
<path d="M24870 30503
L24927 30446
" />
<path d="M25542 29729
L25542 30446
" />
<path d="M25551 29720
L25542 29729
" />
<path d="M25542 31079
L25542 30446
" />
<path d="M25531 31090
L25542 31079
" />
<path d="M21741 31124
L21741 30446
" />
<path d="M21665 31200
L21741 31124
" />
<path d="M21143 30446
L21741 30446
" />
<path d="M21070 30374
L21143 30446
" />
<path d="M21741 29754
L21741 30446
" />
<path d="M21759 29736
L21741 29754
" />
<path d="M31194 27056
L31194 27671
" />
<path d="M31192 27055
L31194 27056
" />
<path d="M31753 27671
L31194 27671
" />
<path d="M31799 27625
L31753 27671
" />
<path d="M31194 28203
L31194 27671
" />
<path d="M31161 28236
L31194 28203
" />
<path d="M30647 27671
L31194 27671
" />
<path d="M30625 27649
L30647 27671
" />
<path d="M23607 24768
L24243 24768
" />
</g>
<g >
</g>
<g style="fill:#008400; fill-opacity:0.0; 
stroke:#008400; stroke-width:196.85; stroke-opacity:1; 
stroke-linecap:round; stroke-linejoin:round;">
</g>
<g style="fill:#008400; fill-opacity:1.0; 
stroke:#008400; stroke-width:100; stroke-opacity:1; 
stroke-linecap:round; stroke-linejoin:round;">
<path style="fill:#008400; fill-opacity:1.0; 
stroke:#008400; stroke-width:100; stroke-opacity:1; 
stroke-linecap:round; stroke-linejoin:round;fill-rule:evenodd;"
d="M 34528.7,32375.3
17227.2,32379.1
17227.2,31559.9
18018.6,31559.9
18019.6,31569.7
18022.4,31579
18027,31587.7
18033.2,31595.3
18040.8,31601.5
18049.4,31606.1
18058.8,31609
18068.5,31610
20263.4,31613.9
20273.2,31613
20282.6,31610.2
20291.2,31605.5
20298.8,31599.3
20305,31591.8
20309.7,31583.1
20312.5,31573.8
20313.5,31564
20317.5,29375
20316.5,29365.3
20313.7,29355.9
20309.1,29347.2
20302.9,29339.7
20295.3,29333.4
20286.7,29328.8
20277.3,29325.9
20267.5,29324.9
18072.7,29321
18062.9,29322
18053.5,29324.8
18044.9,29329.4
18037.3,29335.6
18031.1,29343.2
18026.4,29351.8
18023.6,29361.2
18022.6,29370.9
18018.6,31559.9
17227.2,31559.9
17227.2,27805.3
17879.1,27805.3
17927.5,27800.5
17974,27786.4
18016.9,27763.5
18054.5,27732.6
18085.3,27695
18108.2,27652.2
18118.4,27618.9
18173.8,27674.3
18269,27737.9
18374.8,27781.7
18487.2,27804.1
18601.7,27804.1
18714.1,27781.7
18819.9,27737.9
18915.1,27674.3
18996.1,27593.3
19044.4,27520.9
19092.8,27593.3
19173.8,27674.3
19269,27737.9
19374.8,27781.7
19487.2,27804.1
19601.7,27804.1
19714.1,27781.7
19819.9,27737.9
19915.1,27674.3
19996.1,27593.3
20059.8,27498
20103.6,27392.2
20125.9,27279.9
20125.9,27165.3
20103.6,27053
20059.8,26947.1
19996.1,26851.9
19976.9,26832.7
20502.1,26832.7
20500,26839.5
20495.2,26887.9
20495.2,27557.2
20500,27605.6
20514.1,27652.2
20537,27695
20567.9,27732.6
20605.5,27763.5
20648.3,27786.4
20694.9,27800.5
20743.3,27805.3
21412.6,27805.3
21460.9,27800.5
21507.5,27786.4
21550.4,27763.5
21587.9,27732.6
21618.8,27695
21641.7,27652.2
21651.8,27618.9
21707.2,27674.3
21779.5,27722.6
21707.2,27770.9
21626.2,27851.9
21562.6,27947.1
21518.8,28053
21496.4,28165.3
21496.4,28279.9
21518.8,28392.2
21562.6,28498
21626.2,28593.3
21707.2,28674.3
21802.5,28737.9
21908.3,28781.7
22020.6,28804.1
22135.2,28804.1
22247.5,28781.7
22353.3,28737.9
22448.6,28674.3
22529.6,28593.3
22593.2,28498
22637.1,28392.2
22659.4,28279.9
22659.4,28165.3
22637.1,28053
22593.2,27947.1
22529.6,27851.9
22448.6,27770.9
22376.3,27722.6
22448.6,27674.3
22529.6,27593.3
22577.9,27520.9
22626.2,27593.3
22707.2,27674.3
22802.5,27737.9
22908.3,27781.7
23020.6,27804.1
23135.2,27804.1
23247.5,27781.7
23353.3,27737.9
23448.6,27674.3
23529.6,27593.3
23593.2,27498
23637.1,27392.2
23659.4,27279.9
23659.4,27165.3
23637.1,27053
23593.2,26947.1
23592.3,26945.7
24038.5,26945.7
24038.5,27557.2
24043.3,27605.6
24057.4,27652.2
24080.3,27695
24111.2,27732.6
24148.8,27763.5
24191.6,27786.4
24238.2,27800.5
24286.6,27805.3
24955.9,27805.3
25004.2,27800.5
25050.8,27786.4
25093.7,27763.5
25131.3,27732.6
25162.1,27695
25185,27652.2
25195.1,27618.9
25250.5,27674.3
25345.8,27737.9
25451.6,27781.7
25563.9,27804.1
25678.5,27804.1
25790.8,27781.7
25896.7,27737.9
25991.9,27674.3
26072.9,27593.3
26121.2,27520.9
26169.5,27593.3
26250.5,27674.3
26345.8,27737.9
26451.6,27781.7
26563.9,27804.1
26678.5,27804.1
26790.8,27781.7
26896.7,27737.9
26991.9,27674.3
27046.2,27620
27046.2,28873.2
22816.9,28873.2
22803.9,28871.9
22791,28873.2
22791,28873.2
22752.2,28877
22702.5,28892.1
22656.7,28916.6
22656.7,28916.6
22656.7,28916.6
22616.5,28949.5
22608.3,28959.6
22567.9,29000
22557.8,29008.2
22549.5,29018.3
22549.5,29018.3
22524.8,29048.4
22524.8,29048.4
22500.3,29094.2
22485.3,29143.9
22481.4,29182.7
22481.4,29182.7
22480.2,29195.6
22481.4,29208.6
22481.4,29930.8
22469.8,29935.6
22374.5,29999.3
22319.1,30054.7
22309,30021.4
22286.1,29978.5
22255.3,29940.9
22217.7,29910
22174.8,29887.1
22128.3,29873
22079.9,29868.2
21410.6,29868.2
21362.2,29873
21315.7,29887.1
21272.8,29910
21235.2,29940.9
21204.3,29978.5
21181.4,30021.4
21167.3,30067.9
21162.5,30116.3
21162.5,30785.6
21167.3,30834
21181.4,30880.5
21204.3,30923.4
21235.2,30961
21272.8,30991.8
21315.7,31014.7
21362.2,31028.9
21410.6,31033.6
22079.9,31033.6
22128.3,31028.9
22174.8,31014.7
22217.7,30991.8
22255.3,30961
22286.1,30923.4
22309,30880.5
22319.1,30847.2
22374.5,30902.6
22469.8,30966.2
22575.6,31010.1
22688,31032.4
22802.5,31032.4
22914.8,31010.1
23020.7,30966.2
23115.9,30902.6
23196.9,30821.6
23245.2,30749.3
23293.6,30821.6
23374.5,30902.6
23469.8,30966.2
23575.6,31010.1
23688,31032.4
23802.5,31032.4
23914.8,31010.1
24020.7,30966.2
24115.9,30902.6
24196.9,30821.6
24260.5,30726.4
24304.4,30620.5
24326.7,30508.2
24326.7,30393.7
24304.4,30281.3
24260.5,30175.5
24196.9,30080.2
24115.9,29999.3
24020.7,29935.6
23914.8,29891.8
23802.5,29869.4
23688,29869.4
23575.6,29891.8
23469.8,29935.6
23374.5,29999.3
23293.6,30080.2
23245.2,30152.6
23196.9,30080.2
23115.9,29999.3
23020.7,29935.6
23009,29930.8
23009,29400.7
26281.6,29400.7
26281.4,29403.5
26282.6,29416.4
26282.6,29930.8
26271,29935.6
26175.7,29999.3
26120.3,30054.7
26110.2,30021.4
26087.3,29978.5
26056.4,29940.9
26018.9,29910
25976,29887.1
25929.4,29873
25881.1,29868.2
25211.8,29868.2
25163.4,29873
25116.8,29887.1
25074,29910
25036.4,29940.9
25005.5,29978.5
24982.6,30021.4
24968.5,30067.9
24963.7,30116.3
24963.7,30785.6
24968.5,30834
24982.6,30880.5
25005.5,30923.4
25036.4,30961
25074,30991.8
25116.8,31014.7
25163.4,31028.9
25211.8,31033.6
25881.1,31033.6
25929.4,31028.9
25976,31014.7
26018.9,30991.8
26056.4,30961
26087.3,30923.4
26110.2,30880.5
26120.3,30847.2
26175.7,30902.6
26248,30950.9
26175.7,30999.3
26094.7,31080.2
26031.1,31175.5
25987.3,31281.3
25964.9,31393.7
25964.9,31508.2
25987.3,31620.5
26031.1,31726.4
26094.7,31821.6
26175.7,31902.6
26271,31966.2
26376.8,32010.1
26489.1,32032.4
26603.7,32032.4
26716,32010.1
26821.9,31966.2
26917.1,31902.6
26998.1,31821.6
27061.7,31726.4
27105.6,31620.5
27119.2,31552
30218.7,31552
30219.6,31561.8
30222.5,31571.2
30227.1,31579.8
30233.3,31587.4
30240.8,31593.6
30249.5,31598.3
30258.8,31601.1
30268.6,31602.1
32463.5,31606
32473.2,31605.1
32482.6,31602.3
32491.3,31597.7
32498.9,31591.5
32505.1,31583.9
32509.7,31575.3
32512.6,31565.9
32513.6,31556.1
32517.5,29367.2
32516.6,29357.4
32513.7,29348
32509.1,29339.4
32502.9,29331.8
32495.4,29325.5
32486.7,29320.9
32477.4,29318.1
32467.6,29317.1
30272.7,29313.1
30263,29314.1
30253.6,29316.9
30244.9,29321.5
30237.3,29327.7
30231.1,29335.3
30226.5,29343.9
30223.6,29353.3
30222.6,29363
30218.7,31552
27119.2,31552
27127.9,31508.2
27127.9,31393.7
27105.6,31281.3
27061.7,31175.5
26998.1,31080.2
26917.1,30999.3
26844.8,30950.9
26917.1,30902.6
26998.1,30821.6
27046.4,30749.3
27094.7,30821.6
27175.7,30902.6
27271,30966.2
27376.8,31010.1
27489.1,31032.4
27603.7,31032.4
27716,31010.1
27821.9,30966.2
27917.1,30902.6
27998.1,30821.6
28061.7,30726.4
28105.6,30620.5
28127.9,30508.2
28127.9,30393.7
28105.6,30281.3
28061.7,30175.5
27998.1,30080.2
27917.1,29999.3
27821.9,29935.6
27716,29891.8
27603.7,29869.4
27489.1,29869.4
27376.8,29891.8
27271,29935.6
27175.7,29999.3
27094.7,30080.2
27046.4,30152.6
26998.1,30080.2
26917.1,29999.3
26821.9,29935.6
26810.2,29930.8
26810.2,29625.7
27597,29625.7
27609.9,29627
27622.9,29625.7
27622.9,29625.7
27661.6,29621.9
27711.4,29606.8
27757.2,29582.3
27797.4,29549.4
27805.6,29539.3
27825.3,29519.6
27835.4,29511.4
27868.3,29471.2
27892.8,29425.4
27907.9,29375.6
27911.7,29336.9
27911.7,29336.9
27913,29323.9
27911.7,29311
27911.7,26603.9
27913,26590.9
27911.7,26578
27911.7,26578
27907.9,26539.2
27892.8,26489.5
27868.3,26443.7
27835.4,26403.5
27825.3,26395.3
27824.6,26394.6
27816.4,26384.5
27776.2,26351.6
27730.4,26327.1
27680.6,26312
27641.9,26308.2
27641.9,26308.2
27628.9,26306.9
27616,26308.2
26577.9,26308.2
26577.9,26035.9
26602.7,25998.9
26627.2,25939.6
26639.7,25876.7
26639.7,25812.6
26627.2,25749.7
26602.7,25690.4
26567,25637.1
26539.1,25609.2
29671.6,25609.2
29671.6,27254
29671.3,27254.2
29595.8,27329.8
29536.5,27418.5
29495.6,27517.2
29474.8,27621.9
29474.8,27728.7
29495.6,27833.5
29536.5,27932.1
29595.8,28020.9
29671.3,28096.4
29760.1,28155.8
29858.7,28196.6
29963.5,28217.5
30070.3,28217.5
30175,28196.6
30273.7,28155.8
30362.5,28096.4
30438,28020.9
30497.3,27932.1
30538.2,27833.5
30559,27728.7
30559,27621.9
30538.2,27517.2
30522.1,27478.5
30654.7,27478.5
30654.7,27872.2
30661.3,27939.8
30681,28004.8
30713.1,28064.7
30756.1,28117.2
30808.6,28160.3
30868.5,28192.3
30933.5,28212
31001.1,28218.7
31394.8,28218.7
31462.4,28212
31527.4,28192.3
31587.3,28160.3
31639.8,28117.2
31682.9,28064.7
31714.9,28004.8
31734.6,27939.8
31741.3,27872.2
31741.3,27585.7
31997,27585.7
31997,27763
32031.5,27936.9
32099.4,28100.7
32197.9,28248.1
32323.2,28373.4
32470.6,28471.9
32634.4,28539.8
32808.3,28574.4
32985.6,28574.4
33159.5,28539.8
33323.2,28471.9
33470.6,28373.4
33596,28248.1
33694.5,28100.7
33762.3,27936.9
33796.9,27763
33796.9,27585.7
33762.3,27411.9
33694.5,27248.1
33596,27100.7
33470.6,26975.3
33323.2,26876.8
33159.5,26809
32985.6,26774.4
32808.3,26774.4
32634.4,26809
32470.6,26876.8
32323.2,26975.3
32197.9,27100.7
32099.4,27248.1
32031.5,27411.9
31997,27585.7
31741.3,27585.7
31741.3,27478.5
31734.6,27410.9
31714.9,27345.9
31682.9,27286
31639.8,27233.5
31587.3,27190.4
31527.4,27158.4
31462.4,27138.7
31394.8,27132
31001.1,27132
30933.5,27138.7
30868.5,27158.4
30808.6,27190.4
30756.1,27233.5
30713.1,27286
30681,27345.9
30661.3,27410.9
30654.7,27478.5
30522.1,27478.5
30497.3,27418.5
30438,27329.8
30362.5,27254.2
30362.2,27254
30362.2,25386.8
30363.8,25369.9
30362.2,25352.9
30362.2,25352.9
30357.2,25302.2
30337.4,25237.1
30305.4,25177.1
30262.2,25124.6
30249,25113.7
30167.1,25031.8
30156.2,25018.6
30103.7,24975.4
30043.7,24943.4
29978.6,24923.6
29927.9,24918.6
29910.9,24917
29894,24918.6
23987.8,24918.6
23999.7,24889.9
24015.3,24811.8
24015.3,24732.1
23999.7,24654
23989,24628.2
25383,24628.2
25399.9,24629.9
25416.9,24628.2
25467.6,24623.2
25532.7,24603.5
25592.7,24571.4
25645.3,24528.3
25656.1,24515.1
25715.1,24456.1
25728.3,24445.3
25771.4,24392.7
25803.5,24332.7
25813.4,24299.9
25823.2,24267.6
25829.9,24199.9
25828.2,24183
25828.2,23717.2
26329.9,23717.2
26349.4,23730.2
26423,23760.7
26501.1,23776.3
26580.8,23776.3
26658.9,23760.7
26732.5,23730.2
26752,23717.2
27600,23717.2
27616.9,23718.9
27633.9,23717.2
27684.6,23712.2
27749.7,23692.5
27809.7,23660.4
27862.3,23617.3
27873.1,23604.1
27942.1,23535.1
27955.3,23524.3
27998.4,23471.7
28030.5,23411.7
28050.2,23346.6
28052.5,23323.3
28056.9,23278.9
28055.2,23262
28055.2,19346.4
30225.6,19346.4
30226.5,19356.1
30229.4,19365.5
30234,19374.2
30240.2,19381.7
30247.7,19388
30256.4,19392.6
30265.7,19395.5
30275.5,19396.5
32470.4,19400.4
32480,19399.5
32489.4,19396.7
32498.1,19392.1
32505.7,19385.9
32511.9,19378.4
32516.6,19369.7
32519.5,19360.4
32520.5,19350.6
32530.3,17157.7
32529.4,17147.7
32526.5,17138.3
32521.9,17129.7
32515.7,17122.1
32508.1,17115.9
32499.4,17111.3
32490.1,17108.4
32480.3,17107.5
30279.5,17107.5
30269.9,17108.4
30260.5,17111.3
30251.8,17115.9
30244.2,17122.1
30238,17129.6
30233.4,17138.3
30230.5,17147.6
30229.5,17157.4
30225.6,19346.4
28055.2,19346.4
28055.2,19309
28068.2,19289.5
28098.7,19215.9
28114.3,19137.8
28114.3,19058.1
28098.7,18980
28068.2,18906.4
28024,18840.2
27967.7,18783.9
27901.5,18739.6
27827.9,18709.1
27749.8,18693.6
27670.1,18693.6
27592,18709.1
27518.4,18739.6
27452.2,18783.9
27395.9,18840.2
27351.6,18906.4
27321.1,18980
27305.6,19058.1
27305.6,19137.8
27321.1,19215.9
27351.6,19289.5
27364.7,19309
27364.7,23026.7
26752,23026.7
26732.5,23013.6
26658.9,22983.1
26580.8,22967.6
26501.1,22967.6
26423,22983.1
26349.4,23013.6
26329.9,23026.7
25558.9,23026.7
25541.9,23025
25474.3,23031.7
25409.2,23051.4
25349.2,23083.5
25296.6,23126.6
25285.8,23139.8
25250.8,23174.8
25237.6,23185.6
25226.8,23198.8
25226.8,23198.8
25194.5,23238.2
25162.4,23298.2
25142.7,23363.3
25136,23430.9
25137.7,23447.9
25137.7,23937.7
23793.2,23937.7
23793.2,23017.4
23797.9,22969.9
23791.2,22902.3
23771.5,22837.2
23769.4,22833.4
23768.5,22830.2
23736.4,22770.2
23693.3,22717.6
23657.8,22688.5
23635.4,22666.1
23606.3,22630.6
23553.7,22587.5
23493.7,22555.4
23493.6,22555.4
23478.7,22547.4
23413.6,22527.7
23362.9,22522.7
23345.9,22521
23329,22522.7
21895.6,22522.7
21895.6,20238.7
21908.7,20219.2
21939.1,20145.6
21954.7,20067.5
21954.7,19987.9
21939.1,19909.8
21908.7,19836.2
21864.4,19770
21808.1,19713.6
21741.9,19669.4
21668.3,19638.9
21590.2,19623.4
21510.5,19623.4
21432.4,19638.9
21358.8,19669.4
21292.6,19713.6
21236.3,19770
21192,19836.2
21161.6,19909.8
21146,19987.9
21146,20067.5
21161.6,20145.6
21192,20219.2
21205.1,20238.7
21205.1,22672.4
21203.4,22689.3
21204.3,22698.1
21204,22700.9
21205.7,22717.9
21205.7,22717.9
21210.7,22768.6
21230.4,22833.7
21262.5,22893.7
21305.6,22946.3
21318.8,22957.1
21461.8,23100.1
21472.6,23113.3
21525.2,23156.4
21585.2,23188.5
21650.3,23208.2
21701,23213.2
21701,23213.2
21717.9,23214.9
21734.9,23213.2
23102.7,23213.2
23102.7,23959.3
23092.5,23962.4
23032.5,23994.5
22979.9,24037.6
22969.1,24050.8
22917.8,24102.1
22904.6,24112.9
22861.5,24165.5
22843,24199.9
22829.4,24225.5
22809.7,24290.5
22803,24358.2
22804.7,24375.2
22804.7,25163
22803,25179.9
22809.7,25247.6
22829.4,25312.7
22861.5,25372.7
22893.8,25412.1
22893.8,25412.1
22904.6,25425.3
22917.8,25436.1
22977.8,25496.1
22988.6,25509.2
23041.2,25552.4
23101.2,25584.5
23125.1,25591.7
23166.2,25604.2
23233.9,25610.9
23250.9,25609.2
24711.2,25609.2
24683.3,25637.1
24647.6,25690.4
24623.1,25749.7
24610.6,25812.6
24610.6,25876.7
24623.1,25939.6
24647.6,25998.9
24672.4,26035.9
24672.4,26305.2
18592.9,26305.2
18579.9,26303.9
18567,26305.2
18567,26305.2
18528.2,26309
18478.5,26324.1
18432.7,26348.6
18392.5,26381.5
18384.3,26391.6
18367.1,26408.8
18357,26417
18348.8,26427.1
18348.8,26427.1
18338.8,26439.3
18324.1,26457.2
18299.6,26503
18284.5,26552.7
18280.7,26591.5
18280.7,26591.5
18279.4,26604.4
18280.7,26617.4
18280.7,26702.4
18269,26707.3
18173.8,26770.9
18118.4,26826.3
18108.2,26793
18085.3,26750.1
18054.5,26712.5
18016.9,26681.7
17974,26658.8
17927.5,26644.7
17879.1,26639.9
17227.2,26639.9
17227.2,22527.7
19351.9,22527.7
19363.1,22641.7
19396.3,22751.3
19450.3,22852.3
19523,22940.9
19611.5,23013.5
19623.3,23019.8
19611.5,23026.1
19523,23098.8
19450.3,23187.3
19396.3,23288.3
19363.1,23398
19351.9,23512
19363.1,23625.9
19396.3,23735.6
19450.3,23836.6
19523,23925.1
19611.5,23997.8
19623.3,24004.1
19611.5,24010.4
19523,24083
19450.3,24171.6
19396.3,24272.6
19363.1,24382.2
19351.9,24496.2
19363.1,24610.2
19396.3,24719.8
19450.3,24820.8
19523,24909.4
19611.5,24982
19712.6,25036
19822.2,25069.3
19907.6,25077.7
20063.2,25077.7
20148.6,25069.3
20258.2,25036
20359.2,24982
20447.8,24909.4
20520.4,24820.8
20574.4,24719.8
20607.7,24610.2
20618.9,24496.2
20607.7,24382.2
20574.4,24272.6
20520.4,24171.6
20447.8,24083
20359.2,24010.4
20347.5,24004.1
20359.2,23997.8
20447.8,23925.1
20520.4,23836.6
20574.4,23735.6
20607.7,23625.9
20618.9,23512
20607.7,23398
20574.4,23288.3
20520.4,23187.3
20447.8,23098.8
20359.2,23026.1
20347.5,23019.8
20359.2,23013.5
20447.8,22940.9
20520.4,22852.3
20574.4,22751.3
20607.7,22641.7
20618.9,22527.7
20607.7,22413.7
20574.4,22304.1
20520.4,22203.1
20447.8,22114.5
20419.4,22091.2
20463.3,22067.7
20515.8,22024.7
20558.9,21972.2
20590.9,21912.3
20610.6,21847.3
20617.3,21779.7
20617.3,21307.2
20610.6,21239.6
20590.9,21174.6
20558.9,21114.7
20515.8,21062.2
20463.3,21019.1
20403.4,20987.1
20338.4,20967.4
20270.8,20960.8
19700,20960.8
19632.4,20967.4
19567.4,20987.1
19507.5,21019.1
19455,21062.2
19411.9,21114.7
19379.9,21174.6
19360.1,21239.6
19353.5,21307.2
19353.5,21779.7
19360.1,21847.3
19379.9,21912.3
19411.9,21972.2
19455,22024.7
19507.5,22067.7
19551.4,22091.2
19523,22114.5
19450.3,22203.1
19396.3,22304.1
19363.1,22413.7
19351.9,22527.7
17227.2,22527.7
17227.2,19345.9
18031,19345.9
18032,19355.6
18034.8,19365
18039.4,19373.7
18045.6,19381.3
18053.2,19387.5
18061.8,19392.1
18071.2,19395
18080.9,19396
20275.8,19399.9
20285.6,19399
20295,19396.1
20303.6,19391.5
20311.2,19385.3
20317.4,19377.7
20322.1,19369.1
20324.9,19359.7
20325.9,19350
20329.9,17161
20328.9,17151.3
20326.1,17141.9
20321.5,17133.2
20315.3,17125.6
20307.7,17119.4
20299.1,17114.8
20289.7,17111.9
20279.9,17110.9
18085.1,17107
18075.3,17107.9
18065.9,17110.8
18057.3,17115.4
18049.7,17121.6
18043.4,17129.1
18038.8,17137.8
18035.9,17147.1
18035,17156.9
18031,19345.9
17227.2,19345.9
17227.2,16337.3
34528.7,16333.5
Z" /> 
<path style="fill:#008400; fill-opacity:1.0; 
stroke:#008400; stroke-width:100; stroke-opacity:1; 
stroke-linecap:round; stroke-linejoin:round;fill-rule:evenodd;"
d="M 19092.8,26851.9
19044.4,26924.2
18996.1,26851.9
18976.9,26832.7
19111.9,26832.7
Z" /> 
</g>
</g>
<g style="fill:#FFFFFF; fill-opacity:1.0; 
stroke:#FFFFFF; stroke-width:100; stroke-opacity:1; 
stroke-linecap:round; stroke-linejoin:round;">
</g>
<g style="fill:#FFFFFF; fill-opacity:1.0; 
stroke:#FFFFFF; stroke-width:0; stroke-opacity:1; 
stroke-linecap:round; stroke-linejoin:round;">
<circle cx="25276.7" cy="25840.7" r="39.3701" /> 
</g>
<g style="fill:#FFFFFF; fill-opacity:1.0; 
stroke:#FFFFFF; stroke-width:39.3701; stroke-opacity:1; 
stroke-linecap:round; stroke-linejoin:round;">
</g>
<g style="fill:#FFFFFF; fill-opacity:1.0; 
stroke:#FFFFFF; stroke-width:0; stroke-opacity:1; 
stroke-linecap:round; stroke-linejoin:round;">
<circle cx="26310.2" cy="25840.7" r="39.3701" /> 
</g>
<g style="fill:#FFFFFF; fill-opacity:1.0; 
stroke:#FFFFFF; stroke-width:39.3701; stroke-opacity:1; 
stroke-linecap:round; stroke-linejoin:round;">
</g>
<g style="fill:#FFFFFF; fill-opacity:1.0; 
stroke:#FFFFFF; stroke-width:0; stroke-opacity:1; 
stroke-linecap:round; stroke-linejoin:round;">
<circle cx="24932.2" cy="25840.7" r="39.3701" /> 
</g>
<g style="fill:#FFFFFF; fill-opacity:1.0; 
stroke:#FFFFFF; stroke-width:39.3701; stroke-opacity:1; 
stroke-linecap:round; stroke-linejoin:round;">
</g>
<g style="fill:#FFFFFF; fill-opacity:1.0; 
stroke:#FFFFFF; stroke-width:0; stroke-opacity:1; 
stroke-linecap:round; stroke-linejoin:round;">
<circle cx="25621.2" cy="25840.7" r="39.3701" /> 
</g>
<g style="fill:#FFFFFF; fill-opacity:1.0; 
stroke:#FFFFFF; stroke-width:39.3701; stroke-opacity:1; 
stroke-linecap:round; stroke-linejoin:round;">
</g>
<g style="fill:#FFFFFF; fill-opacity:1.0; 
stroke:#FFFFFF; stroke-width:0; stroke-opacity:1; 
stroke-linecap:round; stroke-linejoin:round;">
<circle cx="23444" cy="24279" r="78.7402" /> 
</g>
<g style="fill:#FFFFFF; fill-opacity:1.0; 
stroke:#FFFFFF; stroke-width:39.3701; stroke-opacity:1; 
stroke-linecap:round; stroke-linejoin:round;">
</g>
<g style="fill:#FFFFFF; fill-opacity:1.0; 
stroke:#FFFFFF; stroke-width:0; stroke-opacity:1; 
stroke-linecap:round; stroke-linejoin:round;">
<circle cx="26537" cy="23368" r="78.7402" /> 
</g>
<g style="fill:#FFFFFF; fill-opacity:1.0; 
stroke:#FFFFFF; stroke-width:39.3701; stroke-opacity:1; 
stroke-linecap:round; stroke-linejoin:round;">
</g>
<g style="fill:#FFFFFF; fill-opacity:1.0; 
stroke:#FFFFFF; stroke-width:0; stroke-opacity:1; 
stroke-linecap:round; stroke-linejoin:round;">
<circle cx="25965.7" cy="25840.7" r="39.3701" /> 
</g>
<g style="fill:#FFFFFF; fill-opacity:1.0; 
stroke:#FFFFFF; stroke-width:39.3701; stroke-opacity:1; 
stroke-linecap:round; stroke-linejoin:round;">
</g>
<g style="fill:#FFFFFF; fill-opacity:1.0; 
stroke:#FFFFFF; stroke-width:0; stroke-opacity:1; 
stroke-linecap:round; stroke-linejoin:round;">
<circle cx="21546.4" cy="20023.8" r="78.7402" /> 
</g>
<g style="fill:#FFFFFF; fill-opacity:1.0; 
stroke:#FFFFFF; stroke-width:39.3701; stroke-opacity:1; 
stroke-linecap:round; stroke-linejoin:round;">
</g>
<g style="fill:#FFFFFF; fill-opacity:1.0; 
stroke:#FFFFFF; stroke-width:0; stroke-opacity:1; 
stroke-linecap:round; stroke-linejoin:round;">
<circle cx="27706" cy="19094" r="78.7402" /> 
</g>
<g style="fill:#FFFFFF; fill-opacity:1.0; 
stroke:#FFFFFF; stroke-width:39.3701; stroke-opacity:1; 
stroke-linecap:round; stroke-linejoin:round;">
</g>
<g style="fill:#FFFFFF; fill-opacity:1.0; 
stroke:#FFFFFF; stroke-width:0; stroke-opacity:1; 
stroke-linecap:round; stroke-linejoin:round;">
<circle cx="23607" cy="24768" r="78.7402" /> 
</g>
<g style="fill:#FFFFFF; fill-opacity:1.0; 
stroke:#FFFFFF; stroke-width:39.3701; stroke-opacity:1; 
stroke-linecap:round; stroke-linejoin:round;">
</g>
<g style="fill:#FFFFFF; fill-opacity:1.0; 
stroke:#FFFFFF; stroke-width:0; stroke-opacity:1; 
stroke-linecap:round; stroke-linejoin:round;">
<circle cx="30012.9" cy="27671.4" r="200.787" /> 
</g>
<g style="fill:#FFFFFF; fill-opacity:1.0; 
stroke:#FFFFFF; stroke-width:39.3701; stroke-opacity:1; 
stroke-linecap:round; stroke-linejoin:round;">
</g>
<g style="fill:#FFFFFF; fill-opacity:1.0; 
stroke:#FFFFFF; stroke-width:0; stroke-opacity:1; 
stroke-linecap:round; stroke-linejoin:round;">
<circle cx="31194" cy="27671.4" r="200.787" /> 
</g>
<g style="fill:#FFFFFF; fill-opacity:1.0; 
stroke:#FFFFFF; stroke-width:39.3701; stroke-opacity:1; 
stroke-linecap:round; stroke-linejoin:round;">
</g>
<g style="fill:#FFFFFF; fill-opacity:1.0; 
stroke:#FFFFFF; stroke-width:0; stroke-opacity:1; 
stroke-linecap:round; stroke-linejoin:round;">
<circle cx="32894.8" cy="27671.4" r="590.551" /> 
</g>
<g style="fill:#FFFFFF; fill-opacity:1.0; 
stroke:#FFFFFF; stroke-width:39.3701; stroke-opacity:1; 
stroke-linecap:round; stroke-linejoin:round;">
</g>
<g style="fill:#FFFFFF; fill-opacity:1.0; 
stroke:#FFFFFF; stroke-width:0; stroke-opacity:1; 
stroke-linecap:round; stroke-linejoin:round;">
<circle cx="19981.4" cy="24492.3" r="187.008" /> 
</g>
<g style="fill:#FFFFFF; fill-opacity:1.0; 
stroke:#FFFFFF; stroke-width:39.3701; stroke-opacity:1; 
stroke-linecap:round; stroke-linejoin:round;">
</g>
<g style="fill:#FFFFFF; fill-opacity:1.0; 
stroke:#FFFFFF; stroke-width:0; stroke-opacity:1; 
stroke-linecap:round; stroke-linejoin:round;">
<circle cx="19981.4" cy="23508" r="187.008" /> 
</g>
<g style="fill:#FFFFFF; fill-opacity:1.0; 
stroke:#FFFFFF; stroke-width:39.3701; stroke-opacity:1; 
stroke-linecap:round; stroke-linejoin:round;">
</g>
<g style="fill:#FFFFFF; fill-opacity:1.0; 
stroke:#FFFFFF; stroke-width:0; stroke-opacity:1; 
stroke-linecap:round; stroke-linejoin:round;">
<circle cx="19981.4" cy="22523.8" r="187.008" /> 
</g>
<g style="fill:#FFFFFF; fill-opacity:1.0; 
stroke:#FFFFFF; stroke-width:39.3701; stroke-opacity:1; 
stroke-linecap:round; stroke-linejoin:round;">
</g>
<g style="fill:#FFFFFF; fill-opacity:1.0; 
stroke:#FFFFFF; stroke-width:0; stroke-opacity:1; 
stroke-linecap:round; stroke-linejoin:round;">
<circle cx="19981.4" cy="21539.5" r="187.008" /> 
</g>
<g style="fill:#FFFFFF; fill-opacity:1.0; 
stroke:#FFFFFF; stroke-width:39.3701; stroke-opacity:1; 
stroke-linecap:round; stroke-linejoin:round;">
</g>
<g style="fill:#FFFFFF; fill-opacity:1.0; 
stroke:#FFFFFF; stroke-width:0; stroke-opacity:1; 
stroke-linecap:round; stroke-linejoin:round;">
<circle cx="23074" cy="27218.6" r="196.85" /> 
</g>
<g style="fill:#FFFFFF; fill-opacity:1.0; 
stroke:#FFFFFF; stroke-width:39.3701; stroke-opacity:1; 
stroke-linecap:round; stroke-linejoin:round;">
</g>
<g style="fill:#FFFFFF; fill-opacity:1.0; 
stroke:#FFFFFF; stroke-width:0; stroke-opacity:1; 
stroke-linecap:round; stroke-linejoin:round;">
<circle cx="22074" cy="27218.6" r="196.85" /> 
</g>
<g style="fill:#FFFFFF; fill-opacity:1.0; 
stroke:#FFFFFF; stroke-width:39.3701; stroke-opacity:1; 
stroke-linecap:round; stroke-linejoin:round;">
</g>
<g style="fill:#FFFFFF; fill-opacity:1.0; 
stroke:#FFFFFF; stroke-width:0; stroke-opacity:1; 
stroke-linecap:round; stroke-linejoin:round;">
<circle cx="21074" cy="27218.6" r="196.85" /> 
</g>
<g style="fill:#FFFFFF; fill-opacity:1.0; 
stroke:#FFFFFF; stroke-width:39.3701; stroke-opacity:1; 
stroke-linecap:round; stroke-linejoin:round;">
</g>
<g style="fill:#FFFFFF; fill-opacity:1.0; 
stroke:#FFFFFF; stroke-width:0; stroke-opacity:1; 
stroke-linecap:round; stroke-linejoin:round;">
<circle cx="22074" cy="28218.6" r="196.85" /> 
</g>
<g style="fill:#FFFFFF; fill-opacity:1.0; 
stroke:#FFFFFF; stroke-width:39.3701; stroke-opacity:1; 
stroke-linecap:round; stroke-linejoin:round;">
</g>
<g style="fill:#FFFFFF; fill-opacity:1.0; 
stroke:#FFFFFF; stroke-width:0; stroke-opacity:1; 
stroke-linecap:round; stroke-linejoin:round;">
<circle cx="21741.3" cy="30447" r="196.85" /> 
</g>
<g style="fill:#FFFFFF; fill-opacity:1.0; 
stroke:#FFFFFF; stroke-width:39.3701; stroke-opacity:1; 
stroke-linecap:round; stroke-linejoin:round;">
</g>
<g style="fill:#FFFFFF; fill-opacity:1.0; 
stroke:#FFFFFF; stroke-width:0; stroke-opacity:1; 
stroke-linecap:round; stroke-linejoin:round;">
<circle cx="22741.3" cy="30447" r="196.85" /> 
</g>
<g style="fill:#FFFFFF; fill-opacity:1.0; 
stroke:#FFFFFF; stroke-width:39.3701; stroke-opacity:1; 
stroke-linecap:round; stroke-linejoin:round;">
</g>
<g style="fill:#FFFFFF; fill-opacity:1.0; 
stroke:#FFFFFF; stroke-width:0; stroke-opacity:1; 
stroke-linecap:round; stroke-linejoin:round;">
<circle cx="23741.3" cy="30447" r="196.85" /> 
</g>
<g style="fill:#FFFFFF; fill-opacity:1.0; 
stroke:#FFFFFF; stroke-width:39.3701; stroke-opacity:1; 
stroke-linecap:round; stroke-linejoin:round;">
</g>
<g style="fill:#FFFFFF; fill-opacity:1.0; 
stroke:#FFFFFF; stroke-width:0; stroke-opacity:1; 
stroke-linecap:round; stroke-linejoin:round;">
<circle cx="26542.5" cy="31447" r="196.85" /> 
</g>
<g style="fill:#FFFFFF; fill-opacity:1.0; 
stroke:#FFFFFF; stroke-width:39.3701; stroke-opacity:1; 
stroke-linecap:round; stroke-linejoin:round;">
</g>
<g style="fill:#FFFFFF; fill-opacity:1.0; 
stroke:#FFFFFF; stroke-width:0; stroke-opacity:1; 
stroke-linecap:round; stroke-linejoin:round;">
<circle cx="25542.5" cy="30447" r="196.85" /> 
</g>
<g style="fill:#FFFFFF; fill-opacity:1.0; 
stroke:#FFFFFF; stroke-width:39.3701; stroke-opacity:1; 
stroke-linecap:round; stroke-linejoin:round;">
</g>
<g style="fill:#FFFFFF; fill-opacity:1.0; 
stroke:#FFFFFF; stroke-width:0; stroke-opacity:1; 
stroke-linecap:round; stroke-linejoin:round;">
<circle cx="26542.5" cy="30447" r="196.85" /> 
</g>
<g style="fill:#FFFFFF; fill-opacity:1.0; 
stroke:#FFFFFF; stroke-width:39.3701; stroke-opacity:1; 
stroke-linecap:round; stroke-linejoin:round;">
</g>
<g style="fill:#FFFFFF; fill-opacity:1.0; 
stroke:#FFFFFF; stroke-width:0; stroke-opacity:1; 
stroke-linecap:round; stroke-linejoin:round;">
<circle cx="27542.5" cy="30447" r="196.85" /> 
</g>
<g style="fill:#FFFFFF; fill-opacity:1.0; 
stroke:#FFFFFF; stroke-width:39.3701; stroke-opacity:1; 
stroke-linecap:round; stroke-linejoin:round;">
</g>
<g style="fill:#FFFFFF; fill-opacity:1.0; 
stroke:#FFFFFF; stroke-width:0; stroke-opacity:1; 
stroke-linecap:round; stroke-linejoin:round;">
<circle cx="24617.3" cy="27218.6" r="196.85" /> 
</g>
<g style="fill:#FFFFFF; fill-opacity:1.0; 
stroke:#FFFFFF; stroke-width:39.3701; stroke-opacity:1; 
stroke-linecap:round; stroke-linejoin:round;">
</g>
<g style="fill:#FFFFFF; fill-opacity:1.0; 
stroke:#FFFFFF; stroke-width:0; stroke-opacity:1; 
stroke-linecap:round; stroke-linejoin:round;">
<circle cx="25617.3" cy="27218.6" r="196.85" /> 
</g>
<g style="fill:#FFFFFF; fill-opacity:1.0; 
stroke:#FFFFFF; stroke-width:39.3701; stroke-opacity:1; 
stroke-linecap:round; stroke-linejoin:round;">
</g>
<g style="fill:#FFFFFF; fill-opacity:1.0; 
stroke:#FFFFFF; stroke-width:0; stroke-opacity:1; 
stroke-linecap:round; stroke-linejoin:round;">
<circle cx="26617.3" cy="27218.6" r="196.85" /> 
</g>
<g style="fill:#FFFFFF; fill-opacity:1.0; 
stroke:#FFFFFF; stroke-width:39.3701; stroke-opacity:1; 
stroke-linecap:round; stroke-linejoin:round;">
</g>
<g style="fill:#FFFFFF; fill-opacity:1.0; 
stroke:#FFFFFF; stroke-width:0; stroke-opacity:1; 
stroke-linecap:round; stroke-linejoin:round;">
<circle cx="17540.5" cy="27218.6" r="196.85" /> 
</g>
<g style="fill:#FFFFFF; fill-opacity:1.0; 
stroke:#FFFFFF; stroke-width:39.3701; stroke-opacity:1; 
stroke-linecap:round; stroke-linejoin:round;">
</g>
<g style="fill:#FFFFFF; fill-opacity:1.0; 
stroke:#FFFFFF; stroke-width:0; stroke-opacity:1; 
stroke-linecap:round; stroke-linejoin:round;">
<circle cx="18540.5" cy="27218.6" r="196.85" /> 
</g>
<g style="fill:#FFFFFF; fill-opacity:1.0; 
stroke:#FFFFFF; stroke-width:39.3701; stroke-opacity:1; 
stroke-linecap:round; stroke-linejoin:round;">
</g>
<g style="fill:#FFFFFF; fill-opacity:1.0; 
stroke:#FFFFFF; stroke-width:0; stroke-opacity:1; 
stroke-linecap:round; stroke-linejoin:round;">
<circle cx="19540.5" cy="27218.6" r="196.85" /> 
</g>
<g style="fill:#FFFFFF; fill-opacity:1.0; 
stroke:#FFFFFF; stroke-width:39.3701; stroke-opacity:1; 
stroke-linecap:round; stroke-linejoin:round;">
</g>
<g style="fill:#000000; fill-opacity:1.0; 
stroke:#000000; stroke-width:39.3701; stroke-opacity:1; 
stroke-linecap:round; stroke-linejoin:round;">
</g>
<g style="fill:#000100; fill-opacity:1.0; 
stroke:#000100; stroke-width:39.3701; stroke-opacity:1; 
stroke-linecap:round; stroke-linejoin:round;">
</g>
<g style="fill:#000100; fill-opacity:0.0; 
stroke:#000100; stroke-width:118.11; stroke-opacity:1; 
stroke-linecap:round; stroke-linejoin:round;">
<circle cx="31369.2" cy="18252.1" r="590.551" /> 
<circle cx="32893" cy="27670.4" r="590.551" /> 
<circle cx="19164.5" cy="18252.1" r="590.551" /> 
<circle cx="19164.5" cy="30456.8" r="590.551" /> 
<circle cx="31369.2" cy="30456.8" r="590.551" /> 
<path d="M34830 32677
L34830 16023
" />
<path d="M16917 32681
L16917 16027
" />
<path d="M16917 16027
L34830 16023
" />
<path d="M16917 32681
L34830 32677
" />
<g >
</g>
<g >
</g>
<g >
</g>
<g >
</g>
<g >
</g>
<g >
</g>
<g >
</g>
<g >
</g>
<g >
</g>
<g >
</g>
<g >
</g>
<g >
</g>
<g >
</g>
<g >
</g>
<g >
</g>
<g >
</g>
<g >
</g>
<g >
</g>
<g >
</g>
<g >
</g>
<g >
</g>
<g >
</g>
<g >
</g>
<g >
</g>
<g >
</g>
<g >
</g>
<g >
</g>
</g> 
</svg>
