<?xml version="1.0" standalone="no"?>
 <!DOCTYPE svg PUBLIC "-//W3C//DTD SVG 1.1//EN" 
 "http://www.w3.org/Graphics/SVG/1.1/DTD/svg11.dtd"> 
<svg xmlns="http://www.w3.org/2000/svg" version="1.1" 
    width="13.2004cm" height="14.8006cm" viewBox="0 0 51970 58270 ">
<title>SVG Picture created as spindle_drive-brd.svg date 2021/01/08 18:27:39 </title>
  <desc>Picture generated by PCBNEW </desc>
<g style="fill:#000000; fill-opacity:1;stroke:#000000; stroke-opacity:1;
stroke-linecap:round; stroke-linejoin:round; "
 transform="translate(0 0) scale(1 1)">
</g>
<g style="fill:#000000; fill-opacity:0.0; 
stroke:#000000; stroke-width:-0.000393701; stroke-opacity:1; 
stroke-linecap:round; stroke-linejoin:round;">
</g>
<g style="fill:#000000; fill-opacity:0.0; 
stroke:#000000; stroke-width:39.3701; stroke-opacity:1; 
stroke-linecap:round; stroke-linejoin:round;">
</g>
<g style="fill:#000000; fill-opacity:0.0; 
stroke:#000000; stroke-width:59.0551; stroke-opacity:1; 
stroke-linecap:round; stroke-linejoin:round;">
<rect x="4725.91" y="40947.2" width="42519.7" height="12598.4" rx="0" />
</g>
<g style="fill:#000000; fill-opacity:0.0; 
stroke:#000000; stroke-width:39.3701; stroke-opacity:1; 
stroke-linecap:round; stroke-linejoin:round;">
</g>
<g style="fill:#000000; fill-opacity:0.0; 
stroke:#000000; stroke-width:59.0551; stroke-opacity:1; 
stroke-linecap:round; stroke-linejoin:round;">
<rect x="3937.01" y="3937.01" width="44096" height="50396" rx="0" />
</g>
<g style="fill:#000000; fill-opacity:0.0; 
stroke:#000000; stroke-width:39.3701; stroke-opacity:1; 
stroke-linecap:round; stroke-linejoin:round;">
</g>
<g style="fill:#000000; fill-opacity:0.0; 
stroke:#000000; stroke-width:59.0551; stroke-opacity:1; 
stroke-linecap:round; stroke-linejoin:round;">
<rect x="4724.41" y="4724.41" width="42521.2" height="48821.2" rx="0" />
</g>
<g style="fill:#000000; fill-opacity:0.0; 
stroke:#000000; stroke-width:39.3701; stroke-opacity:1; 
stroke-linecap:round; stroke-linejoin:round;">
</g>
<g style="fill:#000000; fill-opacity:0.0; 
stroke:#000000; stroke-width:59.0551; stroke-opacity:1; 
stroke-linecap:round; stroke-linejoin:round;">
<path d="M23622 4724
L23622 3937
" />
</g>
<g style="fill:#000000; fill-opacity:0.0; 
stroke:#000000; stroke-width:39.3701; stroke-opacity:1; 
stroke-linecap:round; stroke-linejoin:round;">
</g>
<g style="fill:#000000; fill-opacity:0.0; 
stroke:#000000; stroke-width:59.0551; stroke-opacity:1; 
stroke-linecap:round; stroke-linejoin:round;">
<path d="M43307 4724
L43307 3937
" />
</g>
<g style="fill:#000000; fill-opacity:0.0; 
stroke:#000000; stroke-width:39.3701; stroke-opacity:1; 
stroke-linecap:round; stroke-linejoin:round;">
</g>
<g style="fill:#000000; fill-opacity:0.0; 
stroke:#000000; stroke-width:59.0551; stroke-opacity:1; 
stroke-linecap:round; stroke-linejoin:round;">
<text x="13779.5" y="4586.61"
textLength="564.211" font-size="682.415" lengthAdjust="spacingAndGlyphs"
text-anchor="start" opacity="0">1</text>
<path d="M14199 4562
L13906 4562
" />
<path d="M14052 4562
L14052 4050
L14004 4123
L13955 4172
L13906 4196
" />
</g>
<g style="fill:#000000; fill-opacity:0.0; 
stroke:#000000; stroke-width:39.3701; stroke-opacity:1; 
stroke-linecap:round; stroke-linejoin:round;">
</g>
<g style="fill:#000000; fill-opacity:0.0; 
stroke:#000000; stroke-width:59.0551; stroke-opacity:1; 
stroke-linecap:round; stroke-linejoin:round;">
<text x="33464.6" y="4586.61"
textLength="546.494" font-size="682.415" lengthAdjust="spacingAndGlyphs"
text-anchor="start" opacity="0">2</text>
<path d="M33591 4099
L33615 4074
L33664 4050
L33786 4050
L33835 4074
L33859 4099
L33884 4147
L33884 4196
L33859 4269
L33567 4562
L33884 4562
" />
</g>
<g style="fill:#000000; fill-opacity:0.0; 
stroke:#000000; stroke-width:39.3701; stroke-opacity:1; 
stroke-linecap:round; stroke-linejoin:round;">
</g>
<g style="fill:#000000; fill-opacity:0.0; 
stroke:#000000; stroke-width:59.0551; stroke-opacity:1; 
stroke-linecap:round; stroke-linejoin:round;">
<path d="M23622 53545
L23622 54332
" />
</g>
<g style="fill:#000000; fill-opacity:0.0; 
stroke:#000000; stroke-width:39.3701; stroke-opacity:1; 
stroke-linecap:round; stroke-linejoin:round;">
</g>
<g style="fill:#000000; fill-opacity:0.0; 
stroke:#000000; stroke-width:59.0551; stroke-opacity:1; 
stroke-linecap:round; stroke-linejoin:round;">
<path d="M43307 53545
L43307 54332
" />
</g>
<g style="fill:#000000; fill-opacity:0.0; 
stroke:#000000; stroke-width:39.3701; stroke-opacity:1; 
stroke-linecap:round; stroke-linejoin:round;">
</g>
<g style="fill:#000000; fill-opacity:0.0; 
stroke:#000000; stroke-width:59.0551; stroke-opacity:1; 
stroke-linecap:round; stroke-linejoin:round;">
<text x="13779.5" y="54195.2"
textLength="546.494" font-size="682.415" lengthAdjust="spacingAndGlyphs"
text-anchor="start" opacity="0">1</text>
<path d="M14199 54170
L13906 54170
" />
<path d="M14052 54170
L14052 53659
L14004 53732
L13955 53780
L13906 53805
" />
</g>
<g style="fill:#000000; fill-opacity:0.0; 
stroke:#000000; stroke-width:39.3701; stroke-opacity:1; 
stroke-linecap:round; stroke-linejoin:round;">
</g>
<g style="fill:#000000; fill-opacity:0.0; 
stroke:#000000; stroke-width:59.0551; stroke-opacity:1; 
stroke-linecap:round; stroke-linejoin:round;">
<text x="33464.6" y="54195.2"
textLength="546.494" font-size="682.415" lengthAdjust="spacingAndGlyphs"
text-anchor="start" opacity="0">2</text>
<path d="M33591 53707
L33615 53683
L33664 53659
L33786 53659
L33835 53683
L33859 53707
L33884 53756
L33884 53805
L33859 53878
L33567 54170
L33884 54170
" />
</g>
<g style="fill:#000000; fill-opacity:0.0; 
stroke:#000000; stroke-width:39.3701; stroke-opacity:1; 
stroke-linecap:round; stroke-linejoin:round;">
</g>
<g style="fill:#000000; fill-opacity:0.0; 
stroke:#000000; stroke-width:59.0551; stroke-opacity:1; 
stroke-linecap:round; stroke-linejoin:round;">
<path d="M3937 23622
L4724 23622
" />
</g>
<g style="fill:#000000; fill-opacity:0.0; 
stroke:#000000; stroke-width:39.3701; stroke-opacity:1; 
stroke-linecap:round; stroke-linejoin:round;">
</g>
<g style="fill:#000000; fill-opacity:0.0; 
stroke:#000000; stroke-width:59.0551; stroke-opacity:1; 
stroke-linecap:round; stroke-linejoin:round;">
<path d="M3937 43307
L4724 43307
" />
</g>
<g style="fill:#000000; fill-opacity:0.0; 
stroke:#000000; stroke-width:39.3701; stroke-opacity:1; 
stroke-linecap:round; stroke-linejoin:round;">
</g>
<g style="fill:#000000; fill-opacity:0.0; 
stroke:#000000; stroke-width:59.0551; stroke-opacity:1; 
stroke-linecap:round; stroke-linejoin:round;">
<text x="4330.71" y="14035.4"
textLength="497.75" font-size="682.415" lengthAdjust="spacingAndGlyphs"
text-anchor="middle" opacity="0">A</text>
<path d="M4208 13864
L4452 13864
" />
<path d="M4160 14011
L4330 13499
L4501 14011
" />
</g>
<g style="fill:#000000; fill-opacity:0.0; 
stroke:#000000; stroke-width:39.3701; stroke-opacity:1; 
stroke-linecap:round; stroke-linejoin:round;">
</g>
<g style="fill:#000000; fill-opacity:0.0; 
stroke:#000000; stroke-width:59.0551; stroke-opacity:1; 
stroke-linecap:round; stroke-linejoin:round;">
<text x="4330.71" y="33720.5"
textLength="570.866" font-size="682.415" lengthAdjust="spacingAndGlyphs"
text-anchor="middle" opacity="0">B</text>
<path d="M4367 33428
L4440 33452
L4464 33476
L4489 33525
L4489 33598
L4464 33647
L4440 33671
L4391 33696
L4196 33696
L4196 33184
L4367 33184
L4416 33208
L4440 33233
L4464 33281
L4464 33330
L4440 33379
L4416 33403
L4367 33428
L4196 33428
" />
</g>
<g style="fill:#000000; fill-opacity:0.0; 
stroke:#000000; stroke-width:39.3701; stroke-opacity:1; 
stroke-linecap:round; stroke-linejoin:round;">
</g>
<g style="fill:#000000; fill-opacity:0.0; 
stroke:#000000; stroke-width:59.0551; stroke-opacity:1; 
stroke-linecap:round; stroke-linejoin:round;">
<text x="4330.71" y="53405.5"
textLength="570.866" font-size="682.415" lengthAdjust="spacingAndGlyphs"
text-anchor="middle" opacity="0">C</text>
<path d="M4489 53332
L4464 53356
L4391 53381
L4342 53381
L4269 53356
L4221 53308
L4196 53259
L4172 53161
L4172 53088
L4196 52991
L4221 52942
L4269 52893
L4342 52869
L4391 52869
L4464 52893
L4489 52918
" />
</g>
<g style="fill:#000000; fill-opacity:0.0; 
stroke:#000000; stroke-width:39.3701; stroke-opacity:1; 
stroke-linecap:round; stroke-linejoin:round;">
</g>
<g style="fill:#000000; fill-opacity:0.0; 
stroke:#000000; stroke-width:59.0551; stroke-opacity:1; 
stroke-linecap:round; stroke-linejoin:round;">
<path d="M48032 23622
L47245 23622
" />
</g>
<g style="fill:#000000; fill-opacity:0.0; 
stroke:#000000; stroke-width:39.3701; stroke-opacity:1; 
stroke-linecap:round; stroke-linejoin:round;">
</g>
<g style="fill:#000000; fill-opacity:0.0; 
stroke:#000000; stroke-width:59.0551; stroke-opacity:1; 
stroke-linecap:round; stroke-linejoin:round;">
<path d="M48032 43307
L47245 43307
" />
</g>
<g style="fill:#000000; fill-opacity:0.0; 
stroke:#000000; stroke-width:39.3701; stroke-opacity:1; 
stroke-linecap:round; stroke-linejoin:round;">
</g>
<g style="fill:#000000; fill-opacity:0.0; 
stroke:#000000; stroke-width:59.0551; stroke-opacity:1; 
stroke-linecap:round; stroke-linejoin:round;">
<text x="47639.3" y="14035.4"
textLength="497.75" font-size="682.415" lengthAdjust="spacingAndGlyphs"
text-anchor="middle" opacity="0">A</text>
<path d="M47517 13864
L47761 13864
" />
<path d="M47468 14011
L47639 13499
L47809 14011
" />
</g>
<g style="fill:#000000; fill-opacity:0.0; 
stroke:#000000; stroke-width:39.3701; stroke-opacity:1; 
stroke-linecap:round; stroke-linejoin:round;">
</g>
<g style="fill:#000000; fill-opacity:0.0; 
stroke:#000000; stroke-width:59.0551; stroke-opacity:1; 
stroke-linecap:round; stroke-linejoin:round;">
<text x="47639.3" y="33720.5"
textLength="570.866" font-size="682.415" lengthAdjust="spacingAndGlyphs"
text-anchor="middle" opacity="0">B</text>
<path d="M47675 33428
L47748 33452
L47773 33476
L47797 33525
L47797 33598
L47773 33647
L47748 33671
L47700 33696
L47505 33696
L47505 33184
L47675 33184
L47724 33208
L47748 33233
L47773 33281
L47773 33330
L47748 33379
L47724 33403
L47675 33428
L47505 33428
" />
</g>
<g style="fill:#000000; fill-opacity:0.0; 
stroke:#000000; stroke-width:39.3701; stroke-opacity:1; 
stroke-linecap:round; stroke-linejoin:round;">
</g>
<g style="fill:#000000; fill-opacity:0.0; 
stroke:#000000; stroke-width:59.0551; stroke-opacity:1; 
stroke-linecap:round; stroke-linejoin:round;">
<text x="47639.3" y="53405.5"
textLength="570.866" font-size="682.415" lengthAdjust="spacingAndGlyphs"
text-anchor="middle" opacity="0">C</text>
<path d="M47797 53332
L47773 53356
L47700 53381
L47651 53381
L47578 53356
L47529 53308
L47505 53259
L47480 53161
L47480 53088
L47505 52991
L47529 52942
L47578 52893
L47651 52869
L47700 52869
L47773 52893
L47797 52918
" />
</g>
<g style="fill:#000000; fill-opacity:0.0; 
stroke:#000000; stroke-width:39.3701; stroke-opacity:1; 
stroke-linecap:round; stroke-linejoin:round;">
</g>
<g style="fill:#000000; fill-opacity:0.0; 
stroke:#000000; stroke-width:59.0551; stroke-opacity:1; 
stroke-linecap:round; stroke-linejoin:round;">
<text x="13781" y="51911.7"
textLength="8720.47" font-size="787.402" lengthAdjust="spacingAndGlyphs"
text-anchor="start" opacity="0">Date: 2020-12-26</text>
<path d="M13951 51883
L13951 51293
L14091 51293
L14176 51321
L14232 51377
L14260 51433
L14288 51546
L14288 51630
L14260 51743
L14232 51799
L14176 51855
L14091 51883
L13951 51883
" />
<path d="M14794 51883
L14794 51574
L14766 51518
L14710 51489
L14597 51489
L14541 51518
" />
<path d="M14794 51855
L14738 51883
L14597 51883
L14541 51855
L14513 51799
L14513 51743
L14541 51686
L14597 51658
L14738 51658
L14794 51630
" />
<path d="M14991 51489
L15216 51489
" />
<path d="M15076 51293
L15076 51799
L15104 51855
L15160 51883
L15216 51883
" />
<path d="M15638 51855
L15582 51883
L15469 51883
L15413 51855
L15385 51799
L15385 51574
L15413 51518
L15469 51489
L15582 51489
L15638 51518
L15666 51574
L15666 51630
L15385 51686
" />
<path d="M15919 51827
L15947 51855
L15919 51883
L15891 51855
L15919 51827
L15919 51883
" />
<path d="M15919 51518
L15947 51546
L15919 51574
L15891 51546
L15919 51518
L15919 51574
" />
<path d="M16622 51349
L16650 51321
L16707 51293
L16847 51293
L16903 51321
L16932 51349
L16960 51405
L16960 51461
L16932 51546
L16594 51883
L16960 51883
" />
<path d="M17325 51293
L17381 51293
L17438 51321
L17466 51349
L17494 51405
L17522 51518
L17522 51658
L17494 51771
L17466 51827
L17438 51855
L17381 51883
L17325 51883
L17269 51855
L17241 51827
L17213 51771
L17185 51658
L17185 51518
L17213 51405
L17241 51349
L17269 51321
L17325 51293
" />
<path d="M17747 51349
L17775 51321
L17831 51293
L17972 51293
L18028 51321
L18056 51349
L18085 51405
L18085 51461
L18056 51546
L17719 51883
L18085 51883
" />
<path d="M18450 51293
L18506 51293
L18563 51321
L18591 51349
L18619 51405
L18647 51518
L18647 51658
L18619 51771
L18591 51827
L18563 51855
L18506 51883
L18450 51883
L18394 51855
L18366 51827
L18338 51771
L18309 51658
L18309 51518
L18338 51405
L18366 51349
L18394 51321
L18450 51293
" />
<path d="M18900 51658
L19350 51658
" />
<path d="M19941 51883
L19603 51883
" />
<path d="M19772 51883
L19772 51293
L19716 51377
L19659 51433
L19603 51461
" />
<path d="M20166 51349
L20194 51321
L20250 51293
L20390 51293
L20447 51321
L20475 51349
L20503 51405
L20503 51461
L20475 51546
L20137 51883
L20503 51883
" />
<path d="M20756 51658
L21206 51658
" />
<path d="M21459 51349
L21487 51321
L21543 51293
L21684 51293
L21740 51321
L21768 51349
L21797 51405
L21797 51461
L21768 51546
L21431 51883
L21797 51883
" />
<path d="M22303 51293
L22190 51293
L22134 51321
L22106 51349
L22050 51433
L22022 51546
L22022 51771
L22050 51827
L22078 51855
L22134 51883
L22246 51883
L22303 51855
L22331 51827
L22359 51771
L22359 51630
L22331 51574
L22303 51546
L22246 51518
L22134 51518
L22078 51546
L22050 51574
L22022 51630
" />
</g>
<g style="fill:#000000; fill-opacity:0.0; 
stroke:#000000; stroke-width:39.3701; stroke-opacity:1; 
stroke-linecap:round; stroke-linejoin:round;">
</g>
<g style="fill:#000000; fill-opacity:0.0; 
stroke:#000000; stroke-width:59.0551; stroke-opacity:1; 
stroke-linecap:round; stroke-linejoin:round;">
<path d="M4725 52167
L47245 52167
" />
</g>
<g style="fill:#000000; fill-opacity:0.0; 
stroke:#000000; stroke-width:39.3701; stroke-opacity:1; 
stroke-linecap:round; stroke-linejoin:round;">
</g>
<g style="fill:#000000; fill-opacity:0.0; 
stroke:#000000; stroke-width:59.0551; stroke-opacity:1; 
stroke-linecap:round; stroke-linejoin:round;">
<text x="5119.61" y="53014.1"
textLength="18675.5" font-size="787.402" lengthAdjust="spacingAndGlyphs"
text-anchor="start" opacity="0">KiCad E.D.A.  kicad 5.1.5+dfsg1-2build2</text>
<path d="M5289 52985
L5289 52395
" />
<path d="M5627 52985
L5374 52648
" />
<path d="M5627 52395
L5289 52732
" />
<path d="M5880 52985
L5880 52592
" />
<path d="M5880 52395
L5852 52423
L5880 52451
L5908 52423
L5880 52395
L5880 52451
" />
<path d="M6498 52929
L6470 52957
L6386 52985
L6330 52985
L6245 52957
L6189 52901
L6161 52845
L6133 52732
L6133 52648
L6161 52536
L6189 52479
L6245 52423
L6330 52395
L6386 52395
L6470 52423
L6498 52451
" />
<path d="M7005 52985
L7005 52676
L6977 52620
L6920 52592
L6808 52592
L6752 52620
" />
<path d="M7005 52957
L6948 52985
L6808 52985
L6752 52957
L6723 52901
L6723 52845
L6752 52789
L6808 52761
L6948 52761
L7005 52732
" />
<path d="M7539 52985
L7539 52395
" />
<path d="M7539 52957
L7483 52985
L7370 52985
L7314 52957
L7286 52929
L7258 52873
L7258 52704
L7286 52648
L7314 52620
L7370 52592
L7483 52592
L7539 52620
" />
<path d="M8270 52676
L8467 52676
" />
<path d="M8551 52985
L8270 52985
L8270 52395
L8551 52395
" />
<path d="M8804 52929
L8833 52957
L8804 52985
L8776 52957
L8804 52929
L8804 52985
" />
<path d="M9086 52985
L9086 52395
L9226 52395
L9311 52423
L9367 52479
L9395 52536
L9423 52648
L9423 52732
L9395 52845
L9367 52901
L9311 52957
L9226 52985
L9086 52985
" />
<path d="M9676 52929
L9704 52957
L9676 52985
L9648 52957
L9676 52929
L9676 52985
" />
<path d="M9929 52817
L10211 52817
" />
<path d="M9873 52985
L10070 52395
L10267 52985
" />
<path d="M10464 52929
L10492 52957
L10464 52985
L10435 52957
L10464 52929
L10464 52985
" />
<path d="M11645 52985
L11645 52395
" />
<path d="M11701 52761
L11870 52985
" />
<path d="M11870 52592
L11645 52817
" />
<path d="M12123 52985
L12123 52592
" />
<path d="M12123 52395
L12095 52423
L12123 52451
L12151 52423
L12123 52395
L12123 52451
" />
<path d="M12657 52957
L12601 52985
L12488 52985
L12432 52957
L12404 52929
L12376 52873
L12376 52704
L12404 52648
L12432 52620
L12488 52592
L12601 52592
L12657 52620
" />
<path d="M13163 52985
L13163 52676
L13135 52620
L13079 52592
L12966 52592
L12910 52620
" />
<path d="M13163 52957
L13107 52985
L12966 52985
L12910 52957
L12882 52901
L12882 52845
L12910 52789
L12966 52761
L13107 52761
L13163 52732
" />
<path d="M13698 52985
L13698 52395
" />
<path d="M13698 52957
L13641 52985
L13529 52985
L13473 52957
L13444 52929
L13416 52873
L13416 52704
L13444 52648
L13473 52620
L13529 52592
L13641 52592
L13698 52620
" />
<path d="M14710 52395
L14429 52395
L14401 52676
L14429 52648
L14485 52620
L14626 52620
L14682 52648
L14710 52676
L14738 52732
L14738 52873
L14710 52929
L14682 52957
L14626 52985
L14485 52985
L14429 52957
L14401 52929
" />
<path d="M14991 52929
L15019 52957
L14991 52985
L14963 52957
L14991 52929
L14991 52985
" />
<path d="M15582 52985
L15244 52985
" />
<path d="M15413 52985
L15413 52395
L15357 52479
L15300 52536
L15244 52564
" />
<path d="M15835 52929
L15863 52957
L15835 52985
L15807 52957
L15835 52929
L15835 52985
" />
<path d="M16397 52395
L16116 52395
L16088 52676
L16116 52648
L16172 52620
L16313 52620
L16369 52648
L16397 52676
L16425 52732
L16425 52873
L16397 52929
L16369 52957
L16313 52985
L16172 52985
L16116 52957
L16088 52929
" />
<path d="M16678 52761
L17128 52761
" />
<path d="M16903 52985
L16903 52536
" />
<path d="M17663 52985
L17663 52395
" />
<path d="M17663 52957
L17606 52985
L17494 52985
L17438 52957
L17410 52929
L17381 52873
L17381 52704
L17410 52648
L17438 52620
L17494 52592
L17606 52592
L17663 52620
" />
<path d="M17860 52592
L18085 52592
" />
<path d="M17944 52985
L17944 52479
L17972 52423
L18028 52395
L18085 52395
" />
<path d="M18253 52957
L18309 52985
L18422 52985
L18478 52957
L18506 52901
L18506 52873
L18478 52817
L18422 52789
L18338 52789
L18281 52761
L18253 52704
L18253 52676
L18281 52620
L18338 52592
L18422 52592
L18478 52620
" />
<path d="M19013 52592
L19013 53070
L18984 53126
L18956 53154
L18900 53182
L18816 53182
L18759 53154
" />
<path d="M19013 52957
L18956 52985
L18844 52985
L18788 52957
L18759 52929
L18731 52873
L18731 52704
L18759 52648
L18788 52620
L18844 52592
L18956 52592
L19013 52620
" />
<path d="M19603 52985
L19266 52985
" />
<path d="M19434 52985
L19434 52395
L19378 52479
L19322 52536
L19266 52564
" />
<path d="M19856 52761
L20306 52761
" />
<path d="M20559 52451
L20587 52423
L20644 52395
L20784 52395
L20840 52423
L20869 52451
L20897 52507
L20897 52564
L20869 52648
L20531 52985
L20897 52985
" />
<path d="M21150 52985
L21150 52395
" />
<path d="M21150 52620
L21206 52592
L21318 52592
L21375 52620
L21403 52648
L21431 52704
L21431 52873
L21403 52929
L21375 52957
L21318 52985
L21206 52985
L21150 52957
" />
<path d="M21937 52592
L21937 52985
" />
<path d="M21684 52592
L21684 52901
L21712 52957
L21768 52985
L21853 52985
L21909 52957
L21937 52929
" />
<path d="M22218 52985
L22218 52592
" />
<path d="M22218 52395
L22190 52423
L22218 52451
L22246 52423
L22218 52395
L22218 52451
" />
<path d="M22584 52985
L22528 52957
L22500 52901
L22500 52395
" />
<path d="M23062 52985
L23062 52395
" />
<path d="M23062 52957
L23006 52985
L22893 52985
L22837 52957
L22809 52929
L22781 52873
L22781 52704
L22809 52648
L22837 52620
L22893 52592
L23006 52592
L23062 52620
" />
<path d="M23315 52451
L23343 52423
L23399 52395
L23540 52395
L23596 52423
L23624 52451
L23653 52507
L23653 52564
L23624 52648
L23287 52985
L23653 52985
" />
</g>
<g style="fill:#000000; fill-opacity:0.0; 
stroke:#000000; stroke-width:39.3701; stroke-opacity:1; 
stroke-linecap:round; stroke-linejoin:round;">
</g>
<g style="fill:#000000; fill-opacity:0.0; 
stroke:#000000; stroke-width:59.0551; stroke-opacity:1; 
stroke-linecap:round; stroke-linejoin:round;">
<path d="M4725 50986
L47245 50986
" />
</g>
<g style="fill:#000000; fill-opacity:0.0; 
stroke:#000000; stroke-width:39.3701; stroke-opacity:1; 
stroke-linecap:round; stroke-linejoin:round;">
</g>
<g style="fill:#000000; fill-opacity:0.0; 
stroke:#000000; stroke-width:118.11; stroke-opacity:1; 
stroke-linecap:round; stroke-linejoin:round;">
<text x="38584.2" y="51911.7"
textLength="3742.97" font-size="787.402" lengthAdjust="spacingAndGlyphs"
text-anchor="start" opacity="0">Rev: 1.0</text>
<path d="M39139 51883
L38942 51602
" />
<path d="M38801 51883
L38801 51293
L39026 51293
L39082 51321
L39110 51349
L39139 51405
L39139 51489
L39110 51546
L39082 51574
L39026 51602
L38801 51602
" />
<path d="M39617 51855
L39560 51883
L39448 51883
L39392 51855
L39363 51799
L39363 51574
L39392 51518
L39448 51489
L39560 51489
L39617 51518
L39645 51574
L39645 51630
L39363 51686
" />
<path d="M39842 51489
L39982 51883
L40123 51489
" />
<path d="M40348 51827
L40376 51855
L40348 51883
L40320 51855
L40348 51827
L40348 51883
" />
<path d="M40348 51518
L40376 51546
L40348 51574
L40320 51546
L40348 51518
L40348 51574
" />
<path d="M41388 51883
L41051 51883
" />
<path d="M41220 51883
L41220 51293
L41163 51377
L41107 51433
L41051 51461
" />
<path d="M41641 51827
L41669 51855
L41641 51883
L41613 51855
L41641 51827
L41641 51883
" />
<path d="M42035 51293
L42091 51293
L42148 51321
L42176 51349
L42204 51405
L42232 51518
L42232 51658
L42204 51771
L42176 51827
L42148 51855
L42091 51883
L42035 51883
L41979 51855
L41951 51827
L41923 51771
L41894 51658
L41894 51518
L41923 51405
L41951 51349
L41979 51321
L42035 51293
" />
</g>
<g style="fill:#000000; fill-opacity:0.0; 
stroke:#000000; stroke-width:39.3701; stroke-opacity:1; 
stroke-linecap:round; stroke-linejoin:round;">
</g>
<g style="fill:#000000; fill-opacity:0.0; 
stroke:#000000; stroke-width:59.0551; stroke-opacity:1; 
stroke-linecap:round; stroke-linejoin:round;">
<text x="5119.61" y="51911.7"
textLength="4681.1" font-size="787.402" lengthAdjust="spacingAndGlyphs"
text-anchor="start" opacity="0">Size: User</text>
<path d="M5261 51855
L5345 51883
L5486 51883
L5542 51855
L5570 51827
L5599 51771
L5599 51714
L5570 51658
L5542 51630
L5486 51602
L5374 51574
L5317 51546
L5289 51518
L5261 51461
L5261 51405
L5289 51349
L5317 51321
L5374 51293
L5514 51293
L5599 51321
" />
<path d="M5852 51883
L5852 51489
" />
<path d="M5852 51293
L5824 51321
L5852 51349
L5880 51321
L5852 51293
L5852 51349
" />
<path d="M6077 51489
L6386 51489
L6077 51883
L6386 51883
" />
<path d="M6836 51855
L6780 51883
L6667 51883
L6611 51855
L6583 51799
L6583 51574
L6611 51518
L6667 51489
L6780 51489
L6836 51518
L6864 51574
L6864 51630
L6583 51686
" />
<path d="M7117 51827
L7145 51855
L7117 51883
L7089 51855
L7117 51827
L7117 51883
" />
<path d="M7117 51518
L7145 51546
L7117 51574
L7089 51546
L7117 51518
L7117 51574
" />
<path d="M7848 51293
L7848 51771
L7876 51827
L7905 51855
L7961 51883
L8073 51883
L8130 51855
L8158 51827
L8186 51771
L8186 51293
" />
<path d="M8439 51855
L8495 51883
L8608 51883
L8664 51855
L8692 51799
L8692 51771
L8664 51714
L8608 51686
L8523 51686
L8467 51658
L8439 51602
L8439 51574
L8467 51518
L8523 51489
L8608 51489
L8664 51518
" />
<path d="M9170 51855
L9114 51883
L9001 51883
L8945 51855
L8917 51799
L8917 51574
L8945 51518
L9001 51489
L9114 51489
L9170 51518
L9198 51574
L9198 51630
L8917 51686
" />
<path d="M9451 51883
L9451 51489
" />
<path d="M9451 51602
L9479 51546
L9507 51518
L9564 51489
L9620 51489
" />
</g>
<g style="fill:#000000; fill-opacity:0.0; 
stroke:#000000; stroke-width:39.3701; stroke-opacity:1; 
stroke-linecap:round; stroke-linejoin:round;">
</g>
<g style="fill:#000000; fill-opacity:0.0; 
stroke:#000000; stroke-width:59.0551; stroke-opacity:1; 
stroke-linecap:round; stroke-linejoin:round;">
<text x="38584.2" y="53014.1"
textLength="3349.27" font-size="787.402" lengthAdjust="spacingAndGlyphs"
text-anchor="start" opacity="0">Id: 1/1</text>
<path d="M38754 52985
L38754 52395
" />
<path d="M39288 52985
L39288 52395
" />
<path d="M39288 52957
L39232 52985
L39119 52985
L39063 52957
L39035 52929
L39007 52873
L39007 52704
L39035 52648
L39063 52620
L39119 52592
L39232 52592
L39288 52620
" />
<path d="M39569 52929
L39597 52957
L39569 52985
L39541 52957
L39569 52929
L39569 52985
" />
<path d="M39569 52620
L39597 52648
L39569 52676
L39541 52648
L39569 52620
L39569 52676
" />
<path d="M40610 52985
L40272 52985
" />
<path d="M40441 52985
L40441 52395
L40385 52479
L40329 52536
L40272 52564
" />
<path d="M41285 52367
L40779 53126
" />
<path d="M41791 52985
L41453 52985
" />
<path d="M41622 52985
L41622 52395
L41566 52479
L41510 52536
L41453 52564
" />
</g>
<g style="fill:#000000; fill-opacity:0.0; 
stroke:#000000; stroke-width:39.3701; stroke-opacity:1; 
stroke-linecap:round; stroke-linejoin:round;">
</g>
<g style="fill:#000000; fill-opacity:0.0; 
stroke:#000000; stroke-width:59.0551; stroke-opacity:1; 
stroke-linecap:round; stroke-linejoin:round;">
<path d="M4725 49411
L47245 49411
" />
</g>
<g style="fill:#000000; fill-opacity:0.0; 
stroke:#000000; stroke-width:39.3701; stroke-opacity:1; 
stroke-linecap:round; stroke-linejoin:round;">
</g>
<g style="fill:#000000; fill-opacity:0.0; 
stroke:#000000; stroke-width:157.48; stroke-opacity:1; 
stroke-linecap:round; stroke-linejoin:round;">
<text x="5119.61" y="50514.1"
textLength="25523.4" font-size="1049.87" lengthAdjust="spacingAndGlyphs"
text-anchor="start" opacity="0">Title: Engraver spindle motor driver board</text>
<path d="M5400 49689
L5850 49689
" />
<path d="M5526 50476
L5625 49689
" />
<path d="M6014 50476
L6079 49951
" />
<path d="M6112 49689
L6070 49726
L6103 49764
L6145 49726
L6112 49689
L6103 49764
" />
<path d="M6342 49951
L6642 49951
" />
<path d="M6487 49689
L6403 50364
L6431 50439
L6501 50476
L6576 50476
" />
<path d="M6951 50476
L6881 50439
L6853 50364
L6937 49689
" />
<path d="M7556 50439
L7476 50476
L7326 50476
L7256 50439
L7227 50364
L7265 50064
L7312 49989
L7392 49951
L7541 49951
L7612 49989
L7640 50064
L7631 50139
L7246 50214
" />
<path d="M7935 50401
L7968 50439
L7926 50476
L7893 50439
L7935 50401
L7926 50476
" />
<path d="M7987 49989
L8020 50026
L7977 50064
L7945 50026
L7987 49989
L7977 50064
" />
<path d="M8952 50064
L9215 50064
" />
<path d="M9276 50476
L8901 50476
L8999 49689
L9374 49689
" />
<path d="M9679 49951
L9613 50476
" />
<path d="M9669 50026
L9712 49989
L9791 49951
L9904 49951
L9974 49989
L10002 50064
L9951 50476
" />
<path d="M10729 49951
L10649 50589
L10602 50664
L10560 50701
L10480 50739
L10368 50739
L10297 50701
" />
<path d="M10668 50439
L10588 50476
L10438 50476
L10368 50439
L10335 50401
L10307 50326
L10335 50101
L10382 50026
L10424 49989
L10504 49951
L10654 49951
L10724 49989
" />
<path d="M11038 50476
L11104 49951
" />
<path d="M11085 50101
L11132 50026
L11174 49989
L11254 49951
L11329 49951
" />
<path d="M11863 50476
L11914 50064
L11886 49989
L11816 49951
L11666 49951
L11586 49989
" />
<path d="M11868 50439
L11788 50476
L11600 50476
L11530 50439
L11502 50364
L11511 50289
L11558 50214
L11638 50176
L11825 50176
L11905 50139
" />
<path d="M12228 49951
L12350 50476
L12603 49951
" />
<path d="M13142 50439
L13063 50476
L12913 50476
L12842 50439
L12814 50364
L12852 50064
L12899 49989
L12978 49951
L13128 49951
L13199 49989
L13227 50064
L13217 50139
L12833 50214
" />
<path d="M13513 50476
L13578 49951
" />
<path d="M13559 50101
L13606 50026
L13649 49989
L13728 49951
L13803 49951
" />
<path d="M14567 50439
L14637 50476
L14787 50476
L14867 50439
L14914 50364
L14919 50326
L14891 50251
L14820 50214
L14708 50214
L14637 50176
L14609 50101
L14614 50064
L14661 49989
L14741 49951
L14853 49951
L14923 49989
" />
<path d="M15303 49951
L15205 50739
" />
<path d="M15298 49989
L15378 49951
L15528 49951
L15598 49989
L15631 50026
L15659 50101
L15631 50326
L15584 50401
L15542 50439
L15462 50476
L15312 50476
L15242 50439
" />
<path d="M15950 50476
L16015 49951
" />
<path d="M16048 49689
L16006 49726
L16039 49764
L16081 49726
L16048 49689
L16039 49764
" />
<path d="M16390 49951
L16325 50476
" />
<path d="M16381 50026
L16423 49989
L16503 49951
L16615 49951
L16686 49989
L16714 50064
L16662 50476
" />
<path d="M17375 50476
L17473 49689
" />
<path d="M17379 50439
L17300 50476
L17150 50476
L17079 50439
L17047 50401
L17018 50326
L17047 50101
L17093 50026
L17136 49989
L17215 49951
L17365 49951
L17436 49989
" />
<path d="M17862 50476
L17792 50439
L17764 50364
L17848 49689
" />
<path d="M18467 50439
L18387 50476
L18237 50476
L18167 50439
L18139 50364
L18176 50064
L18223 49989
L18303 49951
L18453 49951
L18523 49989
L18551 50064
L18542 50139
L18157 50214
" />
<path d="M19437 50476
L19502 49951
" />
<path d="M19493 50026
L19535 49989
L19615 49951
L19727 49951
L19798 49989
L19826 50064
L19774 50476
" />
<path d="M19826 50064
L19873 49989
L19952 49951
L20065 49951
L20135 49989
L20163 50064
L20112 50476
" />
<path d="M20599 50476
L20529 50439
L20496 50401
L20468 50326
L20496 50101
L20543 50026
L20585 49989
L20665 49951
L20777 49951
L20848 49989
L20880 50026
L20909 50101
L20880 50326
L20834 50401
L20791 50439
L20712 50476
L20599 50476
" />
<path d="M21152 49951
L21452 49951
" />
<path d="M21298 49689
L21213 50364
L21241 50439
L21312 50476
L21387 50476
" />
<path d="M21762 50476
L21691 50439
L21658 50401
L21630 50326
L21658 50101
L21705 50026
L21748 49989
L21827 49951
L21940 49951
L22010 49989
L22043 50026
L22071 50101
L22043 50326
L21996 50401
L21954 50439
L21874 50476
L21762 50476
" />
<path d="M22362 50476
L22427 49951
" />
<path d="M22408 50101
L22455 50026
L22497 49989
L22577 49951
L22652 49951
" />
<path d="M23786 50476
L23885 49689
" />
<path d="M23791 50439
L23711 50476
L23561 50476
L23491 50439
L23458 50401
L23430 50326
L23458 50101
L23505 50026
L23547 49989
L23627 49951
L23777 49951
L23847 49989
" />
<path d="M24161 50476
L24227 49951
" />
<path d="M24208 50101
L24255 50026
L24297 49989
L24377 49951
L24452 49951
" />
<path d="M24649 50476
L24714 49951
" />
<path d="M24747 49689
L24705 49726
L24738 49764
L24780 49726
L24747 49689
L24738 49764
" />
<path d="M25014 49951
L25136 50476
L25389 49951
" />
<path d="M25928 50439
L25849 50476
L25699 50476
L25628 50439
L25600 50364
L25638 50064
L25685 49989
L25764 49951
L25914 49951
L25984 49989
L26013 50064
L26003 50139
L25619 50214
" />
<path d="M26299 50476
L26364 49951
" />
<path d="M26345 50101
L26392 50026
L26434 49989
L26514 49951
L26589 49951
" />
<path d="M27386 50476
L27484 49689
" />
<path d="M27447 49989
L27526 49951
L27676 49951
L27747 49989
L27780 50026
L27808 50101
L27780 50326
L27733 50401
L27691 50439
L27611 50476
L27461 50476
L27391 50439
" />
<path d="M28211 50476
L28140 50439
L28108 50401
L28080 50326
L28108 50101
L28155 50026
L28197 49989
L28276 49951
L28389 49951
L28459 49989
L28492 50026
L28520 50101
L28492 50326
L28445 50401
L28403 50439
L28323 50476
L28211 50476
" />
<path d="M29148 50476
L29200 50064
L29172 49989
L29101 49951
L28951 49951
L28872 49989
" />
<path d="M29153 50439
L29073 50476
L28886 50476
L28815 50439
L28787 50364
L28797 50289
L28844 50214
L28923 50176
L29111 50176
L29190 50139
" />
<path d="M29523 50476
L29589 49951
" />
<path d="M29570 50101
L29617 50026
L29659 49989
L29739 49951
L29814 49951
" />
<path d="M30348 50476
L30446 49689
" />
<path d="M30353 50439
L30273 50476
L30123 50476
L30053 50439
L30020 50401
L29992 50326
L30020 50101
L30067 50026
L30109 49989
L30189 49951
L30339 49951
L30409 49989
" />
</g>
<g style="fill:#000000; fill-opacity:0.0; 
stroke:#000000; stroke-width:39.3701; stroke-opacity:1; 
stroke-linecap:round; stroke-linejoin:round;">
</g>
<g style="fill:#000000; fill-opacity:0.0; 
stroke:#000000; stroke-width:59.0551; stroke-opacity:1; 
stroke-linecap:round; stroke-linejoin:round;">
<text x="5119.61" y="48998.3"
textLength="12943.8" font-size="787.402" lengthAdjust="spacingAndGlyphs"
text-anchor="start" opacity="0">File: spindle_drive.kicad_pcb</text>
<path d="M5486 48660
L5289 48660
" />
<path d="M5289 48970
L5289 48379
L5570 48379
" />
<path d="M5795 48970
L5795 48576
" />
<path d="M5795 48379
L5767 48407
L5795 48435
L5824 48407
L5795 48379
L5795 48435
" />
<path d="M6161 48970
L6105 48942
L6077 48885
L6077 48379
" />
<path d="M6611 48942
L6555 48970
L6442 48970
L6386 48942
L6358 48885
L6358 48660
L6386 48604
L6442 48576
L6555 48576
L6611 48604
L6639 48660
L6639 48717
L6358 48773
" />
<path d="M6892 48913
L6920 48942
L6892 48970
L6864 48942
L6892 48913
L6892 48970
" />
<path d="M6892 48604
L6920 48632
L6892 48660
L6864 48632
L6892 48604
L6892 48660
" />
<path d="M7595 48942
L7651 48970
L7764 48970
L7820 48942
L7848 48885
L7848 48857
L7820 48801
L7764 48773
L7680 48773
L7623 48745
L7595 48689
L7595 48660
L7623 48604
L7680 48576
L7764 48576
L7820 48604
" />
<path d="M8101 48576
L8101 49167
" />
<path d="M8101 48604
L8158 48576
L8270 48576
L8326 48604
L8354 48632
L8383 48689
L8383 48857
L8354 48913
L8326 48942
L8270 48970
L8158 48970
L8101 48942
" />
<path d="M8636 48970
L8636 48576
" />
<path d="M8636 48379
L8608 48407
L8636 48435
L8664 48407
L8636 48379
L8636 48435
" />
<path d="M8917 48576
L8917 48970
" />
<path d="M8917 48632
L8945 48604
L9001 48576
L9086 48576
L9142 48604
L9170 48660
L9170 48970
" />
<path d="M9704 48970
L9704 48379
" />
<path d="M9704 48942
L9648 48970
L9536 48970
L9479 48942
L9451 48913
L9423 48857
L9423 48689
L9451 48632
L9479 48604
L9536 48576
L9648 48576
L9704 48604
" />
<path d="M10070 48970
L10014 48942
L9986 48885
L9986 48379
" />
<path d="M10520 48942
L10464 48970
L10351 48970
L10295 48942
L10267 48885
L10267 48660
L10295 48604
L10351 48576
L10464 48576
L10520 48604
L10548 48660
L10548 48717
L10267 48773
" />
<path d="M10660 49026
L11110 49026
" />
<path d="M11504 48970
L11504 48379
" />
<path d="M11504 48942
L11448 48970
L11335 48970
L11279 48942
L11251 48913
L11223 48857
L11223 48689
L11251 48632
L11279 48604
L11335 48576
L11448 48576
L11504 48604
" />
<path d="M11785 48970
L11785 48576
" />
<path d="M11785 48689
L11813 48632
L11842 48604
L11898 48576
L11954 48576
" />
<path d="M12151 48970
L12151 48576
" />
<path d="M12151 48379
L12123 48407
L12151 48435
L12179 48407
L12151 48379
L12151 48435
" />
<path d="M12376 48576
L12516 48970
L12657 48576
" />
<path d="M13107 48942
L13051 48970
L12938 48970
L12882 48942
L12854 48885
L12854 48660
L12882 48604
L12938 48576
L13051 48576
L13107 48604
L13135 48660
L13135 48717
L12854 48773
" />
<path d="M13388 48913
L13416 48942
L13388 48970
L13360 48942
L13388 48913
L13388 48970
" />
<path d="M13669 48970
L13669 48379
" />
<path d="M13726 48745
L13894 48970
" />
<path d="M13894 48576
L13669 48801
" />
<path d="M14148 48970
L14148 48576
" />
<path d="M14148 48379
L14119 48407
L14148 48435
L14176 48407
L14148 48379
L14148 48435
" />
<path d="M14682 48942
L14626 48970
L14513 48970
L14457 48942
L14429 48913
L14401 48857
L14401 48689
L14429 48632
L14457 48604
L14513 48576
L14626 48576
L14682 48604
" />
<path d="M15188 48970
L15188 48660
L15160 48604
L15104 48576
L14991 48576
L14935 48604
" />
<path d="M15188 48942
L15132 48970
L14991 48970
L14935 48942
L14907 48885
L14907 48829
L14935 48773
L14991 48745
L15132 48745
L15188 48717
" />
<path d="M15722 48970
L15722 48379
" />
<path d="M15722 48942
L15666 48970
L15554 48970
L15497 48942
L15469 48913
L15441 48857
L15441 48689
L15469 48632
L15497 48604
L15554 48576
L15666 48576
L15722 48604
" />
<path d="M15863 49026
L16313 49026
" />
<path d="M16453 48576
L16453 49167
" />
<path d="M16453 48604
L16510 48576
L16622 48576
L16678 48604
L16707 48632
L16735 48689
L16735 48857
L16707 48913
L16678 48942
L16622 48970
L16510 48970
L16453 48942
" />
<path d="M17241 48942
L17185 48970
L17072 48970
L17016 48942
L16988 48913
L16960 48857
L16960 48689
L16988 48632
L17016 48604
L17072 48576
L17185 48576
L17241 48604
" />
<path d="M17494 48970
L17494 48379
" />
<path d="M17494 48604
L17550 48576
L17663 48576
L17719 48604
L17747 48632
L17775 48689
L17775 48857
L17747 48913
L17719 48942
L17663 48970
L17550 48970
L17494 48942
" />
</g>
<g style="fill:#000000; fill-opacity:0.0; 
stroke:#000000; stroke-width:39.3701; stroke-opacity:1; 
stroke-linecap:round; stroke-linejoin:round;">
</g>
<g style="fill:#000000; fill-opacity:0.0; 
stroke:#000000; stroke-width:59.0551; stroke-opacity:1; 
stroke-linecap:round; stroke-linejoin:round;">
<path d="M4725 47049
L47245 47049
" />
</g>
<g style="fill:#000000; fill-opacity:0.0; 
stroke:#000000; stroke-width:39.3701; stroke-opacity:1; 
stroke-linecap:round; stroke-linejoin:round;">
</g>
<g style="fill:#000000; fill-opacity:0.0; 
stroke:#000000; stroke-width:59.0551; stroke-opacity:1; 
stroke-linecap:round; stroke-linejoin:round;">
<text x="5119.61" y="47935.4"
textLength="3236.78" font-size="787.402" lengthAdjust="spacingAndGlyphs"
text-anchor="start" opacity="0">Sheet: </text>
<path d="M5261 47879
L5345 47907
L5486 47907
L5542 47879
L5570 47850
L5599 47794
L5599 47738
L5570 47682
L5542 47654
L5486 47626
L5374 47597
L5317 47569
L5289 47541
L5261 47485
L5261 47429
L5289 47372
L5317 47344
L5374 47316
L5514 47316
L5599 47344
" />
<path d="M5852 47907
L5852 47316
" />
<path d="M6105 47907
L6105 47597
L6077 47541
L6020 47513
L5936 47513
L5880 47541
L5852 47569
" />
<path d="M6611 47879
L6555 47907
L6442 47907
L6386 47879
L6358 47822
L6358 47597
L6386 47541
L6442 47513
L6555 47513
L6611 47541
L6639 47597
L6639 47654
L6358 47710
" />
<path d="M7117 47879
L7061 47907
L6948 47907
L6892 47879
L6864 47822
L6864 47597
L6892 47541
L6948 47513
L7061 47513
L7117 47541
L7145 47597
L7145 47654
L6864 47710
" />
<path d="M7314 47513
L7539 47513
" />
<path d="M7398 47316
L7398 47822
L7426 47879
L7483 47907
L7539 47907
" />
<path d="M7736 47850
L7764 47879
L7736 47907
L7708 47879
L7736 47850
L7736 47907
" />
<path d="M7736 47541
L7764 47569
L7736 47597
L7708 47569
L7736 47541
L7736 47597
" />
</g>
<g style="fill:#000000; fill-opacity:0.0; 
stroke:#000000; stroke-width:39.3701; stroke-opacity:1; 
stroke-linecap:round; stroke-linejoin:round;">
</g>
<g style="fill:#000000; fill-opacity:0.0; 
stroke:#000000; stroke-width:59.0551; stroke-opacity:1; 
stroke-linecap:round; stroke-linejoin:round;">
<path d="M12599 50986
L12599 52167
" />
</g>
<g style="fill:#000000; fill-opacity:0.0; 
stroke:#000000; stroke-width:39.3701; stroke-opacity:1; 
stroke-linecap:round; stroke-linejoin:round;">
</g>
<g style="fill:#000000; fill-opacity:0.0; 
stroke:#000000; stroke-width:59.0551; stroke-opacity:1; 
stroke-linecap:round; stroke-linejoin:round;">
<path d="M37796 50986
L37796 53545
" />
<g >
</g>
<g style="fill:#848400; fill-opacity:0.0; 
stroke:#848400; stroke-width:59.0551; stroke-opacity:1; 
stroke-linecap:round; stroke-linejoin:round;">
</g>
<g style="fill:#848400; fill-opacity:1.0; 
stroke:#848400; stroke-width:0; stroke-opacity:1; 
stroke-linecap:round; stroke-linejoin:round;">
<circle cx="28803.1" cy="19881.9" r="314.961" /> 
</g>
<g style="fill:#848400; fill-opacity:1.0; 
stroke:#848400; stroke-width:39.3701; stroke-opacity:1; 
stroke-linecap:round; stroke-linejoin:round;">
</g>
<g style="fill:#848400; fill-opacity:1.0; 
stroke:#848400; stroke-width:0; stroke-opacity:1; 
stroke-linecap:round; stroke-linejoin:round;">
<path style="fill:#848400; fill-opacity:1.0; 
stroke:#848400; stroke-width:0; stroke-opacity:1; 
stroke-linecap:round; stroke-linejoin:round;fill-rule:evenodd;"
d="M 26519.7,20196.9
26519.7,19566.9
27149.6,19566.9
27149.6,20196.9
Z" /> 
</g>
<g >
</g>
<g style="fill:#848400; fill-opacity:1.0; 
stroke:#848400; stroke-width:0; stroke-opacity:1; 
stroke-linecap:round; stroke-linejoin:round;">
<path style="fill:#848400; fill-opacity:1.0; 
stroke:#848400; stroke-width:0; stroke-opacity:1; 
stroke-linecap:round; stroke-linejoin:round;fill-rule:evenodd;"
d="M 21826.8,18122
21157.5,18122
21157.5,17452.8
21826.8,17452.8
Z" /> 
</g>
<g >
</g>
<g style="fill:#848400; fill-opacity:1.0; 
stroke:#848400; stroke-width:0; stroke-opacity:1; 
stroke-linecap:round; stroke-linejoin:round;">
</g>
<g style="fill:#848400; fill-opacity:1.0; 
stroke:#848400; stroke-width:1259.84; stroke-opacity:1; 
stroke-linecap:round; stroke-linejoin:round;">
</g>
<g style="fill:#848400; fill-opacity:0.0; 
stroke:#848400; stroke-width:1259.84; stroke-opacity:1; 
stroke-linecap:round; stroke-linejoin:round;">
<path d="M31157 23078
L31157 23078
" />
</g>
<g style="fill:#848400; fill-opacity:0.0; 
stroke:#848400; stroke-width:0; stroke-opacity:1; 
stroke-linecap:round; stroke-linejoin:round;">
</g>
<g style="fill:#848400; fill-opacity:1.0; 
stroke:#848400; stroke-width:0; stroke-opacity:1; 
stroke-linecap:round; stroke-linejoin:round;">
<path style="fill:#848400; fill-opacity:1.0; 
stroke:#848400; stroke-width:0; stroke-opacity:1; 
stroke-linecap:round; stroke-linejoin:round;fill-rule:evenodd;"
d="M 30527.6,17448.8
31787.4,17448.8
31787.4,18708.7
30527.6,18708.7
Z" /> 
</g>
<g >
</g>
<g style="fill:#848400; fill-opacity:1.0; 
stroke:#848400; stroke-width:0; stroke-opacity:1; 
stroke-linecap:round; stroke-linejoin:round;">
<circle cx="30858.3" cy="26476.4" r="1181.1" /> 
</g>
<g style="fill:#848400; fill-opacity:1.0; 
stroke:#848400; stroke-width:39.3701; stroke-opacity:1; 
stroke-linecap:round; stroke-linejoin:round;">
</g>
<g style="fill:#848400; fill-opacity:1.0; 
stroke:#848400; stroke-width:0; stroke-opacity:1; 
stroke-linecap:round; stroke-linejoin:round;">
<circle cx="20858.3" cy="26476.4" r="1181.1" /> 
</g>
<g style="fill:#848400; fill-opacity:1.0; 
stroke:#848400; stroke-width:39.3701; stroke-opacity:1; 
stroke-linecap:round; stroke-linejoin:round;">
</g>
<g >
</g>
<g style="fill:#840000; fill-opacity:1.0; 
stroke:#840000; stroke-width:39.3701; stroke-opacity:1; 
stroke-linecap:round; stroke-linejoin:round;">
</g>
<g style="fill:#840000; fill-opacity:1.0; 
stroke:#840000; stroke-width:0; stroke-opacity:1; 
stroke-linecap:round; stroke-linejoin:round;">
<path style="fill:#840000; fill-opacity:1.0; 
stroke:#840000; stroke-width:0; stroke-opacity:1; 
stroke-linecap:round; stroke-linejoin:round;fill-rule:evenodd;"
d="M 26939.1,21679.5
26947.4,21680.8
26955.6,21682.8
26963.6,21685.7
26971.2,21689.3
26978.5,21693.6
26985.2,21698.7
26991.5,21704.4
26997.2,21710.6
27002.2,21717.4
27006.6,21724.7
27010.2,21732.3
27013,21740.3
27015.1,21748.5
27016.3,21756.8
27016.7,21765.3
27016.7,21967
27016.3,21975.5
27015.1,21983.8
27013,21992
27010.2,22000
27006.6,22007.6
27002.2,22014.9
26997.2,22021.7
26991.5,22027.9
26985.2,22033.6
26978.5,22038.6
26971.2,22043
26963.6,22046.6
26955.6,22049.4
26947.4,22051.5
26939.1,22052.7
26930.6,22053.1
26758.4,22053.1
26749.9,22052.7
26741.6,22051.5
26733.4,22049.4
26725.4,22046.6
26717.8,22043
26710.5,22038.6
26703.7,22033.6
26697.5,22027.9
26691.8,22021.7
26686.8,22014.9
26682.4,22007.6
26678.8,22000
26676,21992
26673.9,21983.8
26672.7,21975.5
26672.2,21967
26672.2,21765.3
26672.7,21756.8
26673.9,21748.5
26676,21740.3
26678.8,21732.3
26682.4,21724.7
26686.8,21717.4
26691.8,21710.6
26697.5,21704.4
26703.7,21698.7
26710.5,21693.6
26717.8,21689.3
26725.4,21685.7
26733.4,21682.8
26741.6,21680.8
26749.9,21679.5
26758.4,21679.1
26930.6,21679.1
Z" /> 
<path style="fill:#840000; fill-opacity:1.0; 
stroke:#840000; stroke-width:0; stroke-opacity:1; 
stroke-linecap:round; stroke-linejoin:round;fill-rule:evenodd;"
d="M 27559.1,21679.5
27567.5,21680.8
27575.7,21682.8
27583.6,21685.7
27591.3,21689.3
27598.5,21693.6
27605.3,21698.7
27611.6,21704.4
27617.3,21710.6
27622.3,21717.4
27626.6,21724.7
27630.3,21732.3
27633.1,21740.3
27635.2,21748.5
27636.4,21756.8
27636.8,21765.3
27636.8,21967
27636.4,21975.5
27635.2,21983.8
27633.1,21992
27630.3,22000
27626.6,22007.6
27622.3,22014.9
27617.3,22021.7
27611.6,22027.9
27605.3,22033.6
27598.5,22038.6
27591.3,22043
27583.6,22046.6
27575.7,22049.4
27567.5,22051.5
27559.1,22052.7
27550.7,22053.1
27378.4,22053.1
27370,22052.7
27361.6,22051.5
27353.4,22049.4
27345.5,22046.6
27337.8,22043
27330.6,22038.6
27323.8,22033.6
27317.5,22027.9
27311.9,22021.7
27306.8,22014.9
27302.5,22007.6
27298.9,22000
27296,21992
27294,21983.8
27292.7,21975.5
27292.3,21967
27292.3,21765.3
27292.7,21756.8
27294,21748.5
27296,21740.3
27298.9,21732.3
27302.5,21724.7
27306.8,21717.4
27311.9,21710.6
27317.5,21704.4
27323.8,21698.7
27330.6,21693.6
27337.8,21689.3
27345.5,21685.7
27353.4,21682.8
27361.6,21680.8
27370,21679.5
27378.4,21679.1
27550.7,21679.1
Z" /> 
</g>
<g >
</g>
<g style="fill:#848400; fill-opacity:1.0; 
stroke:#848400; stroke-width:0; stroke-opacity:1; 
stroke-linecap:round; stroke-linejoin:round;">
</g>
<g style="fill:#848400; fill-opacity:1.0; 
stroke:#848400; stroke-width:750; stroke-opacity:1; 
stroke-linecap:round; stroke-linejoin:round;">
</g>
<g style="fill:#848400; fill-opacity:0.0; 
stroke:#848400; stroke-width:750; stroke-opacity:1; 
stroke-linecap:round; stroke-linejoin:round;">
<path d="M26885 28032
L26885 28069
" />
<path d="M25885 28032
L25885 28069
" />
</g>
<g style="fill:#848400; fill-opacity:0.0; 
stroke:#848400; stroke-width:0; stroke-opacity:1; 
stroke-linecap:round; stroke-linejoin:round;">
</g>
<g style="fill:#848400; fill-opacity:1.0; 
stroke:#848400; stroke-width:0; stroke-opacity:1; 
stroke-linecap:round; stroke-linejoin:round;">
<path style="fill:#848400; fill-opacity:1.0; 
stroke:#848400; stroke-width:0; stroke-opacity:1; 
stroke-linecap:round; stroke-linejoin:round;fill-rule:evenodd;"
d="M 24510.8,28444.9
24510.8,27657.5
25260.8,27657.5
25260.8,28444.9
Z" /> 
</g>
<g >
</g>
<g style="fill:#840000; fill-opacity:1.0; 
stroke:#840000; stroke-width:0; stroke-opacity:1; 
stroke-linecap:round; stroke-linejoin:round;">
<path style="fill:#840000; fill-opacity:1.0; 
stroke:#840000; stroke-width:0; stroke-opacity:1; 
stroke-linecap:round; stroke-linejoin:round;fill-rule:evenodd;"
d="M 21696.9,19267.7
22011.8,19267.7
22011.8,19622
21696.9,19622
Z" /> 
<path style="fill:#840000; fill-opacity:1.0; 
stroke:#840000; stroke-width:0; stroke-opacity:1; 
stroke-linecap:round; stroke-linejoin:round;fill-rule:evenodd;"
d="M 21322.8,18480.3
21637.8,18480.3
21637.8,18834.6
21322.8,18834.6
Z" /> 
<path style="fill:#840000; fill-opacity:1.0; 
stroke:#840000; stroke-width:0; stroke-opacity:1; 
stroke-linecap:round; stroke-linejoin:round;fill-rule:evenodd;"
d="M 22070.9,18480.3
22385.8,18480.3
22385.8,18834.6
22070.9,18834.6
Z" /> 
</g>
<g >
</g>
<g style="fill:#848400; fill-opacity:1.0; 
stroke:#848400; stroke-width:0; stroke-opacity:1; 
stroke-linecap:round; stroke-linejoin:round;">
<circle cx="20137.8" cy="22307.1" r="314.961" /> 
</g>
<g style="fill:#848400; fill-opacity:1.0; 
stroke:#848400; stroke-width:39.3701; stroke-opacity:1; 
stroke-linecap:round; stroke-linejoin:round;">
</g>
<g style="fill:#848400; fill-opacity:1.0; 
stroke:#848400; stroke-width:629.921; stroke-opacity:1; 
stroke-linecap:round; stroke-linejoin:round;">
</g>
<g style="fill:#848400; fill-opacity:0.0; 
stroke:#848400; stroke-width:629.921; stroke-opacity:1; 
stroke-linecap:round; stroke-linejoin:round;">
<path d="M24137 22307
L24137 22307
" />
</g>
<g >
</g>
<g style="fill:#848400; fill-opacity:0.0; 
stroke:#848400; stroke-width:629.921; stroke-opacity:1; 
stroke-linecap:round; stroke-linejoin:round;">
<path d="M24137 21000
L24137 21000
" />
</g>
<g style="fill:#848400; fill-opacity:1.0; 
stroke:#848400; stroke-width:0; stroke-opacity:1; 
stroke-linecap:round; stroke-linejoin:round;">
<circle cx="20137.8" cy="21000" r="314.961" /> 
</g>
<g style="fill:#848400; fill-opacity:1.0; 
stroke:#848400; stroke-width:39.3701; stroke-opacity:1; 
stroke-linecap:round; stroke-linejoin:round;">
</g>
<g >
</g>
<g style="fill:#848400; fill-opacity:1.0; 
stroke:#848400; stroke-width:39.3701; stroke-opacity:1; 
stroke-linecap:round; stroke-linejoin:round;">
</g>
<g style="fill:#848400; fill-opacity:1.0; 
stroke:#848400; stroke-width:0; stroke-opacity:1; 
stroke-linecap:round; stroke-linejoin:round;">
<circle cx="29440.9" cy="16409.4" r="511.811" /> 
</g>
<g style="fill:#848400; fill-opacity:1.0; 
stroke:#848400; stroke-width:39.3701; stroke-opacity:1; 
stroke-linecap:round; stroke-linejoin:round;">
</g>
<g >
</g>
<g style="fill:#848400; fill-opacity:1.0; 
stroke:#848400; stroke-width:39.3701; stroke-opacity:1; 
stroke-linecap:round; stroke-linejoin:round;">
</g>
<g style="fill:#848400; fill-opacity:1.0; 
stroke:#848400; stroke-width:0; stroke-opacity:1; 
stroke-linecap:round; stroke-linejoin:round;">
<circle cx="27472.4" cy="16409.4" r="511.811" /> 
</g>
<g style="fill:#848400; fill-opacity:1.0; 
stroke:#848400; stroke-width:39.3701; stroke-opacity:1; 
stroke-linecap:round; stroke-linejoin:round;">
</g>
<g >
</g>
<g style="fill:#848400; fill-opacity:1.0; 
stroke:#848400; stroke-width:39.3701; stroke-opacity:1; 
stroke-linecap:round; stroke-linejoin:round;">
</g>
<g style="fill:#848400; fill-opacity:1.0; 
stroke:#848400; stroke-width:0; stroke-opacity:1; 
stroke-linecap:round; stroke-linejoin:round;">
<circle cx="25330.7" cy="16409.4" r="511.811" /> 
</g>
<g style="fill:#848400; fill-opacity:1.0; 
stroke:#848400; stroke-width:39.3701; stroke-opacity:1; 
stroke-linecap:round; stroke-linejoin:round;">
</g>
<g >
</g>
<g style="fill:#848400; fill-opacity:1.0; 
stroke:#848400; stroke-width:39.3701; stroke-opacity:1; 
stroke-linecap:round; stroke-linejoin:round;">
</g>
<g style="fill:#848400; fill-opacity:1.0; 
stroke:#848400; stroke-width:0; stroke-opacity:1; 
stroke-linecap:round; stroke-linejoin:round;">
<circle cx="23362.2" cy="16409.4" r="511.811" /> 
</g>
<g style="fill:#848400; fill-opacity:1.0; 
stroke:#848400; stroke-width:39.3701; stroke-opacity:1; 
stroke-linecap:round; stroke-linejoin:round;">
</g>
<g >
</g>
<g >
</g>
<g style="fill:#840000; fill-opacity:1.0; 
stroke:#840000; stroke-width:39.3701; stroke-opacity:1; 
stroke-linecap:round; stroke-linejoin:round;">
</g>
<g style="fill:#840000; fill-opacity:1.0; 
stroke:#840000; stroke-width:393.701; stroke-opacity:1; 
stroke-linecap:round; stroke-linejoin:round;">
</g>
<g style="fill:#840000; fill-opacity:0.0; 
stroke:#840000; stroke-width:393.701; stroke-opacity:1; 
stroke-linecap:round; stroke-linejoin:round;">
<path d="M27519 16456
L27472 16409
" />
</g>
<g style="fill:#840000; fill-opacity:0.0; 
stroke:#840000; stroke-width:98.4252; stroke-opacity:1; 
stroke-linecap:round; stroke-linejoin:round;">
<path d="M21480 17799
L21492 17787
" />
<path d="M21480 18657
L21480 17799
" />
</g>
<g style="fill:#840000; fill-opacity:0.0; 
stroke:#840000; stroke-width:196.85; stroke-opacity:1; 
stroke-linecap:round; stroke-linejoin:round;">
<path d="M26844 19891
L26834 19881
" />
<path d="M26844 21866
L26844 19891
" />
</g>
<g style="fill:#840000; fill-opacity:0.0; 
stroke:#840000; stroke-width:98.4252; stroke-opacity:1; 
stroke-linecap:round; stroke-linejoin:round;">
<path d="M24114 21000
L24114 18744
" />
<path d="M24027 18657
L22228 18657
" />
<path d="M24114 18744
L24027 18657
" />
</g>
<g style="fill:#840000; fill-opacity:0.0; 
stroke:#840000; stroke-width:295.276; stroke-opacity:1; 
stroke-linecap:round; stroke-linejoin:round;">
<path d="M20137 21000
L20137 22307
" />
<path d="M20137 22307
L20137 23633
" />
<path d="M20137 23633
L20342 23838
" />
<path d="M20342 23838
L24669 23838
" />
<path d="M24885 24055
L24885 28051
" />
<path d="M24669 23838
L24885 24055
" />
<path d="M25885 28051
L25885 23094
" />
</g>
<g style="fill:#840000; fill-opacity:0.0; 
stroke:#840000; stroke-width:393.701; stroke-opacity:1; 
stroke-linecap:round; stroke-linejoin:round;">
<path d="M25330 17133
L25330 16409
" />
<path d="M25870 17672
L25330 17133
" />
<path d="M25885 17688
L25870 17672
" />
<path d="M25885 23094
L25885 17688
" />
<path d="M25901 23078
L31157 23078
" />
</g>
<g style="fill:#840000; fill-opacity:0.0; 
stroke:#840000; stroke-width:295.276; stroke-opacity:1; 
stroke-linecap:round; stroke-linejoin:round;">
<path d="M24889 22307
L24137 22307
" />
<path d="M25090 22106
L24889 22307
" />
<path d="M25090 17822
L25090 22106
" />
<path d="M24850 17582
L25090 17822
" />
<path d="M23362 17346
L23362 16409
" />
<path d="M23362 17346
L23598 17582
" />
<path d="M24850 17582
L23598 17582
" />
</g>
<g style="fill:#840000; fill-opacity:0.0; 
stroke:#840000; stroke-width:393.701; stroke-opacity:1; 
stroke-linecap:round; stroke-linejoin:round;">
<path d="M27472 18055
L27488 18070
" />
<path d="M27472 16409
L27472 18055
" />
<path d="M27496 18078
L31157 18078
" />
<path d="M27488 18070
L27496 18078
" />
<path d="M23362 16409
L23362 15685
" />
<path d="M27259 15291
L27472 15503
" />
<path d="M23566 15291
L27259 15291
" />
<path d="M27472 15503
L27472 16409
" />
<path d="M23362 15496
L23566 15291
" />
<path d="M23362 15685
L23362 15496
" />
<path d="M27007 18078
L27496 18078
" />
<path d="M26834 18251
L27007 18078
" />
<path d="M26834 19881
L26834 18251
" />
</g>
<g style="fill:#840000; fill-opacity:0.0; 
stroke:#840000; stroke-width:118.11; stroke-opacity:1; 
stroke-linecap:round; stroke-linejoin:round;">
<path d="M21295 19437
L22535 19437
" />
<path d="M21854 19925
L21854 19444
" />
<path d="M21877 19948
L21854 19925
" />
<path d="M27464 21334
L27464 22452
" />
<path d="M27452 21322
L27464 21334
" />
<path d="M27984 21866
L27464 21866
" />
<path d="M27988 21870
L27984 21866
" />
</g>
<g style="fill:#840000; fill-opacity:0.0; 
stroke:#840000; stroke-width:275.591; stroke-opacity:1; 
stroke-linecap:round; stroke-linejoin:round;">
<path d="M26885 27267
L26885 28822
" />
<path d="M26976 27177
L26885 27267
" />
<path d="M27536 28051
L26885 28051
" />
<path d="M27578 28008
L27536 28051
" />
<path d="M27578 27940
L27578 28008
" />
<path d="M28803 19318
L28803 20574
" />
<path d="M28704 19220
L28803 19318
" />
<path d="M29409 19881
L27980 19881
" />
<path d="M29440 19913
L29409 19881
" />
</g>
<g style="fill:#840000; fill-opacity:0.0; 
stroke:#840000; stroke-width:314.961; stroke-opacity:1; 
stroke-linecap:round; stroke-linejoin:round;">
<path d="M29440 15488
L29440 17326
" />
<path d="M29437 15484
L29440 15488
" />
<path d="M30263 16409
L28633 16409
" />
<path d="M30287 16385
L30263 16409
" />
</g>
<g >
</g>
<g style="fill:#840000; fill-opacity:0.0; 
stroke:#840000; stroke-width:314.961; stroke-opacity:1; 
stroke-linecap:round; stroke-linejoin:round;">
</g>
<g style="fill:#840000; fill-opacity:1.0; 
stroke:#840000; stroke-width:100; stroke-opacity:1; 
stroke-linecap:round; stroke-linejoin:round;">
<path style="fill:#840000; fill-opacity:1.0; 
stroke:#840000; stroke-width:100; stroke-opacity:1; 
stroke-linecap:round; stroke-linejoin:round;fill-rule:evenodd;"
d="M 32574.8,30677.2
26766.9,30677.2
26766.9,28965.1
26765.9,28955.4
26763,28946
26758.4,28937.3
26752.2,28929.8
26744.6,28923.5
26736,28918.9
26726.6,28916.1
26716.9,28915.1
24988.5,28915.1
24978.7,28916.1
24969.3,28918.9
24960.7,28923.6
24953.1,28929.8
24946.9,28937.4
24942.3,28946
24939.5,28955.4
24938.5,28965.2
24939.5,30677.2
19137.8,30677.2
19137.8,26335.4
19427.2,26335.4
19427.2,26617.3
19482.2,26893.8
19590,27154.3
19746.7,27388.7
19946,27588
20180.4,27744.6
20440.8,27852.5
20717.3,27907.5
20999.2,27907.5
21275.7,27852.5
21536.1,27744.6
21770.5,27588
21969.9,27388.7
22126.5,27154.3
22234.4,26893.8
22289.4,26617.3
22289.4,26335.4
22234.4,26058.9
22126.5,25798.5
21969.9,25564.1
21770.5,25364.8
21536.1,25208.2
21275.7,25100.3
20999.2,25045.3
20717.3,25045.3
20440.8,25100.3
20180.4,25208.2
19946,25364.8
19746.7,25564.1
19590,25798.5
19482.2,26058.9
19427.2,26335.4
19137.8,26335.4
19137.8,20944.4
19572.8,20944.4
19572.8,21055.6
19594.5,21164.8
19637.1,21267.6
19699,21360.1
19740.2,21401.3
19740.2,21905.7
19699,21946.9
19637.1,22039.5
19594.5,22142.3
19572.8,22251.4
19572.8,22362.7
19594.5,22471.9
19637.1,22574.7
19699,22667.2
19740.2,22708.4
19740.2,23614.3
19738.2,23633.9
19745.9,23711.8
19768.6,23786.8
19796.3,23838.6
19805.6,23855.8
19855.3,23916.4
19870.4,23928.8
20047.5,24105.9
20060,24121.1
20120.5,24170.8
20189.6,24207.7
20264.6,24230.5
20323,24236.2
20323,24236.2
20342.5,24238.1
20362,24236.2
24488.2,24236.2
24488.2,27408.5
24461.8,27411.1
24414.7,27425.4
24371.3,27448.6
24333.2,27479.8
24302,27517.9
24278.7,27561.3
24264.4,27608.5
24259.6,27657.5
24259.6,28444.9
24264.4,28493.9
24278.7,28541
24302,28584.4
24333.2,28622.5
24371.3,28653.8
24414.7,28677
24461.8,28691.3
24510.8,28696.1
25260.8,28696.1
25309.8,28691.3
25357,28677
25400.4,28653.8
25438.5,28622.5
25469.7,28584.4
25487.4,28551.4
25536.9,28592.1
25645.5,28650.1
25763.3,28685.8
25885.8,28697.9
26008.3,28685.8
26126.2,28650.1
26234.7,28592.1
26329.9,28514
26385.8,28445.8
26441.7,28514
26536.9,28592.1
26645.5,28650.1
26763.3,28685.8
26885.8,28697.9
27008.3,28685.8
27126.2,28650.1
27234.7,28592.1
27329.9,28514
27408,28418.8
27466,28310.2
27501.8,28192.4
27510.8,28100.6
27510.8,28001.8
27501.8,27910
27466,27792.1
27408,27683.6
27329.9,27588.4
27234.7,27510.3
27126.2,27452.3
27008.3,27416.5
26885.8,27404.5
26763.3,27416.5
26645.5,27452.3
26536.9,27510.3
26441.7,27588.4
26385.8,27656.5
26329.9,27588.4
26283.5,27550.3
26283.5,26335.4
29427.2,26335.4
29427.2,26617.3
29482.2,26893.8
29590,27154.3
29746.7,27388.7
29946,27588
30180.4,27744.6
30440.8,27852.5
30717.3,27907.5
30999.2,27907.5
31275.7,27852.5
31536.1,27744.6
31770.5,27588
31969.9,27388.7
32126.5,27154.3
32234.4,26893.8
32289.4,26617.3
32289.4,26335.4
32234.4,26058.9
32126.5,25798.5
31969.9,25564.1
31770.5,25364.8
31536.1,25208.2
31275.7,25100.3
30999.2,25045.3
30717.3,25045.3
30440.8,25100.3
30180.4,25208.2
29946,25364.8
29746.7,25564.1
29590,25798.5
29482.2,26058.9
29427.2,26335.4
26283.5,26335.4
26283.5,23525.6
30397.8,23525.6
30474,23639.7
30596.6,23762.2
30740.7,23858.5
30900.8,23924.8
31070.8,23958.7
31244.1,23958.7
31414.1,23924.8
31574.3,23858.5
31718.4,23762.2
31841,23639.7
31937.3,23495.5
32003.6,23335.4
32037.4,23165.4
32037.4,22992.1
32003.6,22822.1
31937.3,22661.9
31841,22517.8
31718.4,22395.3
31574.3,22299
31414.1,22232.6
31244.1,22198.8
31070.8,22198.8
30900.8,22232.6
30740.7,22299
30596.6,22395.3
30474,22517.8
30397.8,22631.9
26332.7,22631.9
26332.7,20363.1
26342.1,20374.5
26380.1,20405.7
26423.6,20428.9
26470.7,20443.2
26496.1,20445.7
26496.1,21555.7
26477.9,21577.8
26446.7,21636.2
26427.5,21699.4
26421,21765.3
26421,21967
26427.5,22032.8
26446.7,22096.1
26477.9,22154.4
26519.8,22205.6
26571,22247.5
26629.3,22278.7
26692.6,22297.9
26758.4,22304.4
26930.6,22304.4
26996.4,22297.9
27059.7,22278.7
27118,22247.5
27154.5,22217.5
27191,22247.5
27249.4,22278.7
27312.6,22297.9
27378.4,22304.4
27550.7,22304.4
27616.5,22297.9
27679.8,22278.7
27738.1,22247.5
27789.2,22205.6
27831.2,22154.4
27862.3,22096.1
27881.5,22032.8
27888,21967
27888,21765.3
27881.5,21699.4
27862.3,21636.2
27831.2,21577.8
27789.2,21526.7
27738.1,21484.8
27679.8,21453.6
27616.5,21434.4
27550.7,21427.9
27378.4,21427.9
27312.6,21434.4
27249.4,21453.6
27192.9,21483.8
27192.9,20443.8
27198.6,20443.2
27245.7,20428.9
27289.2,20405.7
27327.2,20374.5
27358.5,20336.4
27381.7,20293
27396,20245.9
27400.8,20196.9
27400.8,19826.2
28238.2,19826.2
28238.2,19937.5
28259.9,20046.7
28302.5,20149.5
28364.3,20242
28443,20320.7
28535.5,20382.6
28638.4,20425.1
28747.5,20446.9
28858.8,20446.9
28967.9,20425.1
29070.8,20382.6
29163.3,20320.7
29242,20242
29303.8,20149.5
29346.4,20046.7
29368.1,19937.5
29368.1,19826.2
29346.4,19717.1
29303.8,19614.3
29242,19521.7
29163.3,19443.1
29070.8,19381.2
28967.9,19338.6
28858.8,19316.9
28747.5,19316.9
28638.4,19338.6
28535.5,19381.2
28443,19443.1
28364.3,19521.7
28302.5,19614.3
28259.9,19717.1
28238.2,19826.2
27400.8,19826.2
27400.8,19566.9
27396,19517.9
27381.7,19470.8
27358.5,19427.4
27327.2,19389.3
27289.2,19358.1
27281.5,19354
27281.5,18525.6
27474.1,18525.6
27496.1,18527.8
27518,18525.6
30276.3,18525.6
30276.3,18708.7
30281.2,18757.7
30295.5,18804.8
30318.7,18848.2
30349.9,18886.3
30388,18917.5
30431.4,18940.7
30478.6,18955
30527.6,18959.9
31787.4,18959.9
31836.4,18955
31883.5,18940.7
31927,18917.5
31965,18886.3
31996.3,18848.2
32019.5,18804.8
32033.8,18757.7
32038.6,18708.7
32038.6,17448.8
32033.8,17399.8
32019.5,17352.7
31996.3,17309.3
31965,17271.2
31927,17239.9
31883.5,17216.7
31836.4,17202.4
31787.4,17197.6
30527.6,17197.6
30478.6,17202.4
30431.4,17216.7
30388,17239.9
30349.9,17271.2
30318.7,17309.3
30295.5,17352.7
30281.2,17399.8
30276.3,17448.8
30276.3,17631.9
27919.3,17631.9
27919.3,17027.1
27958.1,17001.2
28064.2,16895.1
28147.5,16770.3
28205,16631.7
28234.3,16484.5
28234.3,16334.4
28679.1,16334.4
28679.1,16484.5
28708.4,16631.7
28765.8,16770.3
28849.2,16895.1
28955.3,17001.2
29080.1,17084.6
29218.7,17142
29365.9,17171.3
29516,17171.3
29663.2,17142
29801.8,17084.6
29926.6,17001.2
30032.7,16895.1
30116.1,16770.3
30173.5,16631.7
30202.8,16484.5
30202.8,16334.4
30173.5,16187.2
30116.1,16048.6
30032.7,15923.8
29926.6,15817.7
29801.8,15734.3
29663.2,15676.9
29516,15647.6
29365.9,15647.6
29218.7,15676.9
29080.1,15734.3
28955.3,15817.7
28849.2,15923.8
28765.8,16048.6
28708.4,16187.2
28679.1,16334.4
28234.3,16334.4
28205,16187.2
28147.5,16048.6
28064.2,15923.8
27958.1,15817.7
27919.3,15791.8
27919.3,15525.9
27921.5,15503.9
27919.3,15482
27919.3,15482
27912.8,15416.3
27887.3,15332.1
27845.8,15254.5
27789.9,15186.4
27772.9,15172.4
27591.3,14990.9
27577.3,14973.8
27509.3,14918
27431.7,14876.5
27347.4,14851
27281.8,14844.5
27281.8,14844.5
27259.8,14842.3
27237.9,14844.5
23588.9,14844.5
23566.9,14842.3
23545,14844.5
23479.3,14851
23395.1,14876.5
23317.5,14918
23249.4,14973.8
23235.4,14990.9
23061.8,15164.6
23044.7,15178.6
22988.9,15246.6
22947.4,15324.2
22945,15332.1
22921.8,15408.5
22913.2,15496.1
22915.4,15518
22915.4,15791.8
22876.6,15817.7
22770.5,15923.8
22687.1,16048.6
22629.7,16187.2
22600.4,16334.4
22600.4,16484.5
22629.7,16631.7
22687.1,16770.3
22770.5,16895.1
22876.6,17001.2
22964.6,17060
22964.6,17326.9
22962.6,17346.5
22970.3,17424.4
22978.3,17450.8
22993.1,17499.4
23030,17568.4
23079.7,17629
23094.8,17641.4
23303.4,17850
23315.9,17865.2
23376.4,17914.9
23445.5,17951.8
23520.5,17974.6
23578.9,17980.3
23578.9,17980.3
23598.4,17982.2
23618,17980.3
24685.7,17980.3
24692.9,17987.5
24692.9,20894.9
24681,20835.2
24638.5,20732.4
24576.6,20639.9
24497.9,20561.2
24413.4,20504.7
24413.4,18758.8
24414.8,18744.1
24413.4,18729.4
24413.4,18729.4
24409.1,18685.4
24391.9,18629
24364.2,18577.1
24326.8,18531.5
24315.4,18522.1
24249.5,18456.3
24240.2,18444.9
24194.6,18407.5
24142.6,18379.7
24086.2,18362.6
24042.3,18358.3
24042.3,18358.3
24027.6,18356.8
24012.9,18358.3
22604.1,18358.3
22594.7,18340.8
22563.5,18302.7
22525.4,18271.4
22482,18248.2
22434.8,18233.9
22385.8,18229.1
22070.9,18229.1
22052,18231
22058.9,18218.2
22073.2,18171.1
22078,18122
22078,17452.8
22073.2,17403.7
22058.9,17356.6
22035.6,17313.2
22004.4,17275.1
21966.3,17243.9
21922.9,17220.7
21875.8,17206.4
21826.8,17201.5
21157.5,17201.5
21108.5,17206.4
21061.3,17220.7
21017.9,17243.9
20979.8,17275.1
20948.6,17313.2
20925.4,17356.6
20911.1,17403.7
20906.3,17452.8
20906.3,18122
20911.1,18171.1
20925.4,18218.2
20948.6,18261.6
20979.8,18299.7
21017.9,18330.9
21061.3,18354.1
21100.5,18366
21090.7,18384.2
21076.5,18431.3
21071.6,18480.3
21071.6,18834.6
21076.5,18883.7
21090.7,18930.8
21114,18974.2
21145.2,19012.3
21183.3,19043.5
21226.7,19066.7
21273.8,19081
21322.8,19085.9
21524.4,19085.9
21519.2,19090.1
21488,19128.2
21464.8,19171.6
21450.5,19218.7
21445.6,19267.7
21445.6,19622
21450.5,19671.1
21464.8,19718.2
21488,19761.6
21519.2,19799.7
21557.3,19830.9
21600.7,19854.1
21647.8,19868.4
21696.9,19873.3
22011.8,19873.3
22060.8,19868.4
22107.9,19854.1
22151.4,19830.9
22189.4,19799.7
22220.7,19761.6
22243.9,19718.2
22258.2,19671.1
22263,19622
22263,19267.7
22258.2,19218.7
22243.9,19171.6
22220.7,19128.2
22189.4,19090.1
22184.3,19085.9
22385.8,19085.9
22434.8,19081
22482,19066.7
22525.4,19043.5
22563.5,19012.3
22594.7,18974.2
22604.1,18956.7
23815,18956.7
23815,20536.2
23777.7,20561.2
23699,20639.9
23637.1,20732.4
23594.5,20835.2
23572.8,20944.4
23572.8,21055.6
23594.5,21164.8
23637.1,21267.6
23699,21360.1
23777.7,21438.8
23870.2,21500.7
23973,21543.2
24082.2,21565
24193.4,21565
24302.6,21543.2
24405.4,21500.7
24497.9,21438.8
24576.6,21360.1
24638.5,21267.6
24681,21164.8
24692.9,21105.1
24692.9,21909.4
24539.1,21909.4
24497.9,21868.3
24405.4,21806.4
24302.6,21763.8
24193.4,21742.1
24082.2,21742.1
23973,21763.8
23870.2,21806.4
23777.7,21868.3
23699,21946.9
23637.1,22039.5
23594.5,22142.3
23572.8,22251.4
23572.8,22362.7
23594.5,22471.9
23637.1,22574.7
23699,22667.2
23777.7,22745.9
23870.2,22807.7
23973,22850.3
24082.2,22872
24193.4,22872
24302.6,22850.3
24405.4,22807.7
24497.9,22745.9
24539.1,22704.7
24870.2,22704.7
24889.8,22706.6
24967.7,22699
24981,22694.9
25042.7,22676.2
25111.7,22639.3
25172.3,22589.6
25184.7,22574.4
25357.9,22401.3
25373.1,22388.8
25422.8,22328.3
25439,22298
25439,23116.4
25445.4,23182.1
25471,23266.3
25488.2,23298.5
25488.2,27550.3
25487.4,27551
25469.7,27517.9
25438.5,27479.8
25400.4,27448.6
25357,27425.4
25309.8,27411.1
25283.5,27408.5
25283.5,24074.6
25285.4,24055.1
25283.5,24035.6
25283.5,24035.6
25277.7,23977.2
25255,23902.2
25218,23833.1
25168.4,23772.6
25153.2,23760.1
24964.3,23571.2
24951.8,23556
24891.3,23506.4
24822.2,23469.4
24747.2,23446.7
24688.8,23440.9
24669.3,23439
24649.8,23440.9
20535.4,23440.9
20535.4,22708.4
20576.6,22667.2
20638.5,22574.7
20681,22471.9
20702.8,22362.7
20702.8,22251.4
20681,22142.3
20638.5,22039.5
20576.6,21946.9
20535.4,21905.7
20535.4,21401.3
20576.6,21360.1
20638.5,21267.6
20681,21164.8
20702.8,21055.6
20702.8,20944.4
20681,20835.2
20638.5,20732.4
20576.6,20639.9
20497.9,20561.2
20405.4,20499.3
20302.6,20456.8
20193.4,20435
20082.2,20435
19973,20456.8
19870.2,20499.3
19777.7,20561.2
19699,20639.9
19637.1,20732.4
19594.5,20835.2
19572.8,20944.4
19137.8,20944.4
19137.8,14334.7
19312.2,14334.7
19313.2,16054.2
19314.1,16063.9
19317,16073.2
19321.6,16081.9
19327.8,16089.5
19335.4,16095.7
19344,16100.3
19353.4,16103.2
19363.2,16104.1
21090.5,16105.1
21100.3,16104.2
21109.7,16101.3
21118.3,16096.7
21125.9,16090.5
21132.1,16082.9
21136.7,16074.3
21139.6,16064.9
21140.6,16055.1
21140.6,14342.5
30568.1,14342.5
30569.1,16062
30570,16071.7
30572.9,16081.1
30577.5,16089.8
30583.7,16097.3
30591.3,16103.6
30599.9,16108.2
30609.3,16111
30619.1,16112
32346.4,16113
32356.2,16112
32365.6,16109.2
32374.2,16104.6
32381.8,16098.3
32388,16090.8
32392.7,16082.1
32395.5,16072.7
32396.5,16063
32396.5,14342.5
32395.5,14332.8
32392.7,14323.4
32388,14314.7
32381.8,14307.2
32374.2,14300.9
32365.6,14296.3
32356.2,14293.5
32346.5,14292.5
30618.1,14292.5
30608.3,14293.5
30598.9,14296.3
30590.3,14301
30582.7,14307.2
30576.5,14314.8
30571.9,14323.4
30569.1,14332.8
30568.1,14342.5
21140.6,14342.5
21140.6,14334.6
21139.6,14324.9
21136.7,14315.5
21132.1,14306.9
21125.9,14299.3
21118.3,14293.1
21109.7,14288.5
21100.3,14285.6
21090.6,14284.6
19362.2,14284.6
19352.4,14285.6
19343,14288.5
19334.4,14293.1
19326.8,14299.3
19320.6,14306.9
19316,14315.5
19313.2,14324.9
19312.2,14334.7
19137.8,14334.7
19137.8,13881.9
32574.8,13881.9
Z" /> 
<path style="fill:#840000; fill-opacity:1.0; 
stroke:#840000; stroke-width:100; stroke-opacity:1; 
stroke-linecap:round; stroke-linejoin:round;fill-rule:evenodd;"
d="M 27025.6,15791.8
26986.8,15817.7
26880.7,15923.8
26797.3,16048.6
26739.9,16187.2
26710.6,16334.4
26710.6,16484.5
26739.9,16631.7
26797.3,16770.3
26880.7,16895.1
26986.8,17001.2
27025.6,17027.1
27025.6,17631.5
27007.9,17629.7
26985.9,17631.9
26920.3,17638.4
26836,17663.9
26758.4,17705.4
26690.4,17761.2
26676.4,17778.3
26534.2,17920.5
26517.1,17934.5
26461.3,18002.5
26456.3,18011.8
26419.8,18080.1
26394.3,18164.4
26385.6,18252
26387.8,18273.9
26387.8,19354
26380.1,19358.1
26342.1,19389.3
26332.7,19400.7
26332.7,17710.3
26334.8,17688.4
26326.2,17600.8
26326.2,17600.8
26300.7,17516.5
26259.2,17438.9
26203.3,17370.9
26186.3,17356.9
25823.5,16994.1
25922.4,16895.1
26005.8,16770.3
26063.2,16631.7
26092.5,16484.5
26092.5,16334.4
26063.2,16187.2
26005.8,16048.6
25922.4,15923.8
25816.3,15817.7
25697.3,15738.2
27025.6,15738.2
Z" /> 
<path style="fill:#840000; fill-opacity:1.0; 
stroke:#840000; stroke-width:100; stroke-opacity:1; 
stroke-linecap:round; stroke-linejoin:round;fill-rule:evenodd;"
d="M 21862,18974.2
21893.2,19012.3
21898.4,19016.5
21810.3,19016.5
21815.4,19012.3
21846.7,18974.2
21854.3,18959.9
Z" /> 
<path style="fill:#840000; fill-opacity:1.0; 
stroke:#840000; stroke-width:100; stroke-opacity:1; 
stroke-linecap:round; stroke-linejoin:round;fill-rule:evenodd;"
d="M 24845.1,15817.7
24739,15923.8
24655.6,16048.6
24598.2,16187.2
24568.9,16334.4
24568.9,16484.5
24598.2,16631.7
24655.6,16770.3
24739,16895.1
24845.1,17001.2
24883.9,17027.1
24883.9,17111.3
24881.7,17133.3
24883.9,17155.2
24887,17186.7
24869.9,17185
24850.4,17183.1
24830.9,17185
23763.1,17185
23759.8,17181.8
23759.8,17060
23847.8,17001.2
23953.9,16895.1
24037.3,16770.3
24094.7,16631.7
24124,16484.5
24124,16334.4
24094.7,16187.2
24037.3,16048.6
23953.9,15923.8
23847.8,15817.7
23809.1,15791.8
23809.1,15738.2
24964.1,15738.2
Z" /> 
</g>
</g>
<g style="fill:#FFFFFF; fill-opacity:1.0; 
stroke:#FFFFFF; stroke-width:100; stroke-opacity:1; 
stroke-linecap:round; stroke-linejoin:round;">
</g>
<g style="fill:#FFFFFF; fill-opacity:1.0; 
stroke:#FFFFFF; stroke-width:0; stroke-opacity:1; 
stroke-linecap:round; stroke-linejoin:round;">
<circle cx="28803.1" cy="19881.9" r="157.48" /> 
</g>
<g style="fill:#FFFFFF; fill-opacity:1.0; 
stroke:#FFFFFF; stroke-width:39.3701; stroke-opacity:1; 
stroke-linecap:round; stroke-linejoin:round;">
</g>
<g style="fill:#FFFFFF; fill-opacity:1.0; 
stroke:#FFFFFF; stroke-width:0; stroke-opacity:1; 
stroke-linecap:round; stroke-linejoin:round;">
<circle cx="26834.6" cy="19881.9" r="157.48" /> 
</g>
<g style="fill:#FFFFFF; fill-opacity:1.0; 
stroke:#FFFFFF; stroke-width:39.3701; stroke-opacity:1; 
stroke-linecap:round; stroke-linejoin:round;">
</g>
<g style="fill:#FFFFFF; fill-opacity:1.0; 
stroke:#FFFFFF; stroke-width:0; stroke-opacity:1; 
stroke-linecap:round; stroke-linejoin:round;">
<circle cx="21492.1" cy="17787.4" r="196.85" /> 
</g>
<g style="fill:#FFFFFF; fill-opacity:1.0; 
stroke:#FFFFFF; stroke-width:39.3701; stroke-opacity:1; 
stroke-linecap:round; stroke-linejoin:round;">
</g>
<g style="fill:#FFFFFF; fill-opacity:1.0; 
stroke:#FFFFFF; stroke-width:0; stroke-opacity:1; 
stroke-linecap:round; stroke-linejoin:round;">
<circle cx="31157.5" cy="23078.7" r="314.961" /> 
</g>
<g style="fill:#FFFFFF; fill-opacity:1.0; 
stroke:#FFFFFF; stroke-width:39.3701; stroke-opacity:1; 
stroke-linecap:round; stroke-linejoin:round;">
</g>
<g style="fill:#FFFFFF; fill-opacity:1.0; 
stroke:#FFFFFF; stroke-width:0; stroke-opacity:1; 
stroke-linecap:round; stroke-linejoin:round;">
<circle cx="31157.5" cy="18078.7" r="314.961" /> 
</g>
<g style="fill:#FFFFFF; fill-opacity:1.0; 
stroke:#FFFFFF; stroke-width:39.3701; stroke-opacity:1; 
stroke-linecap:round; stroke-linejoin:round;">
</g>
<g style="fill:#FFFFFF; fill-opacity:1.0; 
stroke:#FFFFFF; stroke-width:0; stroke-opacity:1; 
stroke-linecap:round; stroke-linejoin:round;">
<circle cx="30858.3" cy="26476.4" r="492.126" /> 
</g>
<g style="fill:#FFFFFF; fill-opacity:1.0; 
stroke:#FFFFFF; stroke-width:39.3701; stroke-opacity:1; 
stroke-linecap:round; stroke-linejoin:round;">
</g>
<g style="fill:#FFFFFF; fill-opacity:1.0; 
stroke:#FFFFFF; stroke-width:0; stroke-opacity:1; 
stroke-linecap:round; stroke-linejoin:round;">
<circle cx="20858.3" cy="26476.4" r="492.126" /> 
</g>
<g style="fill:#FFFFFF; fill-opacity:1.0; 
stroke:#FFFFFF; stroke-width:39.3701; stroke-opacity:1; 
stroke-linecap:round; stroke-linejoin:round;">
</g>
<g style="fill:#FFFFFF; fill-opacity:1.0; 
stroke:#FFFFFF; stroke-width:0; stroke-opacity:1; 
stroke-linecap:round; stroke-linejoin:round;">
<circle cx="26885.8" cy="28051.2" r="216.535" /> 
</g>
<g style="fill:#FFFFFF; fill-opacity:1.0; 
stroke:#FFFFFF; stroke-width:39.3701; stroke-opacity:1; 
stroke-linecap:round; stroke-linejoin:round;">
</g>
<g style="fill:#FFFFFF; fill-opacity:1.0; 
stroke:#FFFFFF; stroke-width:0; stroke-opacity:1; 
stroke-linecap:round; stroke-linejoin:round;">
<circle cx="25885.8" cy="28051.2" r="216.535" /> 
</g>
<g style="fill:#FFFFFF; fill-opacity:1.0; 
stroke:#FFFFFF; stroke-width:39.3701; stroke-opacity:1; 
stroke-linecap:round; stroke-linejoin:round;">
</g>
<g style="fill:#FFFFFF; fill-opacity:1.0; 
stroke:#FFFFFF; stroke-width:0; stroke-opacity:1; 
stroke-linecap:round; stroke-linejoin:round;">
<circle cx="24885.8" cy="28051.2" r="216.535" /> 
</g>
<g style="fill:#FFFFFF; fill-opacity:1.0; 
stroke:#FFFFFF; stroke-width:39.3701; stroke-opacity:1; 
stroke-linecap:round; stroke-linejoin:round;">
</g>
<g style="fill:#FFFFFF; fill-opacity:1.0; 
stroke:#FFFFFF; stroke-width:0; stroke-opacity:1; 
stroke-linecap:round; stroke-linejoin:round;">
<circle cx="20137.8" cy="22307.1" r="157.48" /> 
</g>
<g style="fill:#FFFFFF; fill-opacity:1.0; 
stroke:#FFFFFF; stroke-width:39.3701; stroke-opacity:1; 
stroke-linecap:round; stroke-linejoin:round;">
</g>
<g style="fill:#FFFFFF; fill-opacity:1.0; 
stroke:#FFFFFF; stroke-width:0; stroke-opacity:1; 
stroke-linecap:round; stroke-linejoin:round;">
<circle cx="24137.8" cy="22307.1" r="157.48" /> 
</g>
<g style="fill:#FFFFFF; fill-opacity:1.0; 
stroke:#FFFFFF; stroke-width:39.3701; stroke-opacity:1; 
stroke-linecap:round; stroke-linejoin:round;">
</g>
<g style="fill:#FFFFFF; fill-opacity:1.0; 
stroke:#FFFFFF; stroke-width:0; stroke-opacity:1; 
stroke-linecap:round; stroke-linejoin:round;">
<circle cx="24137.8" cy="21000" r="157.48" /> 
</g>
<g style="fill:#FFFFFF; fill-opacity:1.0; 
stroke:#FFFFFF; stroke-width:39.3701; stroke-opacity:1; 
stroke-linecap:round; stroke-linejoin:round;">
</g>
<g style="fill:#FFFFFF; fill-opacity:1.0; 
stroke:#FFFFFF; stroke-width:0; stroke-opacity:1; 
stroke-linecap:round; stroke-linejoin:round;">
<circle cx="20137.8" cy="21000" r="157.48" /> 
</g>
<g style="fill:#FFFFFF; fill-opacity:1.0; 
stroke:#FFFFFF; stroke-width:39.3701; stroke-opacity:1; 
stroke-linecap:round; stroke-linejoin:round;">
</g>
<g style="fill:#FFFFFF; fill-opacity:1.0; 
stroke:#FFFFFF; stroke-width:0; stroke-opacity:1; 
stroke-linecap:round; stroke-linejoin:round;">
<circle cx="29440.9" cy="16409.4" r="255.906" /> 
</g>
<g style="fill:#FFFFFF; fill-opacity:1.0; 
stroke:#FFFFFF; stroke-width:39.3701; stroke-opacity:1; 
stroke-linecap:round; stroke-linejoin:round;">
</g>
<g style="fill:#FFFFFF; fill-opacity:1.0; 
stroke:#FFFFFF; stroke-width:0; stroke-opacity:1; 
stroke-linecap:round; stroke-linejoin:round;">
<circle cx="27472.4" cy="16409.4" r="255.906" /> 
</g>
<g style="fill:#FFFFFF; fill-opacity:1.0; 
stroke:#FFFFFF; stroke-width:39.3701; stroke-opacity:1; 
stroke-linecap:round; stroke-linejoin:round;">
</g>
<g style="fill:#FFFFFF; fill-opacity:1.0; 
stroke:#FFFFFF; stroke-width:0; stroke-opacity:1; 
stroke-linecap:round; stroke-linejoin:round;">
<circle cx="25330.7" cy="16409.4" r="255.906" /> 
</g>
<g style="fill:#FFFFFF; fill-opacity:1.0; 
stroke:#FFFFFF; stroke-width:39.3701; stroke-opacity:1; 
stroke-linecap:round; stroke-linejoin:round;">
</g>
<g style="fill:#FFFFFF; fill-opacity:1.0; 
stroke:#FFFFFF; stroke-width:0; stroke-opacity:1; 
stroke-linecap:round; stroke-linejoin:round;">
<circle cx="23362.2" cy="16409.4" r="255.906" /> 
</g>
<g style="fill:#FFFFFF; fill-opacity:1.0; 
stroke:#FFFFFF; stroke-width:39.3701; stroke-opacity:1; 
stroke-linecap:round; stroke-linejoin:round;">
</g>
<g style="fill:#000000; fill-opacity:1.0; 
stroke:#000000; stroke-width:39.3701; stroke-opacity:1; 
stroke-linecap:round; stroke-linejoin:round;">
</g>
<g style="fill:#008484; fill-opacity:1.0; 
stroke:#008484; stroke-width:39.3701; stroke-opacity:1; 
stroke-linecap:round; stroke-linejoin:round;">
</g>
<g style="fill:#008484; fill-opacity:1.0; 
stroke:#008484; stroke-width:59.0551; stroke-opacity:1; 
stroke-linecap:round; stroke-linejoin:round;">
</g>
<g style="fill:#008484; fill-opacity:0.0; 
stroke:#008484; stroke-width:59.0551; stroke-opacity:1; 
stroke-linecap:round; stroke-linejoin:round;">
<path d="M64775 38964
L64775 42507
" />
<path d="M60838 42507
L64775 42507
" />
<path d="M61291 38964
L60838 39417
" />
<path d="M60838 39417
L60838 42507
" />
<path d="M61291 38964
L64775 38964
" />
<path d="M65409 38956
L64956 39409
" />
<path d="M64956 39409
L64956 42500
" />
<path d="M64956 42500
L68893 42500
" />
<path d="M65409 38956
L68893 38956
" />
<path d="M68893 38956
L68893 42500
" />
</g>
<g style="fill:#008484; fill-opacity:0.0; 
stroke:#008484; stroke-width:47.2441; stroke-opacity:1; 
stroke-linecap:round; stroke-linejoin:round;">
<path d="M26240 18812
L26240 19127
" />
<path d="M26082 18970
L26397 18970
" />
<path d="M29425 19672
L29425 20091
" />
<path d="M29409 19579
L29409 20184
" />
<path d="M29394 19508
L29394 20255
" />
<path d="M29378 19449
L29378 20314
" />
<path d="M29362 19398
L29362 20365
" />
<path d="M29346 19351
L29346 20411
" />
<path d="M29331 19309
L29331 20453
" />
<path d="M29315 19270
L29315 20492
" />
<path d="M29299 19234
L29299 20529
" />
<path d="M29283 19200
L29283 20563
" />
<path d="M29268 19168
L29268 20595
" />
<path d="M29252 19137
L29252 20625
" />
<path d="M29236 19108
L29236 20655
" />
<path d="M29220 19081
L29220 20682
" />
<path d="M29205 20291
L29205 20709
" />
<path d="M29205 19054
L29205 19472
" />
<path d="M29189 20291
L29189 20734
" />
<path d="M29189 19029
L29189 19472
" />
<path d="M29173 20291
L29173 20759
" />
<path d="M29173 19004
L29173 19472
" />
<path d="M29157 20291
L29157 20782
" />
<path d="M29157 18981
L29157 19472
" />
<path d="M29142 20291
L29142 20805
" />
<path d="M29142 18958
L29142 19472
" />
<path d="M29126 20291
L29126 20826
" />
<path d="M29126 18937
L29126 19472
" />
<path d="M29110 20291
L29110 20848
" />
<path d="M29110 18915
L29110 19472
" />
<path d="M29094 20291
L29094 20868
" />
<path d="M29094 18895
L29094 19472
" />
<path d="M29079 20291
L29079 20888
" />
<path d="M29079 18875
L29079 19472
" />
<path d="M29063 20291
L29063 20907
" />
<path d="M29063 18856
L29063 19472
" />
<path d="M29047 20291
L29047 20925
" />
<path d="M29047 18838
L29047 19472
" />
<path d="M29031 20291
L29031 20943
" />
<path d="M29031 18820
L29031 19472
" />
<path d="M29016 20291
L29016 20961
" />
<path d="M29016 18802
L29016 19472
" />
<path d="M29000 20291
L29000 20977
" />
<path d="M29000 18785
L29000 19472
" />
<path d="M28984 20291
L28984 20994
" />
<path d="M28984 18769
L28984 19472
" />
<path d="M28968 20291
L28968 21010
" />
<path d="M28968 18753
L28968 19472
" />
<path d="M28953 20291
L28953 21026
" />
<path d="M28953 18737
L28953 19472
" />
<path d="M28937 20291
L28937 21041
" />
<path d="M28937 18722
L28937 19472
" />
<path d="M28921 20291
L28921 21056
" />
<path d="M28921 18707
L28921 19472
" />
<path d="M28905 20291
L28905 21070
" />
<path d="M28905 18693
L28905 19472
" />
<path d="M28890 20291
L28890 21084
" />
<path d="M28890 18679
L28890 19472
" />
<path d="M28874 20291
L28874 21098
" />
<path d="M28874 18665
L28874 19472
" />
<path d="M28858 20291
L28858 21111
" />
<path d="M28858 18651
L28858 19472
" />
<path d="M28842 20291
L28842 21124
" />
<path d="M28842 18639
L28842 19472
" />
<path d="M28827 20291
L28827 21137
" />
<path d="M28827 18626
L28827 19472
" />
<path d="M28811 20291
L28811 21149
" />
<path d="M28811 18614
L28811 19472
" />
<path d="M28795 20291
L28795 21161
" />
<path d="M28795 18602
L28795 19472
" />
<path d="M28779 20291
L28779 21173
" />
<path d="M28779 18590
L28779 19472
" />
<path d="M28764 20291
L28764 21184
" />
<path d="M28764 18579
L28764 19472
" />
<path d="M28748 20291
L28748 21196
" />
<path d="M28748 18567
L28748 19472
" />
<path d="M28732 20291
L28732 21206
" />
<path d="M28732 18557
L28732 19472
" />
<path d="M28716 20291
L28716 21217
" />
<path d="M28716 18546
L28716 19472
" />
<path d="M28701 20291
L28701 21227
" />
<path d="M28701 18536
L28701 19472
" />
<path d="M28685 20291
L28685 21237
" />
<path d="M28685 18525
L28685 19472
" />
<path d="M28669 20291
L28669 21247
" />
<path d="M28669 18516
L28669 19472
" />
<path d="M28653 20291
L28653 21257
" />
<path d="M28653 18506
L28653 19472
" />
<path d="M28638 20291
L28638 21266
" />
<path d="M28638 18497
L28638 19472
" />
<path d="M28622 20291
L28622 21275
" />
<path d="M28622 18488
L28622 19472
" />
<path d="M28606 20291
L28606 21284
" />
<path d="M28606 18479
L28606 19472
" />
<path d="M28590 20291
L28590 21292
" />
<path d="M28590 18470
L28590 19472
" />
<path d="M28575 20291
L28575 21301
" />
<path d="M28575 18462
L28575 19472
" />
<path d="M28559 20291
L28559 21309
" />
<path d="M28559 18453
L28559 19472
" />
<path d="M28543 20291
L28543 21317
" />
<path d="M28543 18446
L28543 19472
" />
<path d="M28527 20291
L28527 21325
" />
<path d="M28527 18438
L28527 19472
" />
<path d="M28512 20291
L28512 21333
" />
<path d="M28512 18430
L28512 19472
" />
<path d="M28496 20291
L28496 21340
" />
<path d="M28496 18423
L28496 19472
" />
<path d="M28480 20291
L28480 21347
" />
<path d="M28480 18416
L28480 19472
" />
<path d="M28464 20291
L28464 21354
" />
<path d="M28464 18409
L28464 19472
" />
<path d="M28449 20291
L28449 21361
" />
<path d="M28449 18402
L28449 19472
" />
<path d="M28433 20291
L28433 21367
" />
<path d="M28433 18396
L28433 19472
" />
<path d="M28417 20291
L28417 21374
" />
<path d="M28417 18389
L28417 19472
" />
<path d="M28401 20291
L28401 21379
" />
<path d="M28401 18383
L28401 19472
" />
<path d="M28386 18377
L28386 21386
" />
<path d="M28370 18372
L28370 21391
" />
<path d="M28354 18366
L28354 21397
" />
<path d="M28338 18361
L28338 21402
" />
<path d="M28323 18355
L28323 21408
" />
<path d="M28307 18350
L28307 21412
" />
<path d="M28291 18345
L28291 21418
" />
<path d="M28275 18340
L28275 21422
" />
<path d="M28260 18336
L28260 21427
" />
<path d="M28244 18332
L28244 21431
" />
<path d="M28228 18327
L28228 21435
" />
<path d="M28212 18324
L28212 21439
" />
<path d="M28197 18320
L28197 21443
" />
<path d="M28181 18316
L28181 21447
" />
<path d="M28165 18312
L28165 21450
" />
<path d="M28150 18309
L28150 21454
" />
<path d="M28134 18306
L28134 21457
" />
<path d="M28118 18303
L28118 21460
" />
<path d="M28102 18300
L28102 21463
" />
<path d="M28086 18297
L28086 21466
" />
<path d="M28070 18295
L28070 21468
" />
<path d="M28055 18292
L28055 21471
" />
<path d="M28039 18290
L28039 21473
" />
<path d="M28023 18288
L28023 21475
" />
<path d="M28007 18286
L28007 21477
" />
<path d="M27992 18284
L27992 21479
" />
<path d="M27976 18283
L27976 21480
" />
<path d="M27960 18281
L27960 21482
" />
<path d="M27944 18280
L27944 21483
" />
<path d="M27929 18279
L27929 21484
" />
<path d="M27913 18277
L27913 21485
" />
<path d="M27897 18277
L27897 21486
" />
<path d="M27881 18276
L27881 21487
" />
<path d="M27866 18275
L27866 21487
" />
<path d="M27850 18275
L27850 21488
" />
<path d="M27834 18275
L27834 21488
" />
<path d="M27818 18275
L27818 21488
" />
<circle cx="27818.9" cy="19881.9" r="1622.05" /> 
<path d="M20992 18287
L20992 17787
" />
<path d="M21492 18287
L20992 18287
" />
<path d="M21641 17350
L21641 17220
" />
<path d="M21342 17350
L21342 17220
" />
<path d="M21602 16173
L21602 13811
" />
<path d="M21555 16173
L21555 13811
" />
<path d="M21507 16173
L21507 13811
" />
<path d="M21460 16173
L21460 13811
" />
<path d="M21413 16173
L21413 13811
" />
<path d="M21366 16173
L21366 13811
" />
<path d="M21641 13811
L21641 16173
" />
<path d="M21342 13811
L21641 13811
" />
<path d="M21342 16173
L21342 13811
" />
<path d="M20968 16173
L20968 17220
" />
<path d="M22015 16173
L20968 16173
" />
<path d="M22015 17220
L22015 16173
" />
<path d="M20968 17220
L22015 17220
" />
<path d="M32779 19291
L29535 19291
" />
<path d="M32779 19385
L29535 19385
" />
<path d="M32779 19338
L29535 19338
" />
<path d="M29535 22397
L30433 22397
" />
<path d="M29535 18759
L29535 22397
" />
<path d="M30433 18759
L29535 18759
" />
<path d="M32779 22397
L31881 22397
" />
<path d="M32779 18759
L32779 22397
" />
<path d="M31881 18759
L32779 18759
" />
<path d="M29870 25338
L30854 23874
" />
<path d="M30854 23874
L30925 23897
" />
<path d="M30925 23897
L30665 25000
" />
<path d="M30665 25000
L32751 23866
" />
<path d="M32799 23913
L31952 25397
" />
<path d="M32759 25129
L32795 25188
" />
<path d="M31952 25397
L32759 25129
" />
<path d="M32795 25188
L32023 25933
" />
<path d="M32751 23866
L32799 23913
" />
<path d="M29232 29074
L29866 27614
" />
<path d="M28968 26811
L28968 29074
" />
<path d="M28968 29074
L29232 29074
" />
<path d="M30665 27952
L32751 29086
" />
<path d="M30854 29078
L30925 29055
" />
<path d="M30925 29055
L30665 27952
" />
<path d="M29870 27614
L30854 29078
" />
<path d="M32795 27763
L32023 27019
" />
<path d="M32799 29039
L31952 27555
" />
<path d="M32759 27822
L32795 27763
" />
<path d="M32751 29086
L32799 29039
" />
<path d="M31952 27555
L32759 27822
" />
<path d="M25858 26811
L28968 26811
" />
<path d="M28968 26141
L28968 23877
" />
<path d="M28968 23877
L29232 23877
" />
<path d="M29232 23877
L29866 25338
" />
<path d="M25858 26141
L28968 26141
" />
<path d="M20791 29055
L21051 27952
" />
<path d="M20862 29078
L20791 29055
" />
<path d="M21846 27614
L20862 29078
" />
<path d="M21051 27952
L18964 29086
" />
<path d="M18921 27763
L19692 27019
" />
<path d="M19763 27555
L18956 27822
" />
<path d="M18917 29039
L19763 27555
" />
<path d="M18964 29086
L18917 29039
" />
<path d="M18956 27822
L18921 27763
" />
<path d="M22484 29074
L21850 27614
" />
<path d="M25858 26811
L22748 26811
" />
<path d="M22748 26811
L22748 29074
" />
<path d="M22748 29074
L22484 29074
" />
<path d="M25858 26141
L22748 26141
" />
<path d="M22748 26141
L22748 23877
" />
<path d="M22748 23877
L22484 23877
" />
<path d="M22484 23877
L21850 25338
" />
<path d="M21846 25338
L20862 23874
" />
<path d="M20862 23874
L20791 23897
" />
<path d="M20791 23897
L21051 25000
" />
<path d="M21051 25000
L18964 23866
" />
<path d="M18964 23866
L18917 23913
" />
<path d="M18917 23913
L19763 25397
" />
<path d="M19763 25397
L18956 25129
" />
<path d="M18956 25129
L18921 25188
" />
<path d="M18921 25188
L19692 25933
" />
<path d="M27218 21665
L27090 21665
" />
<path d="M27218 22066
L27090 22066
" />
<path d="M26614 26763
L26614 27358
" />
<path d="M25157 26763
L25157 27358
" />
<path d="M23870 27358
L27901 27358
" />
<path d="M27901 26763
L27901 28590
" />
<path d="M23870 26763
L23870 28590
" />
<path d="M23870 28590
L27901 28590
" />
<path d="M23870 26763
L27901 26763
" />
<path d="M21232 19350
L21232 18775
" />
<path d="M22476 19350
L22476 18500
" />
<path d="M22476 19350
L22110 19350
" />
<path d="M21232 19350
L21598 19350
" />
<path d="M20850 21767
L20850 22846
" />
<path d="M20850 22846
L23425 22846
" />
<path d="M23425 22846
L23425 21767
" />
<path d="M23425 21767
L20850 21767
" />
<path d="M20547 22307
L20850 22307
" />
<path d="M23728 22307
L23425 22307
" />
<path d="M23728 21000
L23425 21000
" />
<path d="M20547 21000
L20850 21000
" />
<path d="M23425 20460
L20850 20460
" />
<path d="M23425 21539
L23425 20460
" />
<path d="M20850 21539
L23425 21539
" />
<path d="M20850 20460
L20850 21539
" />
<circle cx="29440.9" cy="16409.4" r="630.229" /> 
<circle cx="27472.4" cy="16409.4" r="630.229" /> 
<circle cx="25330.7" cy="16409.4" r="630.229" /> 
<circle cx="23362.2" cy="16409.4" r="630.229" /> 
<g >
</g>
</g>
<g style="fill:#000000; fill-opacity:0.0; 
stroke:#000000; stroke-width:47.2441; stroke-opacity:1; 
stroke-linecap:round; stroke-linejoin:round;">
</g>
<g style="fill:#000100; fill-opacity:0.0; 
stroke:#000100; stroke-width:47.2441; stroke-opacity:1; 
stroke-linecap:round; stroke-linejoin:round;">
</g>
<g style="fill:#000100; fill-opacity:0.0; 
stroke:#000100; stroke-width:59.0551; stroke-opacity:1; 
stroke-linecap:round; stroke-linejoin:round;">
<circle cx="25846.5" cy="29850.4" r="492.126" /> 
<circle cx="20232.3" cy="15200.8" r="492.126" /> 
<circle cx="31480.3" cy="15200.8" r="492.126" /> 
<path d="M18858 30956
L18858 13602
" />
<path d="M32854 30956
L18858 30956
" />
<path d="M32854 13602
L32854 30956
" />
<path d="M18858 13602
L32854 13602
" />
<g >
</g>
<g >
</g>
<g >
</g>
<g >
</g>
<g >
</g>
<g >
</g>
<g >
</g>
<g >
</g>
<g >
</g>
<g >
</g>
<g >
</g>
<g >
</g>
<g >
</g>
<g >
</g>
</g> 
</svg>
