
G28 X0
G28 Y0
G28 Z0
G90
G92 X-0.0 Y-0.0 Z-0.0
G21
G01 Z0 F800.0 
M300 S200 P1000
M0
G01 X0 Y0 Z0 F800.0 
G0 X0.4517 Y0.1678

M400
M03
M400
G1 F10.000000
G1  X0.565 Y0.6778
M400
G01 X0.5776 Y0.6978
M400
G01 X0.5997 Y0.7056
M400
G01 X0.6247 Y0.6952
M400
G01 X0.635 Y0.6703
M400
G01 X0.6348 Y0.6671
M400
G01 X0.6339 Y0.6623
M400
G1  X0.4934 Y0.0294
M400
G01 X0.4805 Y0.008
M400
G01 X0.4586 Y0.
M400
G01 X0.4388 Y0.0074
M400
G01 X0.4233 Y0.0305
M400
G1  X0.3175 Y0.3474
M400
G1  X0.2122 Y0.0305
M400
G01 X0.1967 Y0.0075
M400
G01 X0.1764 Y0.
M400
G01 X0.155 Y0.008
M400
G01 X0.1416 Y0.0305
M400
G1  X0.0011 Y0.6623
M400
G01 X0.0002 Y0.6671
M400
G01 X0. Y0.6703
M400
G01 X0.0103 Y0.6952
M400
G01 X0.0353 Y0.7056
M400
G01 X0.0574 Y0.6978
M400
G01 X0.07 Y0.6778
M400
G1  X0.1833 Y0.1668
M400
G1  X0.2828 Y0.4645
M400
G01 X0.2977 Y0.4866
M400
G01 X0.3175 Y0.4939
M400
G01 X0.3378 Y0.4865
M400
G01 X0.3528 Y0.4645
M400
G1  X0.4517 Y0.1678
M400
M05

G0 X0.000 Y0.000 F700.00
M05
G0 Z20.0 Y100.0 F600.0
M02
