
G28 X0
G28 Y0
G28 Z0
G90
G92 X-0.0 Y-0.0 Z-0.0
G21
G01 Z0 F800.0 
M300 S200 P1000
M0
G01 X0 Y0 Z0 F800.0 
G0 X4.5166 Y1.6784

M400
M03
M400
G1 F10.000000
G1  X5.6498 Y6.7776
M400
G02 X5.7757 Y6.9779 I0.3509 J-0.081
M400
G02 X5.9972 Y7.0556 I0.2215 J-0.2769
M400
G02 X6.2467 Y6.9522 I0. J-0.3528
M400
G02 X6.35 Y6.7028 I-0.2495 J-0.2495
M400
G01 X6.3479 Y6.6708
M400
G02 X6.3393 Y6.6226 I-0.5601 J0.0747
M400
G1  X4.9335 Y0.294
M400
G02 X4.8049 Y0.0801 I-0.3798 J0.0828
M400
G02 X4.5861 Y-0. I-0.2187 J0.2585
M400
G01 X4.388 Y0.0737
M400
G02 X4.2333 Y0.3047 I0.3426 J0.3967
M400
G1  X3.175 Y3.4743
M400
G1  X2.122 Y0.3047
M400
G02 X1.9667 Y0.0746 I-0.49 J0.1633
M400
G01 X1.7639 Y-0.
M400
G02 X1.5501 Y0.0805 I0. J0.3242
M400
G02 X1.4165 Y0.3047 I0.2792 J0.3184
M400
G1  X0.0107 Y6.6226
M400
G02 X0.0021 Y6.6709 I0.5572 J0.1238
M400
G01 X-0. Y6.7028
M400
G02 X0.1033 Y6.9522 I0.3528 J0.
M400
G02 X0.3528 Y7.0556 I0.2495 J-0.2495
M400
G02 X0.5743 Y6.9779 I-0. J-0.3545
M400
G02 X0.7002 Y6.7776 I-0.2251 J-0.2813
M400
G1  X1.8334 Y1.6676
M400
G1  X2.8276 Y4.6448
M400
G02 X2.9765 Y4.8662 I0.465 J-0.1522
M400
G01 X3.175 Y4.9389
M400
G02 X3.3782 Y4.8653 I0. J-0.3174
M400
G02 X3.5278 Y4.6449 I-0.3086 J-0.3704
M400
G1  X4.5166 Y1.6784
M400
M05

G0 X0.000 Y0.000 F700.00
M05
G0 Z20.0 Y100.0 F600.0
M02
